anna@obi ~ > python resources/resources/rungsted-master/rungsted/labeler.py  --train speciale/data/train/amb/all_max12_0.0_100_s20w9cluc_cmud.vw --test speciale/data/test/amb/lyrics_s20w9cmuc.vw --cost-sensitive
* * * * * * * * * >>  Accuracy: 84.9900 on test speciale/data/train/amb/all_max12_0.0_100_s20w9cluc_cmud.vw

anna@obi ~ > python resources/resources/rungsted-master/rungsted/labeler.py  --train speciale/data/train/amb/all_max12_0.0_100_s20w9cluc_cmud.vw --test speciale/data/test/amb/lyrics_s20w9cmuc.vw --cost-sensitive
* * * * * * * * * >>  Accuracy: 84.8121 on test speciale/data/train/amb/all_max12_0.0_100_s20w9cluc_cmud.vw

anna@obi ~ > python resources/resources/rungsted-master/rungsted/labeler.py  --train speciale/data/train/amb/all_max12_0.0_100_s20w9cluc_cmud.vw --test speciale/data/test/amb/lyrics_s20w9cmuc.vw --cost-sensitive
* * * * * * * * * >>  Accuracy: 84.8566 on test speciale/data/train/amb/all_max12_0.0_100_s20w9cluc_cmud.vw

anna@obi ~ > python resources/resources/rungsted-master/rungsted/labeler.py  --train speciale/data/train/amb/all_max12_0.0_100_s20w9cluc_cmud.vw --test speciale/data/test/amb/tweets_s20w9cmuc.vw --cost-sensitive
* * * * * * * * * >>  Accuracy: 83.7989 on test speciale/data/train/amb/all_max12_0.0_100_s20w9cluc_cmud.vw

anna@obi ~ > python resources/resources/rungsted-master/rungsted/labeler.py  --train speciale/data/train/amb/all_max12_0.0_100_s20w9cluc_cmud.vw --test speciale/data/test/amb/tweets_s20w9cmuc.vw --cost-sensitive
* * * * * * * * * >>  Accuracy: 83.4796 on test speciale/data/train/amb/all_max12_0.0_100_s20w9cluc_cmud.vw

anna@obi ~ > python resources/resources/rungsted-master/rungsted/labeler.py  --train speciale/data/train/amb/all_max12_0.0_100_s20w9cluc_cmud.vw --test speciale/data/test/amb/tweets_s20w9cmuc.vw --cost-sensitive
* * * * * * * * * >>  Accuracy: 83.2602 on test speciale/data/train/amb/all_max12_0.0_100_s20w9cluc_cmud.vw

anna@obi ~ > python resources/resources/rungsted-master/rungsted/labeler.py  --train speciale/data/train/amb/all_max12_0.0_100_s20w9cluc_cmud.vw --test speciale/data/test/amb/testwire_s20w9cmuc.vw --cost-sensitive
* * * * * * * * * >>  Accuracy: 88.6815 on test speciale/data/train/amb/all_max12_0.0_100_s20w9cluc_cmud.vw

anna@obi ~ > python resources/resources/rungsted-master/rungsted/labeler.py  --train speciale/data/train/amb/all_max12_0.0_100_s20w9cluc_cmud.vw --test speciale/data/test/amb/testwire_s20w9cmuc.vw --cost-sensitive
* * * * * * * * * >>  Accuracy: 88.7524 on test speciale/data/train/amb/all_max12_0.0_100_s20w9cluc_cmud.vw

anna@obi ~ > python resources/resources/rungsted-master/rungsted/labeler.py  --train speciale/data/train/amb/all_max12_0.0_100_s20w9cluc_cmud.vw --test speciale/data/test/amb/testwire_s20w9cmuc.vw --cost-sensitive
* * * * * * * * * >>  Accuracy: 88.8469 on test speciale/data/train/amb/all_max12_0.0_100_s20w9cluc_cmud.vw 
