d-1-1	little	ADJ	ADJ
d-1-2	somethin'	PRON	NOUN
d-1-3	for	ADP	ADP
d-1-4	my	DET	DET
d-1-5	godson	NOUN	NOUN
d-1-6	elijah	NOUN	NOUN

d-2-1	and	CONJ	CONJ
d-2-2	a	DET	DET
d-2-3	little	ADJ	ADJ
d-2-4	girl	NOUN	NOUN
d-2-5	named	VERB	NOUN
d-2-6	corinne	NOUN	NOUN

d-3-1	some	PRON	DET
d-3-2	say	VERB	VERB
d-3-3	the	DET	DET
d-3-4	blacker	ADJ	NOUN
d-3-5	the	DET	DET
d-3-6	berry	NOUN	NOUN
d-3-7	,	.	.
d-3-8	the	DET	DET
d-3-9	sweeter	ADJ	NOUN
d-3-10	the	DET	DET
d-3-11	juice	NOUN	NOUN

d-4-1	i	PRON	PRON
d-4-2	say	VERB	VERB
d-4-3	the	DET	DET
d-4-4	darker	ADJ	NOUN
d-4-5	the	DET	DET
d-4-6	flesh	NOUN	NOUN
d-4-7	then	ADV	ADV
d-4-8	the	DET	DET
d-4-9	deeper	ADJ	NOUN
d-4-10	the	DET	DET
d-4-11	roots	NOUN	NOUN

d-5-1	i	PRON	PRON
d-5-2	give	VERB	VERB
d-5-3	a	DET	DET
d-5-4	holla	NOUN	PRT
d-5-5	to	ADP	ADP
d-5-6	my	DET	DET
d-5-7	sisters	NOUN	NOUN
d-5-8	on	ADP	ADP
d-5-9	welfare	NOUN	NOUN

d-6-1	2pac	NOUN	NOUN
d-6-2	cares	VERB	VERB
d-6-3	,	.	.
d-6-4	if	CONJ	ADP
d-6-5	don't	VERB	VERB
d-6-6	nobody	PRON	VERB
d-6-7	else	ADJ	NOUN
d-6-8	care	VERB	NOUN

d-7-1	and	CONJ	CONJ
d-7-2	,	.	.
d-7-3	i	PRON	PRON
d-7-4	know	VERB	VERB
d-7-5	they	PRON	PRON
d-7-6	like	VERB	VERB
d-7-7	to	ADP	ADP
d-7-8	beat	VERB	VERB
d-7-9	you	PRON	PRON
d-7-10	down	PRT	ADP
d-7-11	a	DET	DET
d-7-12	lot	NOUN	NOUN

d-8-1	when	ADV	ADV
d-8-2	you	PRON	PRON
d-8-3	come	VERB	VERB
d-8-4	around	ADP	ADP
d-8-5	the	DET	DET
d-8-6	block	NOUN	NOUN
d-8-7	,	.	.
d-8-8	brothers	NOUN	NOUN
d-8-9	clown	VERB	VERB
d-8-10	a	DET	DET
d-8-11	lot	NOUN	NOUN

d-9-1	but	CONJ	CONJ
d-9-2	please	VERB	VERB
d-9-3	don't	VERB	VERB
d-9-4	cry	VERB	VERB
d-9-5	,	.	.
d-9-6	dry	VERB	VERB
d-9-7	your	DET	DET
d-9-8	eyes	NOUN	NOUN
d-9-9	,	.	.
d-9-10	never	ADV	ADV
d-9-11	let	VERB	VERB
d-9-12	up	PRT	PRT

d-10-1	forgive	VERB	ADJ
d-10-2	but	CONJ	CONJ
d-10-3	don't	VERB	VERB
d-10-4	forget	VERB	VERB
d-10-5	,	.	.
d-10-6	girl	NOUN	NOUN
d-10-7	,	.	.
d-10-8	keep	VERB	VERB
d-10-9	your	DET	DET
d-10-10	head	NOUN	NOUN
d-10-11	up	PRT	PRT

d-11-1	and	CONJ	CONJ
d-11-2	when	ADV	ADV
d-11-3	he	PRON	PRON
d-11-4	tells	VERB	VERB
d-11-5	you	PRON	PRON
d-11-6	you	PRON	PRON
d-11-7	ain't	VERB	VERB
d-11-8	nothin'	PRON	NOUN
d-11-9	,	.	.
d-11-10	don't	VERB	VERB
d-11-11	believe	VERB	VERB
d-11-12	him	PRON	PRON

d-12-1	and	CONJ	CONJ
d-12-2	if	CONJ	ADP
d-12-3	he	PRON	PRON
d-12-4	can't	VERB	VERB
d-12-5	learn	VERB	VERB
d-12-6	to	ADP	ADP
d-12-7	love	VERB	VERB
d-12-8	you	PRON	PRON
d-12-9	,	.	.
d-12-10	you	PRON	PRON
d-12-11	should	VERB	VERB
d-12-12	leave	VERB	VERB
d-12-13	him	PRON	PRON

d-13-1	cause	CONJ	ADP
d-13-2	sister	NOUN	NOUN
d-13-3	,	.	.
d-13-4	you	PRON	PRON
d-13-5	don't	VERB	VERB
d-13-6	need	VERB	VERB
d-13-7	him	PRON	PRON

d-14-1	and	CONJ	CONJ
d-14-2	i	PRON	PRON
d-14-3	ain't	VERB	VERB
d-14-4	tryin'	VERB	VERB
d-14-5	to	ADP	ADP
d-14-6	gas	VERB	VERB
d-14-7	ya	DET	PRON
d-14-8	up	PRT	PRT
d-14-9	,	.	.
d-14-10	i	PRON	PRON
d-14-11	just	ADV	ADV
d-14-12	call	VERB	VERB
d-14-13	'em	PRON	PRON
d-14-14	how	ADV	ADV
d-14-15	i	PRON	PRON
d-14-16	see	VERB	VERB
d-14-17	'em	PRON	PRON

d-15-1	you	PRON	PRON
d-15-2	know	VERB	VERB
d-15-3	what	PRON	PRON
d-15-4	makes	VERB	VERB
d-15-5	me	PRON	PRON
d-15-6	unhappy	ADJ	ADJ

d-16-1	when	ADV	ADV
d-16-2	brothers	NOUN	NOUN
d-16-3	make	VERB	VERB
d-16-4	babies	NOUN	NOUN
d-16-5	,	.	.
d-16-6	and	CONJ	CONJ
d-16-7	leave	VERB	VERB
d-16-8	a	DET	DET
d-16-9	young	ADJ	ADJ
d-16-10	mother	NOUN	NOUN
d-16-11	to	ADP	ADP
d-16-12	be	VERB	VERB
d-16-13	a	DET	DET
d-16-14	pappy	NOUN	ADJ

d-17-1	and	CONJ	CONJ
d-17-2	since	ADP	ADP
d-17-3	we	PRON	PRON
d-17-4	all	ADJ	DET
d-17-5	came	VERB	VERB
d-17-6	from	ADP	ADP
d-17-7	a	DET	DET
d-17-8	woman	NOUN	NOUN

d-18-1	got	VERB	VERB
d-18-2	our	DET	DET
d-18-3	name	NOUN	NOUN
d-18-4	from	ADP	ADP
d-18-5	a	DET	DET
d-18-6	woman	NOUN	NOUN
d-18-7	and	CONJ	CONJ
d-18-8	our	DET	DET
d-18-9	game	NOUN	NOUN
d-18-10	from	ADP	ADP
d-18-11	a	DET	DET
d-18-12	woman	NOUN	NOUN

d-19-1	i	PRON	PRON
d-19-2	wonder	VERB	VERB
d-19-3	why	ADV	ADV
d-19-4	we	PRON	PRON
d-19-5	take	VERB	VERB
d-19-6	from	ADP	ADP
d-19-7	our	DET	DET
d-19-8	women	NOUN	NOUN

d-20-1	why	ADV	ADV
d-20-2	we	PRON	PRON
d-20-3	rape	VERB	VERB
d-20-4	our	DET	DET
d-20-5	women	NOUN	NOUN
d-20-6	,	.	.
d-20-7	do	VERB	VERB
d-20-8	we	PRON	PRON
d-20-9	hate	VERB	VERB
d-20-10	our	DET	DET
d-20-11	women	NOUN	NOUN

d-21-1	i	PRON	PRON
d-21-2	think	VERB	VERB
d-21-3	it's	PRON	PRT
d-21-4	time	NOUN	NOUN
d-21-5	to	ADP	ADP
d-21-6	kill	VERB	VERB
d-21-7	for	ADP	ADP
d-21-8	our	DET	DET
d-21-9	women	NOUN	NOUN

d-22-1	time	NOUN	NOUN
d-22-2	to	ADP	ADP
d-22-3	heal	VERB	VERB
d-22-4	our	DET	DET
d-22-5	women	NOUN	NOUN
d-22-6	,	.	.
d-22-7	be	VERB	VERB
d-22-8	real	ADJ	ADJ
d-22-9	to	ADP	ADP
d-22-10	our	DET	DET
d-22-11	women	NOUN	NOUN

d-23-1	and	CONJ	CONJ
d-23-2	if	CONJ	ADP
d-23-3	we	PRON	PRON
d-23-4	don't	VERB	VERB
d-23-5	we'll	PRON	PRT
d-23-6	have	VERB	VERB
d-23-7	a	DET	DET
d-23-8	race	NOUN	NOUN
d-23-9	of	ADP	ADP
d-23-10	babies	NOUN	NOUN

d-24-1	that	PRON	PRON
d-24-2	will	VERB	VERB
d-24-3	hate	VERB	VERB
d-24-4	the	DET	DET
d-24-5	ladies	NOUN	NOUN
d-24-6	that	PRON	ADP
d-24-7	make	VERB	VERB
d-24-8	the	DET	DET
d-24-9	babies	NOUN	NOUN

d-25-1	and	CONJ	CONJ
d-25-2	since	CONJ	ADP
d-25-3	a	DET	DET
d-25-4	man	NOUN	NOUN
d-25-5	can't	VERB	VERB
d-25-6	make	VERB	VERB
d-25-7	one	NOUN	NUM

d-26-1	he	PRON	PRON
d-26-2	has	VERB	VERB
d-26-3	no	DET	DET
d-26-4	right	NOUN	NOUN
d-26-5	to	ADP	ADP
d-26-6	tell	VERB	VERB
d-26-7	a	DET	DET
d-26-8	woman	NOUN	NOUN
d-26-9	when	ADV	ADV
d-26-10	and	CONJ	CONJ
d-26-11	where	ADV	ADV
d-26-12	to	ADP	ADP
d-26-13	create	VERB	VERB
d-26-14	one	NOUN	NUM

d-27-1	so	ADV	ADP
d-27-2	will	VERB	VERB
d-27-3	the	DET	DET
d-27-4	real	ADJ	ADJ
d-27-5	men	NOUN	NOUN
d-27-6	get	VERB	VERB
d-27-7	up	PRT	PRT

d-28-1	i	PRON	PRON
d-28-2	know	VERB	VERB
d-28-3	you're	PRON	PRT
d-28-4	fed	VERB	VERB
d-28-5	up	PRT	PRT
d-28-6	ladies	NOUN	NOUN
d-28-7	,	.	.
d-28-8	but	CONJ	CONJ
d-28-9	keep	VERB	VERB
d-28-10	your	DET	DET
d-28-11	head	NOUN	NOUN
d-28-12	up	PRT	PRT

d-29-1	keep	VERB	VERB
d-29-2	ya	DET	DET
d-29-3	head	NOUN	NOUN
d-29-4	up	PRT	PRT
d-29-5	,	.	.
d-29-6	ooh	X	PRT
d-29-7	,	.	.
d-29-8	child	NOUN	NOUN
d-29-9	,	.	.
d-29-10	things	NOUN	NOUN
d-29-11	are	VERB	VERB
d-29-12	gonna	VERB	VERB
d-29-13	get	VERB	VERB
d-29-14	easier	ADJ	ADJ

d-30-1	keep	VERB	VERB
d-30-2	ya	DET	DET
d-30-3	head	NOUN	NOUN
d-30-4	up	PRT	PRT
d-30-5	,	.	.
d-30-6	ooh	X	PRT
d-30-7	,	.	.
d-30-8	child	NOUN	NOUN
d-30-9	,	.	.
d-30-10	things'll	NOUN	PRT
d-30-11	get	VERB	VERB
d-30-12	brighter	ADJ	ADJ

d-31-1	aiyyo	X	NOUN
d-31-2	,	.	.
d-31-3	i	PRON	PRON
d-31-4	remember	VERB	VERB
d-31-5	marvin	NOUN	NOUN
d-31-6	gaye	NOUN	NOUN
d-31-7	used	VERB	VERB
d-31-8	to	ADP	ADP
d-31-9	sing	VERB	VERB
d-31-10	to	ADP	ADP
d-31-11	me	PRON	PRON

d-32-1	he	PRON	PRON
d-32-2	had	VERB	VERB
d-32-3	me	PRON	PRON
d-32-4	feelin'	VERB	VERB
d-32-5	like	ADP	ADP
d-32-6	black	ADJ	NOUN
d-32-7	was	VERB	VERB
d-32-8	the	DET	DET
d-32-9	thing	NOUN	NOUN
d-32-10	to	ADP	ADP
d-32-11	be	VERB	VERB

d-33-1	and	CONJ	CONJ
d-33-2	suddenly	ADV	VERB
d-33-3	the	DET	DET
d-33-4	ghetto	NOUN	NOUN
d-33-5	didn't	VERB	VERB
d-33-6	seem	VERB	VERB
d-33-7	so	ADV	ADV
d-33-8	tough	ADJ	ADV

d-34-1	and	CONJ	CONJ
d-34-2	though	CONJ	ADP
d-34-3	we	PRON	PRON
d-34-4	had	VERB	VERB
d-34-5	it	PRON	PRON
d-34-6	rough	ADJ	ADJ
d-34-7	,	.	.
d-34-8	we	PRON	PRON
d-34-9	always	ADV	ADV
d-34-10	had	VERB	VERB
d-34-11	enough	ADJ	ADV

d-35-1	i	PRON	PRON
d-35-2	huffed	VERB	VERB
d-35-3	and	CONJ	CONJ
d-35-4	puffed	VERB	NOUN
d-35-5	about	ADP	ADP
d-35-6	my	DET	DET
d-35-7	curfew	NOUN	NOUN
d-35-8	and	CONJ	CONJ
d-35-9	broke	VERB	ADJ
d-35-10	the	DET	DET
d-35-11	rules	NOUN	NOUN

d-36-1	ran	VERB	VERB
d-36-2	with	ADP	ADP
d-36-3	the	DET	DET
d-36-4	local	ADJ	ADJ
d-36-5	crew	NOUN	NOUN
d-36-6	and	CONJ	CONJ
d-36-7	had	VERB	VERB
d-36-8	a	DET	DET
d-36-9	smoke	NOUN	NOUN
d-36-10	or	CONJ	CONJ
d-36-11	two	NOUN	NUM

d-37-1	and	CONJ	CONJ
d-37-2	i	PRON	PRON
d-37-3	realize	VERB	VERB
d-37-4	momma	NOUN	NOUN
d-37-5	really	ADV	ADV
d-37-6	paid	VERB	VERB
d-37-7	the	DET	DET
d-37-8	price	NOUN	NOUN

d-38-1	she	PRON	PRON
d-38-2	nearly	ADV	ADV
d-38-3	gave	VERB	VERB
d-38-4	her	PRON	DET
d-38-5	life	NOUN	NOUN
d-38-6	to	ADP	ADP
d-38-7	raise	VERB	VERB
d-38-8	me	PRON	PRON
d-38-9	right	ADJ	ADV

d-39-1	and	CONJ	CONJ
d-39-2	all	ADJ	DET
d-39-3	i	PRON	PRON
d-39-4	had	VERB	VERB
d-39-5	to	ADP	ADP
d-39-6	give	VERB	VERB
d-39-7	her	PRON	PRON
d-39-8	was	VERB	VERB
d-39-9	my	DET	DET
d-39-10	pipe	NOUN	NOUN
d-39-11	dream	NOUN	VERB

d-40-1	of	ADP	ADP
d-40-2	how	ADV	ADV
d-40-3	i'd	PRON	PRT
d-40-4	rock	VERB	NOUN
d-40-5	the	DET	DET
d-40-6	mic	NOUN	NOUN
d-40-7	and	CONJ	CONJ
d-40-8	make	VERB	VERB
d-40-9	it	PRON	PRON
d-40-10	to	ADP	ADP
d-40-11	the	DET	DET
d-40-12	bright	ADJ	NOUN
d-40-13	screen	NOUN	NOUN

d-41-1	i'm	PRON	PRT
d-41-2	tryin'	VERB	VERB
d-41-3	to	ADP	ADP
d-41-4	make	VERB	VERB
d-41-5	a	DET	DET
d-41-6	dollar	NOUN	NOUN
d-41-7	out	ADP	ADP
d-41-8	of	ADP	ADP
d-41-9	fifteen	NUM	NOUN
d-41-10	cents	NOUN	NOUN

d-42-1	it's	PRON	PRT
d-42-2	hard	ADJ	ADJ
d-42-3	to	ADP	ADP
d-42-4	be	VERB	VERB
d-42-5	legit	ADJ	ADV
d-42-6	and	CONJ	CONJ
d-42-7	still	ADV	ADV
d-42-8	pay	VERB	VERB
d-42-9	the	DET	DET
d-42-10	rent	NOUN	NOUN

d-43-1	and	CONJ	CONJ
d-43-2	in	ADP	ADP
d-43-3	the	DET	DET
d-43-4	end	NOUN	NOUN
d-43-5	it	PRON	PRON
d-43-6	seems	VERB	VERB
d-43-7	i'm	PRON	PRT
d-43-8	headin'	VERB	VERB
d-43-9	for	ADP	ADP
d-43-10	the	DET	DET
d-43-11	pen	NOUN	NOUN

d-44-1	i	PRON	PRON
d-44-2	try	VERB	VERB
d-44-3	to	ADP	ADP
d-44-4	find	VERB	VERB
d-44-5	my	DET	DET
d-44-6	friends	NOUN	NOUN
d-44-7	but	CONJ	CONJ
d-44-8	they're	PRON	PRT
d-44-9	blowin'	VERB	VERB
d-44-10	in	ADP	ADP
d-44-11	the	DET	DET
d-44-12	wind	NOUN	NOUN

d-45-1	last	ADJ	ADJ
d-45-2	night	NOUN	NOUN
d-45-3	my	DET	DET
d-45-4	buddy	NOUN	NOUN
d-45-5	lost	VERB	VERB
d-45-6	his	DET	DET
d-45-7	whole	ADJ	ADJ
d-45-8	family	NOUN	NOUN

d-46-1	it's	PRON	PRT
d-46-2	gonna	VERB	VERB
d-46-3	take	VERB	VERB
d-46-4	the	DET	DET
d-46-5	man	NOUN	NOUN
d-46-6	in	ADP	ADP
d-46-7	me	PRON	PRON
d-46-8	to	ADP	ADP
d-46-9	conquer	VERB	VERB
d-46-10	this	DET	DET
d-46-11	insanity	NOUN	NOUN

d-47-1	it	PRON	PRON
d-47-2	seems	VERB	VERB
d-47-3	the	DET	DET
d-47-4	rain'll	NOUN	NOUN
d-47-5	never	ADV	ADV
d-47-6	let	VERB	VERB
d-47-7	up	PRT	PRT

d-48-1	i	PRON	PRON
d-48-2	try	VERB	VERB
d-48-3	to	ADP	ADP
d-48-4	keep	VERB	VERB
d-48-5	my	DET	DET
d-48-6	head	NOUN	NOUN
d-48-7	up	PRT	PRT
d-48-8	and	CONJ	CONJ
d-48-9	still	ADV	ADV
d-48-10	keep	VERB	VERB
d-48-11	from	ADP	ADP
d-48-12	gettin'	VERB	VERB
d-48-13	wet	ADJ	VERB
d-48-14	up	PRT	PRT

d-49-1	you	PRON	PRON
d-49-2	know	VERB	VERB
d-49-3	it's	PRON	PRT
d-49-4	funny	ADJ	ADJ
d-49-5	when	ADV	ADV
d-49-6	it	PRON	PRON
d-49-7	rains	VERB	VERB
d-49-8	it	PRON	PRON
d-49-9	pours	VERB	VERB

d-50-1	they	PRON	PRON
d-50-2	got	VERB	VERB
d-50-3	money	NOUN	NOUN
d-50-4	for	ADP	ADP
d-50-5	wars	NOUN	ADJ
d-50-6	but	CONJ	CONJ
d-50-7	can't	VERB	VERB
d-50-8	feed	VERB	VERB
d-50-9	the	DET	DET
d-50-10	poor	NOUN	NOUN

d-51-1	say	VERB	VERB
d-51-2	there	ADV	PRT
d-51-3	ain't	VERB	VERB
d-51-4	no	DET	DET
d-51-5	hope	NOUN	NOUN
d-51-6	for	ADP	ADP
d-51-7	the	DET	DET
d-51-8	youth	NOUN	NOUN
d-51-9	and	CONJ	CONJ
d-51-10	the	DET	DET
d-51-11	truth	NOUN	NOUN
d-51-12	is	VERB	VERB

d-52-1	it	PRON	PRON
d-52-2	ain't	VERB	VERB
d-52-3	no	DET	PRT
d-52-4	hope	VERB	VERB
d-52-5	for	ADP	ADP
d-52-6	the	DET	DET
d-52-7	future	NOUN	ADJ

d-53-1	and	CONJ	CONJ
d-53-2	then	ADV	ADV
d-53-3	they	PRON	PRON
d-53-4	wonder	VERB	VERB
d-53-5	why	ADV	ADV
d-53-6	we	PRON	PRON
d-53-7	crazy	ADJ	VERB

d-54-1	i	PRON	PRON
d-54-2	blame	VERB	VERB
d-54-3	my	DET	DET
d-54-4	mother	NOUN	NOUN
d-54-5	for	ADP	ADP
d-54-6	turning	VERB	VERB
d-54-7	my	DET	DET
d-54-8	brother	NOUN	NOUN
d-54-9	into	ADP	ADP
d-54-10	a	DET	DET
d-54-11	crack	NOUN	NOUN
d-54-12	baby	NOUN	NOUN

d-55-1	we	PRON	PRON
d-55-2	ain't	VERB	VERB
d-55-3	meant	VERB	VERB
d-55-4	to	ADP	ADP
d-55-5	survive	VERB	VERB
d-55-6	cause	CONJ	ADP
d-55-7	it's	PRON	PRT
d-55-8	a	DET	DET
d-55-9	setup	NOUN	NOUN

d-56-1	and	CONJ	CONJ
d-56-2	even	CONJ	ADV
d-56-3	though	CONJ	ADP
d-56-4	you're	PRON	PRT
d-56-5	fed	ADJ	VERB
d-56-6	up	PRT	PRT

d-57-1	huh	X	PRT
d-57-2	,	.	.
d-57-3	ya	PRON	PRON
d-57-4	got	VERB	VERB
d-57-5	to	ADP	ADP
d-57-6	keep	VERB	VERB
d-57-7	your	DET	DET
d-57-8	head	NOUN	NOUN
d-57-9	up	PRT	PRT

d-58-1	and	CONJ	CONJ
d-58-2	uh	X	PRT
d-58-3	,	.	.
d-58-4	to	ADP	ADP
d-58-5	all	DET	DET
d-58-6	the	DET	DET
d-58-7	ladies	NOUN	NOUN
d-58-8	havin'	VERB	VERB
d-58-9	babies	NOUN	NOUN
d-58-10	on	ADP	ADP
d-58-11	they	PRON	PRON
d-58-12	own	ADJ	VERB

d-59-1	i	PRON	PRON
d-59-2	know	VERB	VERB
d-59-3	it's	PRON	PRT
d-59-4	kinda	ADV	ADV
d-59-5	rough	ADJ	ADJ
d-59-6	and	CONJ	CONJ
d-59-7	you're	PRON	PRT
d-59-8	feelin'	VERB	VERB
d-59-9	all	ADV	DET
d-59-10	alone	ADJ	ADJ

d-60-1	daddy's	NOUN	ADV
d-60-2	long	ADV	ADJ
d-60-3	gone	ADJ	NOUN
d-60-4	and	CONJ	CONJ
d-60-5	he	PRON	PRON
d-60-6	left	VERB	VERB
d-60-7	you	PRON	PRON
d-60-8	by	ADP	ADP
d-60-9	your	DET	DET
d-60-10	lonesome	NOUN	NOUN

d-61-1	thank	VERB	VERB
d-61-2	the	DET	DET
d-61-3	lord	NOUN	NOUN
d-61-4	for	ADP	ADP
d-61-5	my	DET	DET
d-61-6	kids	NOUN	NOUN
d-61-7	,	.	.
d-61-8	even	ADV	ADV
d-61-9	if	CONJ	ADP
d-61-10	nobody	PRON	NOUN
d-61-11	else	ADJ	ADV
d-61-12	want	VERB	VERB
d-61-13	'em	PRON	PRON

d-62-1	cause	CONJ	ADP
d-62-2	i	PRON	PRON
d-62-3	think	VERB	VERB
d-62-4	we	PRON	PRON
d-62-5	can	VERB	VERB
d-62-6	make	VERB	VERB
d-62-7	it	PRON	PRON
d-62-8	,	.	.
d-62-9	in	ADP	ADP
d-62-10	fact	NOUN	NOUN
d-62-11	,	.	.
d-62-12	i'm	PRON	PRT
d-62-13	sure	ADJ	ADJ

d-63-1	and	CONJ	CONJ
d-63-2	if	CONJ	ADP
d-63-3	you	PRON	PRON
d-63-4	fall	VERB	VERB
d-63-5	,	.	.
d-63-6	stand	VERB	NOUN
d-63-7	tall	ADV	ADJ
d-63-8	and	CONJ	CONJ
d-63-9	come	VERB	VERB
d-63-10	back	ADV	ADV
d-63-11	for	ADP	ADP
d-63-12	more	ADJ	ADJ

d-64-1	cause	CONJ	ADP
d-64-2	ain't	VERB	VERB
d-64-3	nothin'	PRON	NOUN
d-64-4	worse	ADJ	ADJ
d-64-5	than	ADP	ADP
d-64-6	when	ADV	ADV
d-64-7	your	DET	DET
d-64-8	son	NOUN	NOUN

d-65-1	wants	VERB	VERB
d-65-2	to	ADP	ADP
d-65-3	know	VERB	VERB
d-65-4	why	ADV	ADV
d-65-5	his	DET	DET
d-65-6	daddy	NOUN	NOUN
d-65-7	don't	VERB	VERB
d-65-8	love	VERB	VERB
d-65-9	him	PRON	PRON
d-65-10	no	DET	DET
d-65-11	mo'	ADV	NOUN

d-66-1	you	PRON	PRON
d-66-2	can't	VERB	VERB
d-66-3	complain	VERB	VERB
d-66-4	you	PRON	PRON
d-66-5	was	VERB	VERB
d-66-6	dealt	VERB	VERB
d-66-7	this	PRON	PRON

d-67-1	hell	ADJ	NOUN
d-67-2	of	ADP	ADP
d-67-3	a	DET	DET
d-67-4	hand	NOUN	NOUN
d-67-5	without	ADP	ADP
d-67-6	a	DET	DET
d-67-7	man	NOUN	NOUN
d-67-8	,	.	.
d-67-9	feelin'	VERB	VERB
d-67-10	helpless	ADJ	PRT

d-68-1	because	CONJ	ADP
d-68-2	there's	PRON	PRT
d-68-3	too	ADV	ADV
d-68-4	many	ADJ	ADJ
d-68-5	things	NOUN	NOUN
d-68-6	for	ADP	ADP
d-68-7	you	PRON	PRON
d-68-8	to	ADP	ADP
d-68-9	deal	VERB	VERB
d-68-10	with	PRT	ADP

d-69-1	dyin'	VERB	VERB
d-69-2	inside	ADP	PRT
d-69-3	,	.	.
d-69-4	but	CONJ	CONJ
d-69-5	outside	ADP	ADV
d-69-6	you're	PRON	PRT
d-69-7	looking	VERB	VERB
d-69-8	fearless	ADJ	ADJ

d-70-1	while	CONJ	ADP
d-70-2	tears	NOUN	NOUN
d-70-3	is	VERB	VERB
d-70-4	rollin'	VERB	ADJ
d-70-5	down	ADP	ADP
d-70-6	your	DET	DET
d-70-7	cheeks	NOUN	NOUN

d-71-1	ya	PRON	PRT
d-71-2	steady	ADV	ADJ
d-71-3	hopin'	VERB	NOUN
d-71-4	things	NOUN	NOUN
d-71-5	don't	VERB	VERB
d-71-6	fall	VERB	VERB
d-71-7	down	ADP	PRT
d-71-8	this	DET	DET
d-71-9	week	NOUN	NOUN

d-72-1	cause	CONJ	ADP
d-72-2	if	CONJ	ADP
d-72-3	it	PRON	PRON
d-72-4	did	VERB	VERB
d-72-5	,	.	.
d-72-6	you	PRON	PRON
d-72-7	couldn't	VERB	VERB
d-72-8	take	VERB	VERB
d-72-9	it	PRON	PRON
d-72-10	,	.	.
d-72-11	and	CONJ	CONJ
d-72-12	don't	VERB	VERB
d-72-13	blame	VERB	VERB
d-72-14	me	PRON	PRON

d-73-1	i	PRON	PRON
d-73-2	was	VERB	VERB
d-73-3	given	VERB	VERB
d-73-4	this	DET	DET
d-73-5	world	NOUN	NOUN
d-73-6	i	PRON	PRON
d-73-7	didn't	VERB	VERB
d-73-8	make	VERB	VERB
d-73-9	it	PRON	PRON

d-74-1	and	CONJ	CONJ
d-74-2	now	ADV	ADV
d-74-3	my	DET	DET
d-74-4	son's	NOUN	NOUN
d-74-5	gettin'	VERB	VERB
d-74-6	older	ADJ	ADJ
d-74-7	and	CONJ	CONJ
d-74-8	older	ADJ	ADJ
d-74-9	and	CONJ	CONJ
d-74-10	cold	ADJ	ADJ

d-75-1	from	ADP	ADP
d-75-2	havin'	VERB	VERB
d-75-3	the	DET	DET
d-75-4	world	NOUN	NOUN
d-75-5	on	ADP	ADP
d-75-6	his	DET	DET
d-75-7	shoulders	NOUN	NOUN

d-76-1	while	CONJ	ADP
d-76-2	the	DET	DET
d-76-3	rich	ADJ	NOUN
d-76-4	kids	NOUN	NOUN
d-76-5	is	VERB	VERB
d-76-6	drivin'	VERB	ADJ
d-76-7	benz	NOUN	NOUN

d-77-1	i'm	PRON	PRT
d-77-2	still	ADV	ADV
d-77-3	tryin'	VERB	VERB
d-77-4	to	ADP	ADP
d-77-5	hold	VERB	VERB
d-77-6	on	PRT	ADP
d-77-7	to	ADP	ADP
d-77-8	surviving	ADJ	VERB
d-77-9	friends	NOUN	NOUN

d-78-1	and	CONJ	CONJ
d-78-2	it's	PRON	PRT
d-78-3	crazy	ADJ	ADJ
d-78-4	,	.	.
d-78-5	it	PRON	PRON
d-78-6	seems	VERB	VERB
d-78-7	it'll	PRON	PRT
d-78-8	never	ADV	ADV
d-78-9	let	VERB	VERB
d-78-10	up	PRT	PRT
d-78-11	,	.	.
d-78-12	but	CONJ	CONJ

d-79-1	please	ADV	VERB
d-79-2	,	.	.
d-79-3	you	PRON	PRON
d-79-4	got	VERB	VERB
d-79-5	to	ADP	ADP
d-79-6	keep	VERB	VERB
d-79-7	your	DET	DET
d-79-8	head	NOUN	NOUN
d-79-9	up	PRT	PRT

d-80-1	yeah	ADV	PRT
d-80-2	nigga	NOUN	NOUN

d-81-1	we	PRON	PRON
d-81-2	gonna	VERB	VERB
d-81-3	smoke	VERB	VERB
d-81-4	this	DET	DET
d-81-5	motherfucker	NOUN	NOUN
d-81-6	right	ADJ	ADV
d-81-7	here	ADV	ADV
d-81-8	,	.	.
d-81-9	right	ADJ	PRT

d-82-1	we	PRON	PRON
d-82-2	gonna	VERB	VERB
d-82-3	smoke	VERB	VERB
d-82-4	this	DET	DET
d-82-5	shit	NOUN	NOUN

d-83-1	and	CONJ	CONJ
d-83-2	i'ma	PRON	PRT
d-83-3	drink	VERB	VERB
d-83-4	a	DET	DET
d-83-5	lot	NOUN	NOUN
d-83-6	a	DET	DET
d-83-7	water	NOUN	NOUN

d-84-1	and	CONJ	CONJ
d-84-2	i'ma	PRON	PRT
d-84-3	take	VERB	VERB
d-84-4	golden	NOUN	NOUN
d-84-5	seal	NOUN	NOUN
d-84-6	,	.	.
d-84-7	so	ADV	ADP
d-84-8	my	DET	DET
d-84-9	po	NOUN	ADJ
d-84-10	don't	VERB	VERB
d-84-11	find	VERB	VERB
d-84-12	out	PRT	PRT

d-85-1	i’m	PRON	PRT
d-85-2	smoking	VERB	VERB
d-85-3	this	DET	DET
d-85-4	shit	NOUN	NOUN
d-85-5	,	.	.
d-85-6	aight	ADJ	PRT
d-85-7	?	.	.

d-86-1	yo	X	PRT
d-86-2	,	.	.
d-86-3	niggas	NOUN	NOUN
d-86-4	wouldn't	VERB	VERB
d-86-5	rob	VERB	VERB
d-86-6	frankie	NOUN	NOUN
d-86-7	if	CONJ	ADP
d-86-8	they	PRON	PRON
d-86-9	had	VERB	VERB
d-86-10	the	DET	DET
d-86-11	chance	NOUN	NOUN

d-87-1	wasn't	VERB	VERB
d-87-2	cause	CONJ	ADP
d-87-3	of	ADP	ADP
d-87-4	him	PRON	PRON
d-87-5	it	PRON	PRON
d-87-6	was	VERB	VERB
d-87-7	cause	CONJ	ADV
d-87-8	of	ADP	ADP
d-87-9	his	DET	DET
d-87-10	man	NOUN	NOUN
d-87-11	lance	NOUN	NOUN

d-88-1	frankie	NOUN	NOUN
d-88-2	cut	VERB	VERB
d-88-3	crack	NOUN	ADJ

d-89-1	lance	NOUN	NOUN
d-89-2	hold	VERB	VERB
d-89-3	the	DET	DET
d-89-4	mac	NOUN	NOUN

d-90-1	if	CONJ	ADP
d-90-2	fiends	NOUN	NOUN
d-90-3	fuck	VERB	VERB
d-90-4	with	PRT	ADP
d-90-5	frankie's	PRON	NOUN
d-90-6	pac's	NOUN	NOUN

d-91-1	lance	NOUN	NOUN
d-91-2	cut	VERB	VERB
d-91-3	the	DET	DET
d-91-4	crack	NOUN	NOUN
d-91-5	heads	NOUN	NOUN
d-91-6	blocked	VERB	VERB
d-91-7	up	PRT	PRT

d-92-1	thought	VERB	VERB
d-92-2	he	PRON	PRON
d-92-3	was	VERB	VERB
d-92-4	locked	ADJ	VERB
d-92-5	up	PRT	PRT

d-93-1	came	VERB	VERB
d-93-2	thru	ADP	ADP
d-93-3	stuntin'	VERB	NOUN
d-93-4	wit	ADP	ADP
d-93-5	his	DET	DET
d-93-6	wrist	NOUN	NOUN
d-93-7	all	DET	DET
d-93-8	rocked	ADJ	VERB
d-93-9	up	PRT	PRT

d-94-1	shoulda	VERB	NOUN
d-94-2	seen	VERB	VERB
d-94-3	him	PRON	PRON
d-94-4	smile	VERB	VERB
d-94-5	,	.	.
d-94-6	missin'	VERB	VERB
d-94-7	the	DET	DET
d-94-8	tooth	NOUN	NOUN

d-95-1	coupe	NOUN	NOUN
d-95-2	missin	VERB	VERB
d-95-3	the	DET	DET
d-95-4	roof	NOUN	NOUN

d-96-1	he	PRON	PRON
d-96-2	like	ADP	ADP
d-96-3	"	.	.
d-96-4	what	PRON	PRON
d-96-5	up	PRT	PRT
d-96-6	,	.	.
d-96-7	!digits	NOUN	NUM
d-96-8	?	.	.
d-96-9	"	.	.

d-97-1	i'm	PRON	PRT
d-97-2	like	ADP	ADP
d-97-3	"	.	.
d-97-4	what	PRON	PRON
d-97-5	up	PRT	PRT
d-97-6	with	ADP	ADP
d-97-7	you	PRON	PRON
d-97-8	"	.	.

d-98-1	lance	NOUN	NOUN
d-98-2	had	VERB	VERB
d-98-3	a	DET	DET
d-98-4	reputation	NOUN	NOUN
d-98-5	that	CONJ	ADP
d-98-6	was	VERB	VERB
d-98-7	well	ADV	ADV
d-98-8	earned	ADJ	ADV

d-99-1	heard	VERB	VERB
d-99-2	he	PRON	PRON
d-99-3	taught	VERB	VERB
d-99-4	niggas	NOUN	NOUN
d-99-5	how	ADV	ADV
d-99-6	them	DET	PRON
d-99-7	shells	NOUN	VERB
d-99-8	burn	VERB	VERB

d-100-1	out	ADP	PRT
d-100-2	there	ADV	ADV
d-100-3	in	ADP	ADP
d-100-4	red	NOUN	ADJ
d-100-5	firm	NOUN	NOUN

d-101-1	at	ADP	ADP
d-101-2	the	DET	DET
d-101-3	dice	NOUN	NOUN
d-101-4	game	NOUN	NOUN
d-101-5	,	.	.
d-101-6	he	PRON	PRON
d-101-7	rolled	VERB	VERB
d-101-8	ahead	ADV	ADV
d-101-9	,	.	.
d-101-10	crapped	VERB	VERB
d-101-11	in	ADP	ADP
d-101-12	the	DET	DET
d-101-13	crack	NOUN	NOUN

d-102-1	i'm	PRON	PRT
d-102-2	like	ADP	ADP
d-102-3	"	.	.
d-102-4	nah	ADV	PRT
d-102-5	,	.	.
d-102-6	i	PRON	PRON
d-102-7	ain't	VERB	VERB
d-102-8	paying	VERB	VERB
d-102-9	for	ADP	ADP
d-102-10	that	PRON	PRON
d-102-11	!	.	.
d-102-12	nigga	NOUN	NOUN
d-102-13	,	.	.
d-102-14	shoot	VERB	NOUN
d-102-15	it	PRON	PRON
d-102-16	back	ADV	ADV
d-102-17	"	.	.

d-103-1	niggas	NOUN	NOUN
d-103-2	lookin	VERB	VERB
d-103-3	at	ADP	ADP
d-103-4	me	PRON	PRON
d-103-5	like	ADP	ADP
d-103-6	i'm	PRON	PRT
d-103-7	crazy	ADJ	ADJ
d-103-8	,	.	.
d-103-9	they	PRON	PRON
d-103-10	shook	VERB	VERB

d-104-1	i	PRON	PRON
d-104-2	don't	VERB	VERB
d-104-3	give	VERB	VERB
d-104-4	a	DET	DET
d-104-5	fuck	NOUN	NOUN
d-104-6	who	PRON	PRON
d-104-7	he	PRON	PRON
d-104-8	shot	VERB	VERB
d-104-9	out	ADP	PRT
d-104-10	in	ADP	ADP
d-104-11	red	NOUN	ADJ
d-104-12	hook	NOUN	NOUN

d-105-1	asked	VERB	VERB
d-105-2	him	PRON	PRON
d-105-3	about	ADP	ADP
d-105-4	?	.	.
d-105-5	?	.	.

d-106-1	yeah	ADV	PRT
d-106-2	,	.	.
d-106-3	bizzy	NOUN	NOUN
d-106-4	was	VERB	VERB
d-106-5	my	DET	DET
d-106-6	man	NOUN	NOUN
d-106-7	till	ADP	ADP
d-106-8	he	PRON	PRON
d-106-9	beat	VERB	VERB
d-106-10	me	PRON	PRON
d-106-11	for	ADP	ADP
d-106-12	ten	NUM	NUM
d-106-13	grand	NOUN	ADJ
d-106-14	and	CONJ	CONJ
d-106-15	sold	VERB	VERB
d-106-16	my	PRON	DET
d-106-17	mac	NOUN	NOUN
d-106-18	for	ADP	ADP

d-107-1	seven	NUM	ADV
d-107-2	grand	NOUN	ADJ
d-107-3	(	X	.
d-107-4	fuckin'	ADJ	ADV
d-107-5	crazy	ADJ	ADJ
d-107-6	)	X	.

d-108-1	the	DET	DET
d-108-2	man	NOUN	NOUN
d-108-3	was	VERB	VERB
d-108-4	crazy	ADJ	ADJ
d-108-5	i	PRON	PRON
d-108-6	could	VERB	VERB
d-108-7	tell	VERB	VERB
d-108-8	by	ADP	ADP
d-108-9	his	DET	DET
d-108-10	look	NOUN	NOUN

d-109-1	cause	CONJ	ADP
d-109-2	he	PRON	PRON
d-109-3	looked	VERB	VERB
d-109-4	the	DET	DET
d-109-5	way	NOUN	NOUN
d-109-6	i	PRON	PRON
d-109-7	look	VERB	VERB

d-110-1	when	ADV	ADV
d-110-2	i	PRON	PRON
d-110-3	look	VERB	VERB
d-110-4	for	ADP	ADP
d-110-5	a	DET	DET
d-110-6	jooks	NOUN	NOUN

d-111-1	bitch	NOUN	NOUN

d-112-1	motherfucker	NOUN	NOUN

d-113-1	teamwork	NOUN	NOUN
d-113-2	,	.	.
d-113-3	work	NOUN	NOUN
d-113-4	hard	ADJ	ADJ
d-113-5	nigga	NOUN	NOUN

d-114-1	!digits	NOUN	NUM
d-114-2	cent	NOUN	NOUN

d-115-1	rotten	NOUN	ADJ
d-115-2	apple	NOUN	NOUN

d-116-1	g-unit	NOUN	NOUN

d-117-1	lloyd	NOUN	NOUN
d-117-2	banks	NOUN	NOUN

d-118-1	tony	NOUN	NOUN
d-118-2	yayo	NOUN	NOUN
d-118-3	,	.	.
d-118-4	nigga	NOUN	NOUN

d-119-1	hey	X	PRT
d-119-2	what	PRON	PRON
d-119-3	up	PRT	PRT
d-119-4	,	.	.
d-119-5	nigga	NOUN	NOUN

d-120-1	you	PRON	PRON
d-120-2	motherfuckin'	ADJ	VERB
d-120-3	right	ADJ	ADV
d-120-4	this	DET	DET
d-120-5	dj	NOUN	NOUN
d-120-6	clue	NOUN	NOUN
d-120-7	grand	NOUN	ADJ
d-120-8	theft	NOUN	NOUN
d-120-9	audio	NOUN	NOUN
d-120-10	!digits	NUM	ADP

d-121-1	get	VERB	VERB
d-121-2	the	DET	DET
d-121-3	fuck	NOUN	NOUN
d-121-4	out	ADP	ADP
d-121-5	the	DET	DET
d-121-6	car	NOUN	NOUN
d-121-7	nigga	NOUN	NOUN
d-121-8	don't	VERB	VERB
d-121-9	make	VERB	VERB
d-121-10	me	PRON	PRON
d-121-11	rush	VERB	VERB
d-121-12	you	PRON	PRON
d-121-13	,	.	.
d-121-14	nigga	NOUN	NOUN

d-122-1	shoot	VERB	NOUN
d-122-2	that	DET	DET
d-122-3	nigga	NOUN	NOUN
d-122-4	,	.	.
d-122-5	!digits	NOUN	NUM
d-122-6	!	.	.

d-123-1	try	VERB	VERB
d-123-2	to	ADP	ADP
d-123-3	remain	VERB	VERB
d-123-4	calm	ADJ	ADJ
d-123-5	,	.	.
d-123-6	you’re	PRON	PRT
d-123-7	fucking	VERB	ADV
d-123-8	with	ADP	ADP
d-123-9	a	DET	DET
d-123-10	don	NOUN	NOUN

d-124-1	pocket	NOUN	NOUN
d-124-2	full	ADJ	ADJ
d-124-3	of	ADP	ADP
d-124-4	green	NOUN	ADJ
d-124-5	,	.	.
d-124-6	green	NOUN	ADJ
d-124-7	in	ADP	ADP
d-124-8	the	DET	DET
d-124-9	bong	NOUN	NOUN

d-125-1	that	DET	DET
d-125-2	bitch	NOUN	NOUN
d-125-3	with	ADP	ADP
d-125-4	the	DET	DET
d-125-5	bow	ADJ	NOUN
d-125-6	leg	ADJ	NOUN
d-125-7	stance	NOUN	NOUN
d-125-8	turning	VERB	VERB
d-125-9	me	PRON	PRON
d-125-10	on	PRT	ADP

d-126-1	too	ADV	ADV
d-126-2	little	ADJ	ADJ
d-126-3	time	NOUN	NOUN
d-126-4	,	.	.
d-126-5	peace	NOUN	NOUN
d-126-6	rainbow	NOUN	NOUN
d-126-7	turn	VERB	VERB
d-126-8	me	PRON	PRON
d-126-9	on	PRT	ADP

d-127-1	niggas	NOUN	NOUN
d-127-2	still	ADV	ADV
d-127-3	want	VERB	VERB
d-127-4	me	PRON	PRON
d-127-5	dead	ADJ	ADJ
d-127-6	like	ADP	ADP
d-127-7	osam’	NOUN	X

d-128-1	but	CONJ	CONJ
d-128-2	they	PRON	PRON
d-128-3	ain't	VERB	VERB
d-128-4	gon’	VERB	VERB
d-128-5	make	VERB	NOUN
d-128-6	,	.	.
d-128-7	they	PRON	PRON
d-128-8	come	VERB	VERB
d-128-9	at	ADP	ADP
d-128-10	me	PRON	PRON
d-128-11	wrong	ADV	ADJ

d-129-1	them	PRON	PRON
d-129-2	niggas	NOUN	NOUN
d-129-3	all	DET	DET
d-129-4	workers	NOUN	NOUN
d-129-5	i	PRON	PRON
d-129-6	smack	VERB	VERB
d-129-7	the	DET	DET
d-129-8	shit	NOUN	NOUN
d-129-9	out	PRT	ADP
d-129-10	their	DET	DET
d-129-11	bosses	NOUN	NOUN

d-130-1	ferrari	NOUN	NOUN
d-130-2	,	.	.
d-130-3	i’m	PRON	PRT
d-130-4	stronger	ADJ	ADJ
d-130-5	than	ADP	ADP
d-130-6	!digits	NUM	NUM
d-130-7	hundred	NUM	X
d-130-8	horses	NOUN	X

d-131-1	money	NOUN	NOUN
d-131-2	is	VERB	VERB
d-131-3	power	NOUN	NOUN
d-131-4	,	.	.
d-131-5	you	DET	PRON
d-131-6	niggas	NOUN	VERB
d-131-7	better	ADJ	ADV
d-131-8	wake	VERB	VERB
d-131-9	up	PRT	PRT

d-132-1	my	DET	DET
d-132-2	earrings	NOUN	NOUN
d-132-3	blinking	VERB	VERB
d-132-4	,	.	.
d-132-5	that’s	PRON	ADV
d-132-6	old	ADJ	ADJ
d-132-7	shit	NOUN	NOUN
d-132-8	from	ADP	ADP
d-132-9	jacob	NOUN	NOUN

d-133-1	add	VERB	VERB
d-133-2	it	PRON	PRON
d-133-3	up	PRT	PRT
d-133-4	,	.	.
d-133-5	!digits	NUM	NUM
d-133-6	plus	ADP	ADJ
d-133-7	!digits	NUM	ADP
d-133-8	that’s	PRON	NOUN
d-133-9	!digits	NUM	NUM
d-133-10	carats	NOUN	NOUN

d-134-1	you	PRON	PRON
d-134-2	can’t	VERB	VERB
d-134-3	run	VERB	VERB
d-134-4	and	CONJ	CONJ
d-134-5	get	VERB	VERB
d-134-6	ya	DET	DET
d-134-7	pain	NOUN	NOUN
d-134-8	,	.	.
d-134-9	you	PRON	PRON
d-134-10	ain't	VERB	VERB
d-134-11	got	VERB	VERB
d-134-12	it	PRON	PRON

d-135-1	blackjack	NOUN	NOUN
d-135-2	we	PRON	PRON
d-135-3	do	VERB	VERB
d-135-4	that	PRON	PRON
d-135-5	,	.	.
d-135-6	!digits	NUM	NUM
d-135-7	grand	NOUN	ADJ
d-135-8	a	DET	DET
d-135-9	hand	NOUN	NOUN

d-136-1	you	PRON	PRON
d-136-2	could	VERB	VERB
d-136-3	get	VERB	VERB
d-136-4	shot	VERB	VERB
d-136-5	fucking	VERB	ADV
d-136-6	with	ADP	ADP
d-136-7	floyd	NOUN	NOUN
d-136-8	that’s	PRON	NOUN
d-136-9	my	DET	DET
d-136-10	man	NOUN	NOUN

d-137-1	billionaire	NOUN	NOUN
d-137-2	brotherhood	NOUN	NOUN
d-137-3	,	.	.
d-137-4	we	PRON	PRON
d-137-5	call	VERB	VERB
d-137-6	this	PRON	PRON
d-137-7	the	DET	DET
d-137-8	money	NOUN	NOUN
d-137-9	team	NOUN	NOUN

d-138-1	pinky	NOUN	NOUN
d-138-2	ring	NOUN	NOUN
d-138-3	flawless	ADJ	NOUN
d-138-4	,	.	.
d-138-5	my	DET	DET
d-138-6	god	NOUN	NOUN
d-138-7	i’m	PRON	ADV
d-138-8	gorgeous	ADJ	ADJ

d-139-1	remain	VERB	NOUN
d-139-2	calm	ADJ	ADJ
d-139-3	,	.	.
d-139-4	you’re	PRON	PRT
d-139-5	fucking	VERB	ADV
d-139-6	with	ADP	ADP
d-139-7	a	DET	DET
d-139-8	don	NOUN	NOUN

d-140-1	remain	VERB	NOUN
d-140-2	calm	ADJ	ADJ
d-140-3	,	.	.
d-140-4	hoe	NOUN	NOUN
d-140-5	,	.	.
d-140-6	remain	VERB	NOUN
d-140-7	calm	ADJ	ADJ

d-141-1	i’m	PRON	PRT
d-141-2	chillin’	VERB	NOUN
d-141-3	like	ADP	ADP
d-141-4	a	DET	DET
d-141-5	villain	NOUN	NOUN
d-141-6	while	CONJ	ADP
d-141-7	i’m	PRON	PRT
d-141-8	dealin’	VERB	NOUN
d-141-9	i	PRON	PRON
d-141-10	am	VERB	VERB

d-142-1	rulin’	VERB	NOUN
d-142-2	while	CONJ	ADP
d-142-3	i’m	PRON	PRT
d-142-4	coolin’	VERB	NOUN
d-142-5	with	ADP	ADP
d-142-6	my	DET	DET
d-142-7	tool	NOUN	NOUN
d-142-8	in	ADP	ADP
d-142-9	my	DET	DET
d-142-10	hand	NOUN	NOUN

d-143-1	post	VERB	VERB
d-143-2	up	PRT	PRT
d-143-3	,	.	.
d-143-4	coast	VERB	VERB
d-143-5	up	PRT	PRT
d-143-6	,	.	.
d-143-7	this	PRON	PRON
d-143-8	is	VERB	VERB
d-143-9	my	DET	DET
d-143-10	life	NOUN	NOUN
d-143-11	bitch	NOUN	NOUN

d-144-1	up	PRT	PRT
d-144-2	close	ADJ	ADJ
d-144-3	only	ADJ	ADV
d-144-4	,	.	.
d-144-5	you’ll	PRON	PRT
d-144-6	get	VERB	VERB
d-144-7	stuck	ADJ	VERB
d-144-8	with	ADP	ADP
d-144-9	a	DET	DET
d-144-10	knife	NOUN	NOUN
d-144-11	bitch	NOUN	NOUN

d-145-1	cuz	CONJ	ADP
d-145-2	burnt	VERB	VERB
d-145-3	out	PRT	PRT
d-145-4	,	.	.
d-145-5	turnt	VERB	VERB
d-145-6	out	PRT	PRT
d-145-7	like	ADP	ADP
d-145-8	a	DET	DET
d-145-9	light	NOUN	NOUN
d-145-10	switch	NOUN	NOUN

d-146-1	got	VERB	VERB
d-146-2	a	DET	DET
d-146-3	lot	NOUN	NOUN
d-146-4	of	ADP	ADP
d-146-5	hoes	NOUN	NOUN
d-146-6	but	CONJ	CONJ
d-146-7	charmaine	NOUN	NOUN
d-146-8	,	.	.
d-146-9	that’s	PRON	PRT
d-146-10	my	DET	DET
d-146-11	white	ADJ	ADJ
d-146-12	bitch	NOUN	NOUN

d-147-1	the	DET	DET
d-147-2	rest	NOUN	NOUN
d-147-3	of	ADP	ADP
d-147-4	my	DET	DET
d-147-5	bitches	NOUN	NOUN
d-147-6	,	.	.
d-147-7	nah	ADV	PRT
d-147-8	,	.	.
d-147-9	they	PRON	PRON
d-147-10	ain’t	VERB	VERB
d-147-11	gonna	VERB	VERB
d-147-12	like	VERB	ADP
d-147-13	this	PRON	PRON

d-148-1	but	CONJ	CONJ
d-148-2	i	PRON	PRON
d-148-3	don’t	VERB	VERB
d-148-4	give	VERB	VERB
d-148-5	a	DET	DET
d-148-6	fuck	NOUN	NOUN
d-148-7	cause	CONJ	ADP
d-148-8	they	PRON	PRON
d-148-9	all	PRON	DET
d-148-10	love	VERB	VERB
d-148-11	this	DET	DET
d-148-12	night	NOUN	NOUN
d-148-13	stick	NOUN	VERB

d-149-1	but	CONJ	CONJ
d-149-2	i	PRON	PRON
d-149-3	still	ADV	ADV
d-149-4	remain	VERB	VERB
d-149-5	calm	ADJ	ADJ
d-149-6	,	.	.
d-149-7	bang	VERB	ADJ
d-149-8	and	CONJ	CONJ
d-149-9	drop	VERB	VERB
d-149-10	bombs	NOUN	NOUN

d-150-1	collar	NOUN	NOUN
d-150-2	popped	VERB	VERB
d-150-3	up	PRT	PRT
d-150-4	cool	ADJ	ADJ
d-150-5	as	ADP	ADP
d-150-6	the	DET	DET
d-150-7	fonz	NOUN	NOUN

d-151-1	motherfucker	NOUN	NOUN
d-151-2	,	.	.
d-151-3	have	VERB	VERB
d-151-4	a	DET	DET
d-151-5	seat	NOUN	NOUN
d-151-6	and	CONJ	CONJ
d-151-7	loosen	VERB	VERB
d-151-8	up	PRT	PRT

d-152-1	get	VERB	VERB
d-152-2	a	DET	DET
d-152-3	glass	NOUN	NOUN
d-152-4	of	ADP	ADP
d-152-5	some	DET	DET
d-152-6	gin	NOUN	NOUN
d-152-7	now	ADV	ADV
d-152-8	juice	VERB	VERB
d-152-9	it	PRON	PRON
d-152-10	up	PRT	PRT

d-153-1	deuces	NOUN	VERB
d-153-2	up	ADP	PRT

d-154-1	see	VERB	VERB
d-154-2	there’s	PRON	NOUN
d-154-3	a	DET	DET
d-154-4	line	NOUN	NOUN
d-154-5	there	ADV	ADV
d-154-6	for	ADP	ADP
d-154-7	a	DET	DET
d-154-8	reason	NOUN	NOUN

d-155-1	and	CONJ	CONJ
d-155-2	if	CONJ	ADP
d-155-3	you	PRON	PRON
d-155-4	cross	VERB	VERB
d-155-5	it	PRON	PRON
d-155-6	no	DET	PRT
d-155-7	more	ADJ	ADJ
d-155-8	breathin’	VERB	NOUN

d-156-1	you’re	PRON	PRT
d-156-2	leavin’	VERB	NOUN
d-156-3	,	.	.
d-156-4	believe	VERB	VERB
d-156-5	it	PRON	PRON

d-157-1	we	PRON	PRON
d-157-2	understand	VERB	VERB
d-157-3	each	PRON	ADV
d-157-4	other	PRON	ADJ

d-158-1	cause	CONJ	ADP
d-158-2	i	PRON	PRON
d-158-3	would	VERB	VERB
d-158-4	hate	VERB	VERB
d-158-5	to	ADP	ADP
d-158-6	have	VERB	VERB
d-158-7	to	ADP	ADP
d-158-8	put	VERB	VERB
d-158-9	a	DET	DET
d-158-10	slug	NOUN	NOUN
d-158-11	in	ADP	ADP
d-158-12	you	PRON	PRON
d-158-13	brother	NOUN	NOUN

d-159-1	ya	PRON	PRT
d-159-2	digg	VERB	NOUN
d-159-3	?	.	.

d-160-1	with	ADP	ADP
d-160-2	fif’	NOUN	NOUN
d-160-3	on	ADP	ADP
d-160-4	that	DET	DET
d-160-5	shit	NOUN	NOUN
d-160-6	,	.	.
d-160-7	that	DET	DET
d-160-8	glock	NOUN	NOUN
d-160-9	cocked	VERB	VERB
d-160-10	in	ADP	ADP
d-160-11	ya	DET	DET
d-160-12	face	NOUN	NOUN

d-161-1	my	DET	DET
d-161-2	twat	NOUN	NOUN
d-161-3	cocked	VERB	VERB
d-161-4	in	ADP	ADP
d-161-5	ya	DET	DET
d-161-6	face	NOUN	NOUN
d-161-7	,	.	.
d-161-8	you	PRON	PRON
d-161-9	know	VERB	VERB
d-161-10	you	PRON	PRON
d-161-11	wan’	VERB	VERB
d-161-12	taste	VERB	VERB

d-162-1	alexander	NOUN	NOUN
d-162-2	mcqueen	NOUN	NOUN
d-162-3	,	.	.
d-162-4	strapless	ADJ	NOUN
d-162-5	with	ADP	ADP
d-162-6	my	DET	DET
d-162-7	back	NOUN	NOUN
d-162-8	out	ADP	ADP

d-163-1	!digits	NUM	NUM
d-163-2	inch	NOUN	NOUN
d-163-3	givenchy’s	NOUN	NOUN
d-163-4	and	CONJ	CONJ
d-163-5	bitch	NOUN	NOUN
d-163-6	finna	ADV	NOUN
d-163-7	act	VERB	VERB
d-163-8	out	PRT	PRT

d-164-1	niggas	NOUN	NOUN
d-164-2	on	ADP	ADP
d-164-3	my	DET	DET
d-164-4	heels	NOUN	NOUN
d-164-5	tryna	VERB	VERB
d-164-6	find	VERB	VERB
d-164-7	out	PRT	PRT
d-164-8	what	PRON	PRON
d-164-9	the	DET	DET
d-164-10	head	NOUN	NOUN
d-164-11	like	ADP	ADP

d-165-1	i	PRON	PRON
d-165-2	know	VERB	VERB
d-165-3	what	PRON	PRON
d-165-4	the	DET	DET
d-165-5	bread	NOUN	NOUN
d-165-6	like	ADP	ADP

d-166-1	my	DET	DET
d-166-2	[	X	NOUN
d-166-3	?	X	.
d-166-4	]	X	.
d-166-5	headlight	NOUN	PRT
d-166-6	,	.	.
d-166-7	shine	VERB	VERB
d-166-8	like	ADP	ADP
d-166-9	i	PRON	PRON
d-166-10	shine	VERB	VERB

d-167-1	night	NOUN	NOUN
d-167-2	or	CONJ	CONJ
d-167-3	day	NOUN	NOUN
d-167-4	time	NOUN	NOUN

d-168-1	but	CONJ	CONJ
d-168-2	nah	ADV	PRT
d-168-3	,	.	.
d-168-4	nana-nah-na	X	NOUN

d-169-1	make	VERB	VERB
d-169-2	a	DET	DET
d-169-3	nigga	NOUN	NOUN
d-169-4	walk	VERB	NOUN
d-169-5	by	PRT	ADP
d-169-6	,	.	.
d-169-7	everything	NOUN	NOUN
d-169-8	i	PRON	PRON
d-169-9	say	VERB	VERB
d-169-10	by	ADP	ADP

d-170-1	nana-nah-na	X	X

d-171-1	get	VERB	VERB
d-171-2	wet	ADJ	NOUN
d-171-3	i	PRON	PRON
d-171-4	got	VERB	VERB
d-171-5	that	DET	DET
d-171-6	comeback	NOUN	NOUN

d-172-1	dead	NOUN	ADJ
d-172-2	crack	NOUN	NOUN
d-172-3	,	.	.
d-172-4	my	DET	DET
d-172-5	assets	NOUN	NOUN
d-172-6	is	VERB	VERB
d-172-7	my	DET	DET
d-172-8	ass	NOUN	NOUN
d-172-9	jack	NOUN	NOUN

d-173-1	stunt	VERB	NOUN
d-173-2	i	PRON	PRON
d-173-3	tell	VERB	VERB
d-173-4	my	DET	DET
d-173-5	niggas	NOUN	NOUN
d-173-6	right	ADJ	ADV
d-173-7	where	ADV	ADV
d-173-8	your	DET	DET
d-173-9	stash	NOUN	NOUN
d-173-10	at	ADP	ADP

d-174-1	you’re	PRON	PRT
d-174-2	fucking	VERB	ADV
d-174-3	with	ADP	ADP
d-174-4	a	DET	DET
d-174-5	southside	ADJ	NOUN
d-174-6	bitch	NOUN	NOUN

d-175-1	i	PRON	PRON
d-175-2	go	VERB	VERB
d-175-3	where	ADV	ADV
d-175-4	the	DET	DET
d-175-5	money	NOUN	NOUN
d-175-6	go	VERB	VERB

d-176-1	i’m	PRON	PRT
d-176-2	at	ADP	ADP
d-176-3	‘em	PRON	NOUN
d-176-4	,	.	.
d-176-5	i	PRON	PRON
d-176-6	put	VERB	VERB
d-176-7	her	PRON	PRON
d-176-8	on	ADP	ADP
d-176-9	the	DET	DET
d-176-10	strobe	NOUN	NOUN

d-177-1	get	VERB	VERB
d-177-2	my	DET	DET
d-177-3	money	NOUN	NOUN
d-177-4	hoe	NOUN	NOUN

d-178-1	catch	VERB	VERB
d-178-2	me	PRON	PRON
d-178-3	in	ADP	ADP
d-178-4	ferragamo	NOUN	NOUN

d-179-1	or	CONJ	CONJ
d-179-2	dolce	NOUN	NOUN
d-179-3	&	CONJ	CONJ
d-179-4	gabbana	NOUN	NOUN
d-179-5	or	CONJ	CONJ
d-179-6	[	X	.
d-179-7	?	.	.
d-179-8	]	X	.

d-180-1	i’m	PRON	PRT
d-180-2	b-squared	ADJ	NOUN
d-180-3	up	ADP	PRT
d-180-4	,	.	.
d-180-5	what	PRON	PRON
d-180-6	?	.	.

d-181-1	i	PRON	PRON
d-181-2	don't	VERB	VERB
d-181-3	know	VERB	VERB
d-181-4	what	PRON	PRON
d-181-5	you	PRON	PRON
d-181-6	take	VERB	VERB
d-181-7	me	PRON	PRON
d-181-8	for	PRT	ADP

d-182-1	i	PRON	PRON
d-182-2	really	ADV	ADV
d-182-3	don't	VERB	VERB
d-182-4	play	VERB	VERB
d-182-5	that	DET	DET
d-182-6	shit	NOUN	NOUN

d-183-1	i	PRON	PRON
d-183-2	ain't	VERB	VERB
d-183-3	got	VERB	VERB
d-183-4	to	ADP	ADP
d-183-5	get	VERB	VERB
d-183-6	you	PRON	PRON
d-183-7	hit	VERB	VERB

d-184-1	i	PRON	PRON
d-184-2	get	VERB	VERB
d-184-3	out	PRT	PRT
d-184-4	myself	PRON	PRON
d-184-5	and	CONJ	CONJ
d-184-6	spray	VERB	NOUN
d-184-7	that	DET	ADP
d-184-8	shit	NOUN	NOUN

d-185-1	i	PRON	PRON
d-185-2	got	VERB	VERB
d-185-3	a	DET	DET
d-185-4	itchy	ADV	ADJ
d-185-5	itchy	ADJ	NOUN
d-185-6	trigger	NOUN	NOUN
d-185-7	finger	NOUN	NOUN
d-185-8	,	.	.
d-185-9	nigga	NOUN	NOUN
d-185-10	its	PRON	PRT
d-185-11	a	DET	DET
d-185-12	killa	NOUN	NOUN
d-185-13	in	ADP	ADP
d-185-14	me	PRON	PRON
d-185-15	not	ADV	ADV
d-185-16	to	ADP	ADP
d-185-17	spray	VERB	NOUN
d-185-18	that	DET	ADP
d-185-19	shit	NOUN	NOUN

d-186-1	i	PRON	PRON
d-186-2	got	VERB	VERB
d-186-3	enough	ADJ	DET
d-186-4	ammo	NOUN	NOUN
d-186-5	shots	NOUN	NOUN
d-186-6	to	ADP	ADP
d-186-7	blow	NOUN	NOUN
d-186-8	,	.	.
d-186-9	put	VERB	VERB
d-186-10	a	DET	DET
d-186-11	hole	NOUN	NOUN
d-186-12	up	PRT	PRT
d-186-13	every	DET	DET
d-186-14	mothafucka	NOUN	NOUN
d-186-15	out	ADP	ADP
d-186-16	this	DET	DET
d-186-17	bitch	NOUN	NOUN

d-187-1	i	PRON	PRON
d-187-2	unload	VERB	VERB
d-187-3	then	ADV	ADV
d-187-4	reload	VERB	NOUN
d-187-5	,	.	.
d-187-6	when	ADV	ADV
d-187-7	you	PRON	PRON
d-187-8	get	VERB	VERB
d-187-9	hit	VERB	VERB
d-187-10	i	PRON	PRON
d-187-11	supposed	VERB	VERB
d-187-12	you	PRON	PRON
d-187-13	gon'	VERB	VERB
d-187-14	be	VERB	VERB
d-187-15	strong	ADJ	ADJ
d-187-16	enough	ADV	ADV
d-187-17	to	ADP	ADP
d-187-18	take	VERB	VERB
d-187-19	this	DET	DET
d-187-20	shit	NOUN	NOUN

d-188-1	i’m	PRON	PRT
d-188-2	in	ADP	ADP
d-188-3	the	DET	DET
d-188-4	hood	NOUN	NOUN
d-188-5	ridin’	VERB	NOUN
d-188-6	round	PRT	NOUN
d-188-7	with	ADP	ADP
d-188-8	a	DET	DET
d-188-9	chrome	NOUN	NOUN
d-188-10	fo’	NUM	NOUN
d-188-11	pound	NOUN	NOUN
d-188-12	,	.	.
d-188-13	can	VERB	VERB
d-188-14	you	PRON	PRON
d-188-15	see	VERB	VERB
d-188-16	thru	PRT	ADP
d-188-17	the	DET	DET
d-188-18	windows	NOUN	NOUN
d-188-19	see	VERB	NOUN
d-188-20	tints	NOUN	NOUN

d-189-1	i	PRON	PRON
d-189-2	do	VERB	VERB
d-189-3	dirt	NOUN	NOUN
d-189-4	,	.	.
d-189-5	the	DET	DET
d-189-6	gat	NOUN	NOUN
d-189-7	bussa	NOUN	NOUN
d-189-8	,	.	.
d-189-9	get	VERB	VERB
d-189-10	to	ADP	ADP
d-189-11	kickin’	VERB	VERB
d-189-12	up	PRT	PRT
d-189-13	dust	NOUN	NOUN
d-189-14	,	.	.
d-189-15	'fore	ADP	ADP
d-189-16	the	DET	DET
d-189-17	jakes	NOUN	NOUN
d-189-18	come	VERB	VERB
d-189-19	around	PRT	ADP
d-189-20	here	ADP	ADV
d-189-21	kid	NOUN	NOUN

d-190-1	niggas	NOUN	NOUN
d-190-2	get	VERB	VERB
d-190-3	knocked	VERB	VERB
d-190-4	if	CONJ	ADP
d-190-5	they	PRON	PRON
d-190-6	start	VERB	VERB
d-190-7	aksin’	VERB	NOUN
d-190-8	question	NOUN	NOUN
d-190-9	,	.	.
d-190-10	my	PRON	DET
d-190-11	name	NOUN	NOUN
d-190-12	end	VERB	NOUN
d-190-13	up	PRT	PRT
d-190-14	in	ADP	ADP
d-190-15	all	DET	DET
d-190-16	types	NOUN	NOUN
d-190-17	of	ADP	ADP
d-190-18	shit	NOUN	NOUN

d-191-1	i	PRON	PRON
d-191-2	be	VERB	VERB
d-191-3	a	DET	DET
d-191-4	gangsta	NOUN	ADJ
d-191-5	,	.	.
d-191-6	a	DET	DET
d-191-7	nigga	NOUN	NOUN
d-191-8	till	ADP	ADP
d-191-9	i	PRON	PRON
d-191-10	die	VERB	VERB
d-191-11	fo'	ADP	ADP
d-191-12	sho'	ADJ	ADJ
d-191-13	,	.	.
d-191-14	whether	CONJ	PRT
d-191-15	i'm	PRON	PRT
d-191-16	poor	ADJ	NOUN
d-191-17	or	CONJ	CONJ
d-191-18	i'm	PRON	PRT
d-191-19	filthy	ADV	ADJ
d-191-20	rich	ADJ	ADJ

d-192-1	now	ADV	ADV
d-192-2	what	PRON	PRON
d-192-3	you	PRON	PRON
d-192-4	know	VERB	VERB
d-192-5	about	ADP	ADP
d-192-6	movin'	VERB	VERB
d-192-7	that	DET	DET
d-192-8	pervuian	NOUN	NOUN
d-192-9	and	CONJ	CONJ
d-192-10	flake	NOUN	VERB
d-192-11	for	ADP	ADP
d-192-12	that	DET	DET
d-192-13	cake	NOUN	NOUN
d-192-14	,	.	.
d-192-15	i	PRON	PRON
d-192-16	get	VERB	VERB
d-192-17	rid	VERB	ADJ
d-192-18	of	ADP	ADP
d-192-19	them	PRON	PRON
d-192-20	bricks	NOUN	NOUN

d-193-1	i	PRON	PRON
d-193-2	don't	VERB	VERB
d-193-3	know	VERB	VERB
d-193-4	what	PRON	PRON
d-193-5	you	PRON	PRON
d-193-6	take	VERB	VERB
d-193-7	me	PRON	PRON
d-193-8	for	PRT	ADP

d-194-1	i	PRON	PRON
d-194-2	really	ADV	ADV
d-194-3	don't	VERB	VERB
d-194-4	play	VERB	VERB
d-194-5	that	DET	DET
d-194-6	shit	NOUN	NOUN

d-195-1	i	PRON	PRON
d-195-2	ain't	VERB	VERB
d-195-3	got	VERB	VERB
d-195-4	to	ADP	ADP
d-195-5	get	VERB	VERB
d-195-6	you	PRON	PRON
d-195-7	hit	VERB	VERB

d-196-1	i	PRON	PRON
d-196-2	get	VERB	VERB
d-196-3	out	PRT	PRT
d-196-4	myself	PRON	PRON
d-196-5	and	CONJ	CONJ
d-196-6	spray	VERB	NOUN
d-196-7	that	DET	ADP
d-196-8	shit	NOUN	NOUN

d-197-1	man	NOUN	NOUN
d-197-2	i	PRON	PRON
d-197-3	gotta	VERB	VERB
d-197-4	have	VERB	VERB
d-197-5	shoes	NOUN	NOUN
d-197-6	,	.	.
d-197-7	you	PRON	PRON
d-197-8	know	VERB	VERB
d-197-9	chrome	ADJ	NOUN
d-197-10	22's	NOUN	NOUN
d-197-11	,	.	.
d-197-12	everytime	ADV	ADV
d-197-13	i	PRON	PRON
d-197-14	get	VERB	VERB
d-197-15	a	DET	DET
d-197-16	brand	ADV	NOUN
d-197-17	new	ADJ	ADJ
d-197-18	whip	NOUN	NOUN

d-198-1	i	PRON	PRON
d-198-2	rolled	VERB	VERB
d-198-3	around	ADP	ADP
d-198-4	in	ADP	ADP
d-198-5	a	DET	DET
d-198-6	!digits	NOUN	NUM
d-198-7	,	.	.
d-198-8	till	ADP	ADP
d-198-9	my	DET	DET
d-198-10	money	NOUN	NOUN
d-198-11	got	VERB	VERB
d-198-12	right	ADJ	PRT
d-198-13	,	.	.
d-198-14	then	ADV	ADV
d-198-15	i	PRON	PRON
d-198-16	went	VERB	VERB
d-198-17	back	PRT	ADV
d-198-18	and	CONJ	CONJ
d-198-19	got	VERB	VERB
d-198-20	that	DET	PRON
d-198-21	six	NOUN	VERB

d-199-1	i'm	PRON	PRT
d-199-2	in	ADP	ADP
d-199-3	a	DET	DET
d-199-4	big	ADJ	ADJ
d-199-5	white	ADJ	NOUN
d-199-6	benz	NOUN	NOUN
d-199-7	,	.	.
d-199-8	on	ADP	ADP
d-199-9	a	DET	DET
d-199-10	hot	ADJ	ADJ
d-199-11	sunny	ADJ	NOUN
d-199-12	day	NOUN	NOUN
d-199-13	,	.	.
d-199-14	i	PRON	PRON
d-199-15	call	VERB	VERB
d-199-16	up	PRT	PRT
d-199-17	the	DET	DET
d-199-18	milk	NOUN	NOUN
d-199-19	truck	NOUN	NOUN
d-199-20	and	CONJ	CONJ
d-199-21	shit	NOUN	NOUN

d-200-1	i	PRON	PRON
d-200-2	have	VERB	VERB
d-200-3	ya	DET	DET
d-200-4	hoe	NOUN	NOUN
d-200-5	,	.	.
d-200-6	eyeballin'	VERB	NOUN
d-200-7	at	ADP	ADP
d-200-8	the	DET	DET
d-200-9	light	NOUN	NOUN
d-200-10	,	.	.
d-200-11	damn	ADJ	PRT
d-200-12	pimpin'	VERB	ADJ
d-200-13	,	.	.
d-200-14	you	PRON	PRON
d-200-15	should	VERB	VERB
d-200-16	take	VERB	VERB
d-200-17	time	NOUN	NOUN
d-200-18	to	ADP	ADP
d-200-19	check	VERB	VERB
d-200-20	that	DET	DET
d-200-21	bitch	NOUN	NOUN

d-201-1	you	PRON	PRON
d-201-2	saw	VERB	VERB
d-201-3	me	PRON	PRON
d-201-4	ridin	VERB	ADV
d-201-5	through	ADP	ADP
d-201-6	the	DET	DET
d-201-7	hood	NOUN	NOUN
d-201-8	,	.	.
d-201-9	actin'	VERB	VERB
d-201-10	like	ADP	ADP
d-201-11	its	DET	PRT
d-201-12	all	DET	DET
d-201-13	good	ADJ	ADJ
d-201-14	,	.	.
d-201-15	but	CONJ	CONJ
d-201-16	i'm	PRON	PRT
d-201-17	lookin'	VERB	VERB
d-201-18	for	ADP	ADP
d-201-19	a	DET	DET
d-201-20	jux	NOUN	NOUN
d-201-21	and	CONJ	CONJ
d-201-22	shit	NOUN	NOUN

d-202-1	in	ADP	ADP
d-202-2	the	DET	DET
d-202-3	middle	NOUN	NOUN
d-202-4	of	ADP	ADP
d-202-5	the	DET	DET
d-202-6	night	NOUN	NOUN
d-202-7	,	.	.
d-202-8	you	PRON	PRON
d-202-9	can	VERB	VERB
d-202-10	turn	VERB	VERB
d-202-11	on	PRT	ADP
d-202-12	ya	DET	DET
d-202-13	lights	NOUN	NOUN
d-202-14	,	.	.
d-202-15	i	PRON	PRON
d-202-16	mean	VERB	VERB
d-202-17	my	DET	DET
d-202-18	niggas	NOUN	NOUN
d-202-19	in	ADP	ADP
d-202-20	ya	DET	DET
d-202-21	crib	NOUN	NOUN

d-203-1	nigga	NOUN	NOUN
d-203-2	holla	VERB	PRT
d-203-3	if	CONJ	ADP
d-203-4	there's	PRON	PRT
d-203-5	a	DET	DET
d-203-6	problem	NOUN	NOUN
d-203-7	,	.	.
d-203-8	and	CONJ	CONJ
d-203-9	your	DET	DET
d-203-10	niggas	NOUN	NOUN
d-203-11	got	VERB	VERB
d-203-12	drama	NOUN	NOUN
d-203-13	,	.	.
d-203-14	i	PRON	PRON
d-203-15	got	VERB	VERB
d-203-16	burners	NOUN	NOUN
d-203-17	for	ADP	ADP
d-203-18	sell	NOUN	NOUN
d-203-19	and	CONJ	CONJ
d-203-20	shit	NOUN	NOUN

d-204-1	got	VERB	VERB
d-204-2	the	DET	DET
d-204-3	macs	NOUN	NOUN
d-204-4	,	.	.
d-204-5	got	VERB	VERB
d-204-6	the	DET	DET
d-204-7	nines	NOUN	NOUN
d-204-8	,	.	.
d-204-9	got	VERB	VERB
d-204-10	them	DET	PRON
d-204-11	tecks	NOUN	VERB
d-204-12	all	DET	DET
d-204-13	the	DET	DET
d-204-14	time	NOUN	NOUN
d-204-15	,	.	.
d-204-16	holo-tips	NOUN	NOUN
d-204-17	and	CONJ	CONJ
d-204-18	the	DET	DET
d-204-19	extra	ADJ	ADJ
d-204-20	clips	NOUN	NOUN

d-205-1	i	PRON	PRON
d-205-2	don't	VERB	VERB
d-205-3	know	VERB	VERB
d-205-4	what	PRON	PRON
d-205-5	you	PRON	PRON
d-205-6	take	VERB	VERB
d-205-7	me	PRON	PRON
d-205-8	for	PRT	ADP

d-206-1	i	PRON	PRON
d-206-2	really	ADV	ADV
d-206-3	don't	VERB	VERB
d-206-4	play	VERB	VERB
d-206-5	that	DET	DET
d-206-6	shit	NOUN	NOUN

d-207-1	i	PRON	PRON
d-207-2	ain't	VERB	VERB
d-207-3	got	VERB	VERB
d-207-4	to	ADP	ADP
d-207-5	get	VERB	VERB
d-207-6	you	PRON	PRON
d-207-7	hit	VERB	VERB

d-208-1	i	PRON	PRON
d-208-2	get	VERB	VERB
d-208-3	out	PRT	PRT
d-208-4	myself	PRON	PRON
d-208-5	and	CONJ	CONJ
d-208-6	spray	VERB	NOUN
d-208-7	that	DET	ADP
d-208-8	shit	NOUN	NOUN

d-209-1	man	NOUN	PRT
d-209-2	i'm	PRON	PRT
d-209-3	tired	ADJ	ADJ
d-209-4	of	ADP	ADP
d-209-5	tellin'	VERB	VERB
d-209-6	niggas	NOUN	NOUN
d-209-7	over	ADP	ADP
d-209-8	and	CONJ	CONJ
d-209-9	over	ADP	ADP
d-209-10	everything	NOUN	NOUN
d-209-11	about	ADP	ADP
d-209-12	me	PRON	PRON
d-209-13	be	VERB	VERB
d-209-14	gangsta	ADJ	ADJ

d-210-1	man	NOUN	PRT
d-210-2	i'm	PRON	PRT
d-210-3	tired	ADJ	ADJ
d-210-4	of	ADP	ADP
d-210-5	tellin'	VERB	VERB
d-210-6	niggas	NOUN	NOUN
d-210-7	over	ADP	ADP
d-210-8	and	CONJ	CONJ
d-210-9	over	ADP	ADP
d-210-10	i	PRON	PRON
d-210-11	won't	VERB	VERB
d-210-12	hesitate	VERB	VERB
d-210-13	to	ADP	ADP
d-210-14	pop	VERB	NOUN
d-210-15	or	CONJ	CONJ
d-210-16	shank	VERB	VERB
d-210-17	ya	PRON	PRON

d-211-1	man	NOUN	PRT
d-211-2	i'm	PRON	PRT
d-211-3	tired	ADJ	ADJ
d-211-4	of	ADP	ADP
d-211-5	tellin'	VERB	VERB
d-211-6	niggas	NOUN	NOUN
d-211-7	over	ADP	ADP
d-211-8	and	CONJ	CONJ
d-211-9	over	ADP	ADP
d-211-10	they	PRON	PRON
d-211-11	can	VERB	VERB
d-211-12	hustle	VERB	ADJ
d-211-13	and	CONJ	CONJ
d-211-14	i'm	PRON	PRT
d-211-15	in	ADP	ADP
d-211-16	your	DET	DET
d-211-17	shit	NOUN	NOUN

d-212-1	man	NOUN	PRT
d-212-2	i'm	PRON	PRT
d-212-3	tired	ADJ	ADJ
d-212-4	of	ADP	ADP
d-212-5	tellin'	VERB	VERB
d-212-6	niggas	NOUN	NOUN
d-212-7	over	ADP	ADP
d-212-8	and	CONJ	CONJ
d-212-9	over	ADP	ADP
d-212-10	you	PRON	PRON
d-212-11	don't	VERB	VERB
d-212-12	listen	VERB	VERB
d-212-13	you	PRON	PRON
d-212-14	gon'	VERB	VERB
d-212-15	get	VERB	VERB
d-212-16	ya	DET	DET
d-212-17	ass	NOUN	NOUN
d-212-18	hit	VERB	VERB

d-213-1	this	PRON	PRON
d-213-2	is	VERB	VERB
d-213-3	!digits	NOUN	NUM

d-214-1	yeah	ADV	PRT

d-215-1	nigga	NOUN	NOUN
d-215-2	cherish	VERB	VERB
d-215-3	me	PRON	PRON

d-216-1	like	ADP	ADP
d-216-2	the	DET	DET
d-216-3	water	NOUN	NOUN
d-216-4	you	PRON	PRON
d-216-5	drink	VERB	VERB

d-217-1	like	ADP	ADP
d-217-2	the	DET	DET
d-217-3	air	NOUN	NOUN
d-217-4	you	PRON	PRON
d-217-5	breathe	VERB	VERB

d-218-1	you	PRON	PRON
d-218-2	need	VERB	VERB
d-218-3	me	PRON	PRON
d-218-4	to	ADP	ADP
d-218-5	live	VERB	VERB

d-219-1	yeah	ADV	PRT

d-220-1	as	ADP	ADP
d-220-2	i	PRON	PRON
d-220-3	walk	VERB	VERB
d-220-4	through	ADP	ADP
d-220-5	the	DET	DET
d-220-6	valley	NOUN	NOUN
d-220-7	of	ADP	ADP
d-220-8	the	DET	DET
d-220-9	shadow	NOUN	NOUN
d-220-10	of	ADP	ADP
d-220-11	death	NOUN	NOUN

d-221-1	i	PRON	PRON
d-221-2	take	VERB	VERB
d-221-3	a	DET	DET
d-221-4	look	NOUN	NOUN
d-221-5	at	ADP	ADP
d-221-6	my	DET	DET
d-221-7	life	NOUN	NOUN
d-221-8	and	CONJ	CONJ
d-221-9	realize	VERB	VERB
d-221-10	there's	PRON	PRT
d-221-11	nothin'	PRON	NOUN
d-221-12	left	VERB	VERB

d-222-1	cause	CONJ	ADP
d-222-2	i've	PRON	PRT
d-222-3	been	VERB	VERB
d-222-4	blasting	VERB	VERB
d-222-5	and	CONJ	CONJ
d-222-6	laughing	VERB	VERB
d-222-7	so	ADV	ADV
d-222-8	long	ADJ	ADJ
d-222-9	,	.	.

d-223-1	that	CONJ	PRON
d-223-2	even	ADV	ADV
d-223-3	my	DET	DET
d-223-4	mama	NOUN	NOUN
d-223-5	thinks	VERB	VERB
d-223-6	that	CONJ	ADP
d-223-7	my	DET	DET
d-223-8	mind	NOUN	NOUN
d-223-9	is	VERB	VERB
d-223-10	gone	ADJ	VERB

d-224-1	but	CONJ	CONJ
d-224-2	i	PRON	PRON
d-224-3	ain't	VERB	VERB
d-224-4	never	ADV	ADV
d-224-5	crossed	VERB	VERB
d-224-6	a	DET	DET
d-224-7	man	NOUN	NOUN
d-224-8	that	PRON	ADP
d-224-9	didn't	VERB	VERB
d-224-10	deserve	VERB	VERB
d-224-11	it	PRON	PRON

d-225-1	me	PRON	PRON
d-225-2	be	VERB	VERB
d-225-3	treated	VERB	ADV
d-225-4	like	ADP	ADP
d-225-5	a	DET	DET
d-225-6	punk	NOUN	NOUN
d-225-7	you	PRON	PRON
d-225-8	know	VERB	VERB
d-225-9	that's	PRON	ADV
d-225-10	unheard	VERB	ADJ
d-225-11	of	PRT	ADP

d-226-1	you	PRON	PRON
d-226-2	better	ADJ	ADV
d-226-3	watch	VERB	VERB
d-226-4	how	ADV	ADV
d-226-5	you're	PRON	PRT
d-226-6	talking	VERB	VERB
d-226-7	and	CONJ	CONJ
d-226-8	where	ADV	ADV
d-226-9	you're	PRON	PRT
d-226-10	walking	VERB	VERB

d-227-1	or	CONJ	CONJ
d-227-2	you	PRON	PRON
d-227-3	and	CONJ	CONJ
d-227-4	your	DET	DET
d-227-5	homies	NOUN	NOUN
d-227-6	might	VERB	VERB
d-227-7	be	VERB	VERB
d-227-8	lined	VERB	VERB
d-227-9	in	ADP	ADP
d-227-10	chalk	NOUN	NOUN

d-228-1	i	PRON	PRON
d-228-2	really	ADV	ADV
d-228-3	hate	VERB	VERB
d-228-4	to	ADP	ADP
d-228-5	trip	VERB	VERB
d-228-6	but	CONJ	CONJ
d-228-7	i	PRON	PRON
d-228-8	gotta	VERB	VERB
d-228-9	loc	VERB	VERB

d-229-1	as	ADP	ADP
d-229-2	they	PRON	PRON
d-229-3	croak	VERB	VERB
d-229-4	,	.	.
d-229-5	i	PRON	PRON
d-229-6	see	VERB	VERB
d-229-7	myself	PRON	PRON
d-229-8	in	ADP	ADP
d-229-9	the	DET	DET
d-229-10	pistol	NOUN	NOUN
d-229-11	smoke	NOUN	VERB
d-229-12	,	.	.
d-229-13	fool	NOUN	NOUN

d-230-1	i'm	PRON	PRT
d-230-2	the	DET	DET
d-230-3	kinda	NOUN	ADV
d-230-4	g	NOUN	VERB
d-230-5	the	DET	DET
d-230-6	little	ADJ	ADJ
d-230-7	homies	NOUN	NOUN
d-230-8	wanna	VERB	VERB
d-230-9	be	VERB	VERB
d-230-10	like	ADP	ADP

d-231-1	on	ADP	ADP
d-231-2	my	DET	DET
d-231-3	knees	NOUN	NOUN
d-231-4	in	ADP	ADP
d-231-5	the	DET	DET
d-231-6	night	NOUN	NOUN
d-231-7	saying	VERB	VERB
d-231-8	prayers	NOUN	NOUN
d-231-9	in	ADP	ADP
d-231-10	the	DET	DET
d-231-11	streetlight	NOUN	NOUN

d-232-1	been	VERB	VERB
d-232-2	spending	VERB	VERB
d-232-3	most	ADV	ADV
d-232-4	their	DET	DET
d-232-5	lives	NOUN	NOUN
d-232-6	,	.	.
d-232-7	living	VERB	VERB
d-232-8	in	ADP	ADP
d-232-9	the	DET	DET
d-232-10	gangsta's	DET	NOUN
d-232-11	paradise	NOUN	NOUN

d-233-1	keep	VERB	VERB
d-233-2	spending	VERB	VERB
d-233-3	most	ADV	ADV
d-233-4	our	DET	DET
d-233-5	lives	NOUN	NOUN
d-233-6	,	.	.
d-233-7	living	VERB	VERB
d-233-8	in	ADP	ADP
d-233-9	the	DET	DET
d-233-10	gangsta's	DET	NOUN
d-233-11	paradise	NOUN	NOUN

d-234-1	look	VERB	VERB
d-234-2	at	ADP	ADP
d-234-3	the	DET	DET
d-234-4	situation	NOUN	NOUN
d-234-5	they	PRON	PRON
d-234-6	got	VERB	VERB
d-234-7	me	PRON	PRON
d-234-8	facin'	VERB	VERB

d-235-1	i	PRON	PRON
d-235-2	can't	VERB	VERB
d-235-3	live	VERB	VERB
d-235-4	a	DET	DET
d-235-5	normal	ADJ	ADJ
d-235-6	life	NOUN	NOUN
d-235-7	,	.	.
d-235-8	i	PRON	PRON
d-235-9	was	VERB	VERB
d-235-10	raised	VERB	VERB
d-235-11	by	ADP	ADP
d-235-12	the	DET	DET
d-235-13	streets	NOUN	NOUN

d-236-1	so	ADV	ADP
d-236-2	i	PRON	PRON
d-236-3	gotta	VERB	VERB
d-236-4	be	VERB	VERB
d-236-5	down	PRT	ADV
d-236-6	with	ADP	ADP
d-236-7	the	DET	DET
d-236-8	hood	NOUN	NOUN
d-236-9	team	NOUN	NOUN

d-237-1	too	ADV	ADV
d-237-2	much	ADJ	ADJ
d-237-3	television	NOUN	NOUN
d-237-4	watching	VERB	VERB
d-237-5	got	VERB	VERB
d-237-6	me	PRON	PRON
d-237-7	chasing	VERB	VERB
d-237-8	dreams	NOUN	NOUN

d-238-1	i'm	PRON	PRT
d-238-2	an	DET	DET
d-238-3	educated	ADJ	ADJ
d-238-4	fool	NOUN	NOUN
d-238-5	with	ADP	ADP
d-238-6	money	NOUN	NOUN
d-238-7	on	ADP	ADP
d-238-8	my	DET	DET
d-238-9	mind	NOUN	NOUN

d-239-1	got	VERB	VERB
d-239-2	my	DET	DET
d-239-3	!digits	NOUN	NUM
d-239-4	in	ADP	ADP
d-239-5	my	DET	DET
d-239-6	hand	NOUN	NOUN
d-239-7	and	CONJ	CONJ
d-239-8	a	DET	DET
d-239-9	gleam	NOUN	NOUN
d-239-10	in	ADP	ADP
d-239-11	my	DET	DET
d-239-12	eye	NOUN	NOUN

d-240-1	i'm	PRON	PRT
d-240-2	a	DET	DET
d-240-3	loc'd	ADJ	NOUN
d-240-4	out	PRT	ADP
d-240-5	gangsta	NOUN	ADJ
d-240-6	set	NOUN	NOUN
d-240-7	trippin'	VERB	VERB
d-240-8	banger	NOUN	NOUN

d-241-1	and	CONJ	CONJ
d-241-2	my	DET	DET
d-241-3	homies	NOUN	NOUN
d-241-4	is	VERB	VERB
d-241-5	down	PRT	ADV
d-241-6	so	ADV	ADP
d-241-7	don't	VERB	VERB
d-241-8	arouse	VERB	VERB
d-241-9	my	DET	DET
d-241-10	anger	NOUN	NOUN
d-241-11	,	.	.
d-241-12	fool	NOUN	NOUN

d-242-1	death	NOUN	NOUN
d-242-2	ain't	VERB	VERB
d-242-3	nothing	PRON	NOUN
d-242-4	but	CONJ	CONJ
d-242-5	a	DET	DET
d-242-6	heartbeat	NOUN	NOUN
d-242-7	away	ADV	ADV
d-242-8	,	.	.

d-243-1	i'm	PRON	PRT
d-243-2	living	VERB	VERB
d-243-3	life	NOUN	NOUN
d-243-4	,	.	.
d-243-5	do	VERB	VERB
d-243-6	or	CONJ	CONJ
d-243-7	die	VERB	VERB
d-243-8	,	.	.
d-243-9	what	PRON	PRON
d-243-10	can	VERB	VERB
d-243-11	i	PRON	PRON
d-243-12	say	VERB	VERB

d-244-1	i'm	PRON	PRT
d-244-2	!digits	NUM	ADP
d-244-3	now	ADV	ADV
d-244-4	,	.	.
d-244-5	but	CONJ	CONJ
d-244-6	will	VERB	VERB
d-244-7	i	PRON	PRON
d-244-8	live	VERB	VERB
d-244-9	to	ADP	ADP
d-244-10	see	VERB	VERB
d-244-11	!digits	NUM	ADP

d-245-1	the	DET	DET
d-245-2	way	NOUN	NOUN
d-245-3	things	NOUN	NOUN
d-245-4	are	VERB	VERB
d-245-5	going	VERB	VERB
d-245-6	i	PRON	PRON
d-245-7	don't	VERB	VERB
d-245-8	know	VERB	VERB

d-246-1	tell	VERB	VERB
d-246-2	me	PRON	PRON
d-246-3	why	ADV	ADV
d-246-4	are	VERB	VERB
d-246-5	we	PRON	PRON
d-246-6	so	ADV	ADP
d-246-7	blind	ADJ	NOUN
d-246-8	to	ADP	ADP
d-246-9	see	VERB	VERB

d-247-1	that	CONJ	ADP
d-247-2	the	DET	DET
d-247-3	ones	NOUN	NOUN
d-247-4	we	PRON	PRON
d-247-5	hurt	VERB	VERB
d-247-6	are	VERB	VERB
d-247-7	you	PRON	PRON
d-247-8	and	CONJ	CONJ
d-247-9	me	PRON	PRON

d-248-1	been	VERB	VERB
d-248-2	spending	VERB	VERB
d-248-3	most	ADV	ADV
d-248-4	their	DET	DET
d-248-5	lives	NOUN	NOUN
d-248-6	,	.	.
d-248-7	living	VERB	VERB
d-248-8	in	ADP	ADP
d-248-9	the	DET	DET
d-248-10	gangsta's	DET	NOUN
d-248-11	paradise	NOUN	NOUN

d-249-1	keep	VERB	VERB
d-249-2	spending	VERB	VERB
d-249-3	most	ADV	ADV
d-249-4	our	DET	DET
d-249-5	lives	NOUN	NOUN
d-249-6	,	.	.
d-249-7	living	VERB	VERB
d-249-8	in	ADP	ADP
d-249-9	the	DET	DET
d-249-10	gangsta's	DET	NOUN
d-249-11	paradise	NOUN	NOUN

d-250-1	power	NOUN	NOUN
d-250-2	and	CONJ	CONJ
d-250-3	the	DET	DET
d-250-4	money	NOUN	NOUN
d-250-5	,	.	.
d-250-6	money	NOUN	NOUN
d-250-7	and	CONJ	CONJ
d-250-8	the	DET	DET
d-250-9	power	NOUN	NOUN

d-251-1	minute	NOUN	NOUN
d-251-2	after	ADP	ADP
d-251-3	minute	NOUN	NOUN
d-251-4	,	.	.
d-251-5	hour	NOUN	NOUN
d-251-6	after	ADP	ADP
d-251-7	hour	NOUN	NOUN

d-252-1	everybody's	PRON	PRT
d-252-2	running	VERB	VERB
d-252-3	,	.	.
d-252-4	but	CONJ	CONJ
d-252-5	half	NOUN	NUM
d-252-6	of	ADP	ADP
d-252-7	them	PRON	PRON
d-252-8	ain't	VERB	VERB
d-252-9	looking	VERB	VERB

d-253-1	what's	PRON	PRT
d-253-2	going	VERB	VERB
d-253-3	on	PRT	ADP
d-253-4	in	ADP	ADP
d-253-5	the	DET	DET
d-253-6	kitchen	NOUN	NOUN
d-253-7	,	.	.
d-253-8	but	CONJ	CONJ
d-253-9	i	PRON	PRON
d-253-10	don't	VERB	VERB
d-253-11	know	VERB	VERB
d-253-12	what's	PRON	PRT
d-253-13	cookin'	VERB	VERB

d-254-1	they	PRON	PRON
d-254-2	say	VERB	VERB
d-254-3	i	PRON	PRON
d-254-4	gotta	VERB	VERB
d-254-5	learn	VERB	VERB
d-254-6	,	.	.
d-254-7	but	CONJ	CONJ
d-254-8	nobody's	PRON	ADV
d-254-9	here	ADV	ADV
d-254-10	to	ADP	ADP
d-254-11	teach	VERB	VERB
d-254-12	me	PRON	PRON

d-255-1	if	CONJ	ADP
d-255-2	they	PRON	PRON
d-255-3	can't	VERB	VERB
d-255-4	understand	VERB	VERB
d-255-5	it	PRON	PRON
d-255-6	,	.	.
d-255-7	how	ADV	ADV
d-255-8	can	VERB	VERB
d-255-9	they	PRON	PRON
d-255-10	reach	VERB	VERB
d-255-11	me	PRON	PRON

d-256-1	i	PRON	PRON
d-256-2	guess	VERB	VERB
d-256-3	they	PRON	PRON
d-256-4	can't	VERB	VERB
d-256-5	,	.	.
d-256-6	i	PRON	PRON
d-256-7	guess	VERB	VERB
d-256-8	they	PRON	PRON
d-256-9	won't	VERB	VERB

d-257-1	i	PRON	PRON
d-257-2	guess	VERB	VERB
d-257-3	they	PRON	PRON
d-257-4	front	VERB	ADV
d-257-5	,	.	.
d-257-6	that's	PRON	PRT
d-257-7	why	ADV	ADV
d-257-8	i	PRON	PRON
d-257-9	know	VERB	VERB
d-257-10	my	DET	DET
d-257-11	life	NOUN	NOUN
d-257-12	is	VERB	VERB
d-257-13	out	PRT	ADP
d-257-14	of	PRT	ADP
d-257-15	luck	NOUN	NOUN
d-257-16	,	.	.
d-257-17	fool	NOUN	NOUN

d-258-1	been	VERB	VERB
d-258-2	spending	VERB	VERB
d-258-3	most	ADV	ADV
d-258-4	their	DET	DET
d-258-5	lives	NOUN	NOUN
d-258-6	,	.	.
d-258-7	living	VERB	VERB
d-258-8	in	ADP	ADP
d-258-9	the	DET	DET
d-258-10	gangsta's	DET	NOUN
d-258-11	paradise	NOUN	NOUN

d-259-1	keep	VERB	VERB
d-259-2	spending	VERB	VERB
d-259-3	most	ADV	ADV
d-259-4	our	DET	DET
d-259-5	lives	NOUN	NOUN
d-259-6	,	.	.
d-259-7	living	VERB	VERB
d-259-8	in	ADP	ADP
d-259-9	the	DET	DET
d-259-10	gangsta's	DET	NOUN
d-259-11	paradise	NOUN	NOUN

d-260-1	tell	VERB	VERB
d-260-2	me	PRON	PRON
d-260-3	why	ADV	ADV
d-260-4	are	VERB	VERB
d-260-5	we	PRON	PRON
d-260-6	so	ADV	ADP
d-260-7	blind	ADJ	NOUN
d-260-8	to	ADP	ADP
d-260-9	see	VERB	VERB

d-261-1	that	CONJ	ADP
d-261-2	the	DET	DET
d-261-3	one's	PRON	NOUN
d-261-4	we	PRON	PRON
d-261-5	hurt	VERB	VERB
d-261-6	are	VERB	VERB
d-261-7	you	PRON	PRON
d-261-8	and	CONJ	CONJ
d-261-9	me	PRON	PRON

d-262-1	tell	VERB	VERB
d-262-2	me	PRON	PRON
d-262-3	why	ADV	ADV
d-262-4	are	VERB	VERB
d-262-5	we	PRON	PRON
d-262-6	so	ADV	ADP
d-262-7	blind	ADJ	NOUN
d-262-8	to	ADP	ADP
d-262-9	see	VERB	VERB

d-263-1	that	CONJ	ADP
d-263-2	the	DET	DET
d-263-3	one's	PRON	NOUN
d-263-4	we	PRON	PRON
d-263-5	hurt	VERB	VERB
d-263-6	are	VERB	VERB
d-263-7	you	PRON	PRON
d-263-8	and	CONJ	CONJ
d-263-9	me	PRON	PRON

d-264-1	ladies	NOUN	NOUN
d-264-2	and	CONJ	CONJ
d-264-3	gentlemen	NOUN	NOUN

d-265-1	this	DET	DET
d-265-2	one	NOUN	NUM
d-265-3	goes	VERB	VERB
d-265-4	out	PRT	PRT
d-265-5	to	ADP	ADP
d-265-6	that	DET	DET
d-265-7	little	ADJ	ADJ
d-265-8	kid	NOUN	NOUN
d-265-9	that	PRON	ADP
d-265-10	got	VERB	VERB
d-265-11	fried	NOUN	NOUN
d-265-12	spam	NOUN	NOUN
d-265-13	for	ADP	ADP
d-265-14	lunch	NOUN	NOUN

d-266-1	i	PRON	PRON
d-266-2	feel	VERB	VERB
d-266-3	for	PRT	ADP
d-266-4	you	PRON	PRON
d-266-5	,	.	.
d-266-6	i'm	PRON	PRT
d-266-7	with	PRT	ADP
d-266-8	you	PRON	PRON
d-266-9	,	.	.
d-266-10	i'm	PRON	PRT
d-266-11	with	PRT	ADP
d-266-12	you	PRON	PRON
d-266-13	brother	NOUN	NOUN

d-267-1	and	CONJ	CONJ
d-267-2	this	DET	DET
d-267-3	one	NOUN	NUM
d-267-4	right	ADJ	ADV
d-267-5	here	ADV	ADV
d-267-6	is	VERB	VERB
d-267-7	for	ADP	ADP
d-267-8	that	DET	DET
d-267-9	ghetto	ADJ	ADJ
d-267-10	girl	NOUN	NOUN
d-267-11	with	ADP	ADP
d-267-12	the	DET	DET
d-267-13	bad	ADJ	ADJ
d-267-14	perm	NOUN	NOUN

d-268-1	that	PRON	PRON
d-268-2	just	ADV	ADV
d-268-3	burn	VERB	VERB
d-268-4	baby	NOUN	NOUN
d-268-5	,	.	.
d-268-6	burn	VERB	VERB
d-268-7	baby	NOUN	NOUN
d-268-8	,	.	.
d-268-9	burn	VERB	VERB

d-269-1	pop	VERB	NOUN
d-269-2	open	PRT	VERB
d-269-3	a	DET	DET
d-269-4	malt	NOUN	NOUN
d-269-5	liquor	NOUN	NOUN

d-270-1	smoke	VERB	VERB
d-270-2	something	PRON	NOUN
d-270-3	until	ADP	ADP
d-270-4	your	DET	DET
d-270-5	scalp	NOUN	NOUN
d-270-6	gets	VERB	VERB
d-270-7	killed	VERB	VERB

d-271-1	gangstas	NOUN	NOUN
d-271-2	and	CONJ	CONJ
d-271-3	pimps	NOUN	NOUN

d-272-1	love	VERB	NOUN
d-272-2	lobsters	NOUN	NOUN
d-272-3	and	CONJ	CONJ
d-272-4	shrimps	NOUN	NOUN

d-273-1	kool-aid	NOUN	NOUN
d-273-2	and	CONJ	CONJ
d-273-3	chicken	NOUN	NOUN

d-274-1	flashy	ADJ	ADJ
d-274-2	things	NOUN	NOUN
d-274-3	and	CONJ	CONJ
d-274-4	women	NOUN	NOUN

d-275-1	all	PRON	DET
d-275-2	i	PRON	PRON
d-275-3	need	VERB	VERB

d-276-1	is	VERB	VERB
d-276-2	remy	NOUN	NOUN
d-276-3	and	CONJ	CONJ
d-276-4	weed	NOUN	NOUN

d-277-1	somebody	PRON	NOUN
d-277-2	not	ADV	ADV
d-277-3	afraid	ADJ	ADJ

d-278-1	to	ADP	ADP
d-278-2	go	VERB	VERB
d-278-3	some	PRON	PRON
d-278-4	for	ADP	ADP
d-278-5	my	DET	DET
d-278-6	escalade	NOUN	NOUN

d-279-1	i'm	PRON	PRT
d-279-2	just	ADV	ADV
d-279-3	pimping	VERB	VERB

d-280-1	baby	NOUN	NOUN
d-280-2	you	PRON	PRON
d-280-3	got	VERB	VERB
d-280-4	a	DET	DET
d-280-5	rule	NOUN	NOUN
d-280-6	for	ADP	ADP
d-280-7	me	PRON	PRON

d-281-1	put	VERB	VERB
d-281-2	your	DET	DET
d-281-3	mink	NOUN	NOUN
d-281-4	on	PRT	ADP
d-281-5	and	CONJ	CONJ
d-281-6	slide	VERB	VERB
d-281-7	in	ADP	ADP
d-281-8	a	DET	DET
d-281-9	cool	NOUN	ADJ
d-281-10	for	ADP	ADP
d-281-11	me	PRON	PRON

d-282-1	hey	ADV	PRT
d-282-2	you	PRON	PRON
d-282-3	gotta	VERB	VERB
d-282-4	get	VERB	VERB
d-282-5	high	ADJ	ADJ
d-282-6	and	CONJ	CONJ
d-282-7	go	VERB	VERB
d-282-8	low	PRT	VERB
d-282-9	for	ADP	ADP
d-282-10	me	PRON	PRON

d-283-1	it's	PRON	PRT
d-283-2	cash	NOUN	NOUN
d-283-3	money	NOUN	NOUN
d-283-4	young	ADJ	ADJ
d-283-5	money	NOUN	NOUN
d-283-6	never	ADV	ADV
d-283-7	know	VERB	VERB
d-283-8	money	NOUN	NOUN

d-284-1	it's	PRON	PRT
d-284-2	!digits	NUM	NUM
d-284-3	degreez	NOUN	NOUN
d-284-4	it's	PRON	PRT
d-284-5	not	ADV	ADV
d-284-6	fool	ADJ	NOUN

d-285-1	but	CONJ	CONJ
d-285-2	it	PRON	PRON
d-285-3	and	CONJ	CONJ
d-285-4	the	DET	DET
d-285-5	dro	NOUN	NOUN
d-285-6	got	VERB	VERB
d-285-7	me	PRON	PRON
d-285-8	so	ADV	ADV
d-285-9	scummy	ADJ	ADJ

d-286-1	and	CONJ	CONJ
d-286-2	to	ADP	ADP
d-286-3	drum	NOUN	VERB
d-286-4	hole	NOUN	NOUN
d-286-5	a	DET	DET
d-286-6	whole	ADJ	ADJ
d-286-7	hundred	NUM	X

d-287-1	can	VERB	VERB
d-287-2	i	PRON	PRON
d-287-3	put	VERB	VERB
d-287-4	a	DET	DET
d-287-5	whole	ADJ	ADJ
d-287-6	hundred	NUM	NUM
d-287-7	in	ADP	ADP
d-287-8	your	DET	DET
d-287-9	whole	ADJ	ADJ
d-287-10	tummy	NOUN	NOUN

d-288-1	hehe	X	PRT
d-288-2	,	.	.
d-288-3	man	NOUN	PRT
d-288-4	weezy's	NOUN	PRT
d-288-5	a	DET	DET
d-288-6	legend	NOUN	NOUN

d-289-1	you	PRON	PRON
d-289-2	can	VERB	VERB
d-289-3	tell	VERB	VERB
d-289-4	by	ADP	ADP
d-289-5	the	DET	DET
d-289-6	bottom	NOUN	NOUN
d-289-7	of	ADP	ADP
d-289-8	my	DET	DET
d-289-9	sleeve	NOUN	NOUN
d-289-10	when	ADV	ADV
d-289-11	you	PRON	PRON
d-289-12	see	VERB	VERB
d-289-13	what's	PRON	PRT
d-289-14	in	ADP	ADP
d-289-15	a	DET	DET
d-289-16	bezel	NOUN	NOUN

d-290-1	and	CONJ	CONJ
d-290-2	he	PRON	PRON
d-290-3	be	VERB	VERB
d-290-4	on	ADP	ADP
d-290-5	a	DET	DET
d-290-6	level	NOUN	NOUN
d-290-7	that's	PRON	PRT
d-290-8	so	ADV	ADV
d-290-9	terrific	ADJ	ADJ

d-291-1	i'm	PRON	PRT
d-291-2	in	ADP	ADP
d-291-3	this	DET	DET
d-291-4	bitch	NOUN	NOUN
d-291-5	hold	VERB	VERB
d-291-6	your	DET	DET
d-291-7	pictures	NOUN	NOUN

d-292-1	and	CONJ	CONJ
d-292-2	hold	VERB	VERB
d-292-3	your	DET	DET
d-292-4	bitches	NOUN	NOUN
d-292-5	cuz	CONJ	ADP
d-292-6	she	PRON	PRON
d-292-7	gon	VERB	VERB
d-292-8	want	VERB	VERB
d-292-9	a	DET	DET
d-292-10	part	NOUN	NOUN
d-292-11	of	ADP	ADP
d-292-12	me	PRON	PRON

d-293-1	cuz	CONJ	ADP
d-293-2	she	PRON	PRON
d-293-3	never	ADV	ADV
d-293-4	see	VERB	VERB
d-293-5	the	DET	DET
d-293-6	roof	NOUN	NOUN
d-293-7	of	ADP	ADP
d-293-8	my	DET	DET
d-293-9	car	NOUN	NOUN
d-293-10	with	ADP	ADP
d-293-11	me	PRON	PRON

d-294-1	and	CONJ	CONJ
d-294-2	you	PRON	PRON
d-294-3	never	ADV	ADV
d-294-4	see	VERB	VERB
d-294-5	a	DET	DET
d-294-6	tooth	NOUN	NOUN
d-294-7	without	ADP	ADP
d-294-8	a	DET	DET
d-294-9	diamond	NOUN	NOUN
d-294-10	on	ADP	ADP
d-294-11	it	PRON	PRON

d-295-1	this	PRON	PRON
d-295-2	is	VERB	VERB
d-295-3	game	NOUN	NOUN
d-295-4	at	ADP	ADP
d-295-5	its	DET	PRT
d-295-6	finest	ADJ	ADJ
d-295-7	homie	NOUN	NOUN

d-296-1	peep	VERB	VERB
d-296-2	it	PRON	PRON

d-297-1	see	VERB	VERB
d-297-2	i	PRON	PRON
d-297-3	was	VERB	VERB
d-297-4	born	VERB	VERB
d-297-5	from	ADP	ADP
d-297-6	a	DET	DET
d-297-7	gangsta	NOUN	ADJ

d-298-1	pa	NOUN	NOUN
d-298-2	gave	VERB	VERB
d-298-3	me	PRON	PRON
d-298-4	a	DET	DET
d-298-5	whip	NOUN	NOUN

d-299-1	ran	VERB	VERB
d-299-2	numbers	NOUN	NOUN
d-299-3	with	ADP	ADP
d-299-4	pimps	NOUN	NOUN
d-299-5	and	CONJ	CONJ
d-299-6	i	PRON	PRON
d-299-7	laid	VERB	VERB
d-299-8	down	PRT	PRT
d-299-9	cents	NOUN	NOUN

d-300-1	one	NUM	NUM
d-300-2	of	ADP	ADP
d-300-3	a	DET	DET
d-300-4	kind	NOUN	NOUN
d-300-5	birdman	NOUN	NOUN
d-300-6	i	PRON	PRON
d-300-7	shine	VERB	VERB

d-301-1	22's	NOUN	PRT
d-301-2	on	ADP	ADP
d-301-3	it	PRON	PRON
d-301-4	?	.	.

d-302-1	the	DET	DET
d-302-2	bitch	NOUN	NOUN
d-302-3	ain't	VERB	VERB
d-302-4	mine	PRON	PRON

d-303-1	i	PRON	PRON
d-303-2	taught	VERB	VERB
d-303-3	her	PRON	PRON
d-303-4	the	DET	DET
d-303-5	game	NOUN	NOUN
d-303-6	ma	DET	NOUN

d-304-1	i	PRON	PRON
d-304-2	gave	VERB	VERB
d-304-3	it	PRON	PRON
d-304-4	all	ADJ	DET
d-304-5	to	ADP	ADP
d-304-6	her	PRON	PRON

d-305-1	weezy	NOUN	PRT
d-305-2	wee	NOUN	VERB
d-305-3	my	DET	DET
d-305-4	son	NOUN	NOUN
d-305-5	i	PRON	PRON
d-305-6	give	VERB	VERB
d-305-7	it	PRON	PRON
d-305-8	all	ADJ	DET
d-305-9	to	ADP	ADP
d-305-10	him	PRON	PRON

d-306-1	the	DET	DET
d-306-2	birdman	NOUN	NOUN
d-306-3	junior	NOUN	NOUN
d-306-4	i'm	PRON	PRT
d-306-5	the	DET	DET
d-306-6	son	NOUN	NOUN
d-306-7	of	ADP	ADP
d-306-8	a	DET	DET
d-306-9	stunna	NOUN	NOUN

d-307-1	mannie	NOUN	NOUN
d-307-2	fresh	NOUN	ADJ

d-308-1	jazze	NOUN	NOUN
d-308-2	phezzy	NOUN	NOUN
d-308-3	this	PRON	VERB
d-308-4	our	DET	DET
d-308-5	summer	NOUN	NOUN

d-309-1	!digits	NUM	NUM
d-309-2	degreez	NOUN	NOUN
d-309-3	got	VERB	VERB
d-309-4	rich	ADJ	NOUN
d-309-5	off	ADP	ADP
d-309-6	the	DET	DET
d-309-7	four	NUM	NUM

d-310-1	cadillac	NOUN	NOUN
d-310-2	slant	VERB	NOUN
d-310-3	back	PRT	ADV
d-310-4	cut	VERB	NOUN
d-310-5	side	NOUN	NOUN
d-310-6	elbow	NOUN	NOUN

d-311-1	cadillac	NOUN	NOUN
d-311-2	smoke	NOUN	VERB
d-311-3	dro	VERB	NOUN
d-311-4	just	ADV	ADV
d-311-5	me	PRON	PRON
d-311-6	and	CONJ	CONJ
d-311-7	the	DET	DET
d-311-8	ho	NOUN	X

d-312-1	flash	NOUN	NOUN
d-312-2	from	ADP	ADP
d-312-3	hard	ADJ	ADJ
d-312-4	times	NOUN	NOUN
d-312-5	from	ADP	ADP
d-312-6	that	DET	DET
d-312-7	coke	NOUN	NOUN
d-312-8	and	CONJ	CONJ
d-312-9	dope	NOUN	ADJ

d-313-1	put	VERB	VERB
d-313-2	cars	VERB	NOUN
d-313-3	in	ADP	ADP
d-313-4	moms	DET	NOUN
d-313-5	name	NOUN	NOUN
d-313-6	just	ADV	ADV
d-313-7	to	ADP	ADP
d-313-8	duck	VERB	VERB
d-313-9	white	ADJ	ADJ
d-313-10	folks	NOUN	NOUN

d-314-1	we	PRON	PRON
d-314-2	eat	VERB	VERB
d-314-3	lobster	NOUN	NOUN
d-314-4	and	CONJ	CONJ
d-314-5	shrimp	NOUN	NOUN

d-315-1	nigga	NOUN	NOUN
d-315-2	park	NOUN	NOUN
d-315-3	that	DET	ADP
d-315-4	lambo	NOUN	NOUN

d-316-1	i'm	PRON	PRT
d-316-2	a	DET	DET
d-316-3	v.i.p.	ADJ	NOUN
d-316-4	nigga	NOUN	NOUN

d-317-1	pop	VERB	NOUN
d-317-2	bottles	NOUN	NOUN
d-317-3	of	ADP	ADP
d-317-4	mo	NOUN	ADJ

d-318-1	i	PRON	PRON
d-318-2	pray	VERB	VERB
d-318-3	that	CONJ	DET
d-318-4	one	DET	NUM
d-318-5	day	NOUN	NOUN
d-318-6	i'll	PRON	PRT
d-318-7	open	VERB	VERB
d-318-8	a	DET	DET
d-318-9	better	ADJ	ADJ
d-318-10	door	NOUN	NOUN

d-319-1	ain't	VERB	VERB
d-319-2	no	DET	DET
d-319-3	mountain	NOUN	NOUN
d-319-4	high	ADJ	X
d-319-5	enough	ADV	ADV

d-320-1	to	ADP	ADP
d-320-2	me	PRON	PRON
d-320-3	for	ADP	ADP
d-320-4	cuz	CONJ	VERB
d-320-5	i	PRON	PRON
d-320-6	keep	VERB	VERB
d-320-7	on	PRT	ADP
d-320-8	buying	VERB	VERB
d-320-9	fi-fi	ADJ	NOUN
d-320-10	stuff	NOUN	NOUN

d-321-1	and	CONJ	CONJ
d-321-2	the	DET	DET
d-321-3	eastside	NOUN	NOUN
d-321-4	where	ADV	ADV
d-321-5	we	PRON	PRON
d-321-6	pump	VERB	NOUN

d-322-1	it's	PRON	PRT
d-322-2	my	DET	DET
d-322-3	part	NOUN	NOUN
d-322-4	of	ADP	ADP
d-322-5	new	NOUN	NOUN
d-322-6	orleans	NOUN	NOUN

d-323-1	bleed	VERB	NOUN
d-323-2	for	ADP	ADP
d-323-3	ya	PRON	PRON
d-323-4	i'm	PRON	PRT
d-323-5	the	DET	DET
d-323-6	heart	NOUN	NOUN
d-323-7	of	ADP	ADP
d-323-8	new	NOUN	NOUN
d-323-9	orleans	NOUN	NOUN

d-324-1	hear	VERB	VERB
d-324-2	you're	PRON	PRT
d-324-3	fucking	VERB	ADV
d-324-4	with	ADP	ADP
d-324-5	a	DET	DET
d-324-6	gangsta	NOUN	ADJ
d-324-7	foe	NOUN	NOUN

d-325-1	hope	VERB	VERB
d-325-2	you	PRON	PRON
d-325-3	never	ADV	ADV
d-325-4	close	VERB	ADJ
d-325-5	your	DET	DET
d-325-6	eyes	NOUN	NOUN
d-325-7	i'll	PRON	PRT
d-325-8	bang	VERB	VERB
d-325-9	your	DET	DET
d-325-10	ho	NOUN	X

d-326-1	all	ADJ	DET
d-326-2	she	PRON	PRON
d-326-3	need	VERB	VERB
d-326-4	is	VERB	VERB
d-326-5	some	DET	DET
d-326-6	guidance	NOUN	NOUN
d-326-7	i'll	PRON	PRT
d-326-8	tame	VERB	VERB
d-326-9	your	DET	DET
d-326-10	ho	NOUN	X

d-327-1	it's	PRON	PRT
d-327-2	big	ADJ	ADJ
d-327-3	pimping	VERB	NOUN
d-327-4	over	ADP	ADP
d-327-5	here	ADV	ADV
d-327-6	man	NOUN	PRT
d-327-7	yeah	ADV	PRT
d-327-8	man	NOUN	NOUN

d-328-1	if	CONJ	ADP
d-328-2	she	PRON	PRON
d-328-3	looking	VERB	VERB
d-328-4	for	ADP	ADP
d-328-5	a	DET	DET
d-328-6	daddy	NOUN	NOUN
d-328-7	see	VERB	VERB
d-328-8	the	DET	DET
d-328-9	lil	ADJ	ADJ
d-328-10	man	NOUN	NOUN

d-329-1	weezy	NOUN	VERB
d-329-2	baby	NOUN	NOUN
d-329-3	,	.	.
d-329-4	don't	VERB	VERB
d-329-5	fool	VERB	VERB
d-329-6	yourself	PRON	PRON
d-329-7	you	PRON	PRON
d-329-8	need	VERB	VERB
d-329-9	me	PRON	PRON
d-329-10	baby	NOUN	NOUN

d-330-1	easy	ADV	ADJ
d-330-2	baby	NOUN	NOUN
d-330-3	,	.	.
d-330-4	i'm	PRON	PRT
d-330-5	just	ADV	ADV
d-330-6	trying	VERB	VERB
d-330-7	to	ADP	ADP
d-330-8	keep	VERB	VERB
d-330-9	my	DET	DET
d-330-10	bread	NOUN	NOUN
d-330-11	cheesy	ADJ	NOUN
d-330-12	baby	NOUN	NOUN

d-331-1	slick	ADJ	NOUN
d-331-2	when	ADV	ADV
d-331-3	i	PRON	PRON
d-331-4	spit	VERB	VERB
d-331-5	shit	NOUN	NOUN
d-331-6	right	ADJ	ADV

d-332-1	26-inch	ADJ	NOUN
d-332-2	got	VERB	VERB
d-332-3	a	DET	DET
d-332-4	deep-dish	ADJ	NOUN
d-332-5	ma	NOUN	NOUN

d-333-1	sweet	ADJ	ADJ
d-333-2	as	ADP	ADP
d-333-3	mami	NOUN	NOUN
d-333-4	lips	NOUN	NOUN
d-333-5	when	ADV	ADV
d-333-6	i'm	PRON	PRT
d-333-7	creeping	VERB	VERB
d-333-8	by	PRT	ADP

d-334-1	baby	NOUN	NOUN
d-334-2	gave	VERB	VERB
d-334-3	me	PRON	PRON
d-334-4	wings	NOUN	ADV
d-334-5	just	ADV	ADV
d-334-6	to	ADP	ADP
d-334-7	keep	VERB	VERB
d-334-8	me	PRON	PRON
d-334-9	fly	ADJ	PRT

d-335-1	weezy	NOUN	VERB
d-335-2	i	PRON	PRON
d-335-3	,	.	.
d-335-4	hell	X	PRT
d-335-5	yeah	X	PRT

d-336-1	and	CONJ	CONJ
d-336-2	i'm	PRON	PRT
d-336-3	rolling	VERB	VERB
d-336-4	with	ADP	ADP
d-336-5	them	PRON	PRON

d-337-1	there	ADV	PRT
d-337-2	ain't	VERB	VERB
d-337-3	no	DET	DET
d-337-4	love	NOUN	NOUN
d-337-5	like	ADP	ADP

d-338-1	like	ADP	ADP
d-338-2	father	NOUN	NOUN
d-338-3	like	ADP	ADP
d-338-4	son	NOUN	NOUN
d-338-5	,	.	.
d-338-6	nigga	NOUN	NOUN

d-339-1	yeah	ADV	PRT

d-340-1	it's	PRON	PRT
d-340-2	filthy	ADJ	ADJ
d-340-3	with	ADP	ADP
d-340-4	quarter	ADJ	DET
d-340-5	ki's	NOUN	NOUN
d-340-6	in	ADP	ADP
d-340-7	the	DET	DET
d-340-8	kitchen	NOUN	NOUN
d-340-9	on	ADP	ADP
d-340-10	'em	PRON	PRON

d-341-1	tha	DET	DET
d-341-2	block	NOUN	NOUN
d-341-3	is	VERB	VERB
d-341-4	hot	ADJ	ADJ
d-341-5	but	CONJ	CONJ
d-341-6	we	PRON	PRON
d-341-7	out	ADP	ADP
d-341-8	here	ADV	ADV
d-341-9	gettin	VERB	VERB
d-341-10	it	PRON	PRON
d-341-11	on	ADP	ADP
d-341-12	'em	PRON	PRON

d-342-1	and	CONJ	CONJ
d-342-2	keep	VERB	VERB
d-342-3	a	DET	DET
d-342-4	tool	NOUN	NOUN
d-342-5	everytime	NOUN	ADV
d-342-6	we	PRON	PRON
d-342-7	hit	VERB	VERB
d-342-8	the	DET	DET
d-342-9	streets	NOUN	NOUN

d-343-1	cause	CONJ	ADP
d-343-2	these	DET	DET
d-343-3	niggas	NOUN	NOUN
d-343-4	act	VERB	VERB
d-343-5	a	DET	DET
d-343-6	fool	NOUN	NOUN
d-343-7	and	CONJ	CONJ
d-343-8	we	PRON	PRON
d-343-9	be	VERB	VERB
d-343-10	quick	ADJ	ADJ
d-343-11	to	ADP	ADP
d-343-12	put	VERB	VERB
d-343-13	it	PRON	PRON
d-343-14	on	ADP	ADP
d-343-15	'em	PRON	PRON

d-344-1	them	DET	PRON
d-344-2	tear	NOUN	VERB
d-344-3	drops	NOUN	VERB
d-344-4	homie	NOUN	NOUN
d-344-5	we	PRON	PRON
d-344-6	so	ADV	ADV
d-344-7	not	ADV	ADV

d-345-1	the	DET	DET
d-345-2	nigga	NOUN	NOUN
d-345-3	to	ADP	ADP
d-345-4	fuck	VERB	VERB
d-345-5	with	ADP	ADP
d-345-6	cause	NOUN	ADP
d-345-7	we	PRON	PRON
d-345-8	will	VERB	VERB
d-345-9	pop	VERB	NOUN

d-346-1	.40	NUM	.
d-346-2	cal	NOUN	NOUN
d-346-3	keep	VERB	VERB
d-346-4	it	PRON	PRON
d-346-5	cocked	VERB	VERB
d-346-6	nigga	NOUN	NOUN
d-346-7	ready	ADJ	ADJ
d-346-8	to	ADP	ADP
d-346-9	block	VERB	VERB

d-347-1	keep	VERB	VERB
d-347-2	a	DET	DET
d-347-3	gun	NOUN	NOUN
d-347-4	a	DET	DET
d-347-5	extra	ADJ	ADJ
d-347-6	clip	NOUN	NOUN
d-347-7	homie	NOUN	NOUN
d-347-8	thats	PRON	PRT
d-347-9	how	ADV	ADV
d-347-10	we	PRON	PRON
d-347-11	rock	VERB	NOUN

d-348-1	and	CONJ	CONJ
d-348-2	like	ADP	ADP
d-348-3	father	NOUN	NOUN
d-348-4	like	ADP	ADP
d-348-5	son	NOUN	NOUN
d-348-6	daddy	NOUN	NOUN
d-348-7	we	PRON	PRON
d-348-8	dont	VERB	VERB
d-348-9	borrow	VERB	NOUN

d-349-1	we	PRON	PRON
d-349-2	stay	VERB	VERB
d-349-3	on	ADP	ADP
d-349-4	the	DET	DET
d-349-5	grind	NOUN	NOUN
d-349-6	homie	NOUN	NOUN
d-349-7	cause	CONJ	ADP
d-349-8	we	PRON	PRON
d-349-9	grind	VERB	VERB
d-349-10	harder	ADJ	X

d-350-1	and	CONJ	CONJ
d-350-2	fuckin	VERB	VERB
d-350-3	with	ADP	ADP
d-350-4	me	PRON	PRON
d-350-5	homie	NOUN	VERB
d-350-6	you	PRON	PRON
d-350-7	won't	VERB	VERB
d-350-8	like	VERB	VERB

d-351-1	you	PRON	PRON
d-351-2	be	VERB	VERB
d-351-3	the	DET	DET
d-351-4	next	ADJ	ADJ
d-351-5	t-shirt	NOUN	NOUN
d-351-6	,	.	.
d-351-7	we	PRON	PRON
d-351-8	in	ADP	ADP
d-351-9	ya	DET	PRON
d-351-10	hood	NOUN	VERB
d-351-11	all	DET	DET
d-351-12	night	NOUN	NOUN

d-352-1	we	PRON	PRON
d-352-2	got	VERB	VERB
d-352-3	birds	NOUN	NOUN
d-352-4	flyin	VERB	NOUN
d-352-5	out	PRT	PRT
d-352-6	and	CONJ	CONJ
d-352-7	we've	PRON	PRT
d-352-8	allowed	VERB	VERB
d-352-9	the	DET	DET
d-352-10	pipes	NOUN	NOUN

d-353-1	we	PRON	PRON
d-353-2	do	VERB	VERB
d-353-3	this	DET	DET
d-353-4	state	NOUN	NOUN
d-353-5	to	ADP	ADP
d-353-6	state	NOUN	NOUN
d-353-7	thing	NOUN	NOUN
d-353-8	and	CONJ	CONJ
d-353-9	cheat	VERB	VERB
d-353-10	the	DET	DET
d-353-11	price	NOUN	NOUN

d-354-1	and	CONJ	CONJ
d-354-2	rufus	NOUN	NOUN
d-354-3	came	VERB	VERB
d-354-4	home	NOUN	NOUN
d-354-5	and	CONJ	CONJ
d-354-6	i	PRON	PRON
d-354-7	told	VERB	VERB
d-354-8	him	PRON	PRON
d-354-9	to	ADP	ADP
d-354-10	shave	VERB	VERB

d-355-1	but	CONJ	CONJ
d-355-2	he	PRON	PRON
d-355-3	was	VERB	VERB
d-355-4	tellin	VERB	VERB
d-355-5	me	PRON	PRON
d-355-6	about	ADP	ADP
d-355-7	them	DET	PRON
d-355-8	pussy	NOUN	NOUN
d-355-9	niggas	NOUN	NOUN
d-355-10	back	ADV	ADV
d-355-11	in	ADP	ADP
d-355-12	the	DET	DET
d-355-13	eighties	NOUN	NOUN
d-355-14	,	.	.
d-355-15	baby	NOUN	NOUN

d-356-1	listen	VERB	VERB

d-357-1	birdman	NOUN	NOUN
d-357-2	put	VERB	VERB
d-357-3	me	PRON	PRON
d-357-4	on	PRT	ADP
d-357-5	when	ADV	ADV
d-357-6	i	PRON	PRON
d-357-7	was	VERB	VERB
d-357-8	just	ADV	ADV
d-357-9	eleven	NUM	ADV

d-358-1	he	PRON	PRON
d-358-2	was	VERB	VERB
d-358-3	my	DET	DET
d-358-4	teacher	NOUN	NOUN
d-358-5	,	.	.
d-358-6	so	ADV	ADP
d-358-7	i	PRON	PRON
d-358-8	was	VERB	VERB
d-358-9	like	ADP	ADP
d-358-10	fuck	VERB	VERB
d-358-11	the	DET	DET
d-358-12	lesson	NOUN	NOUN

d-359-1	he	PRON	PRON
d-359-2	was	VERB	VERB
d-359-3	my	DET	DET
d-359-4	preacher	NOUN	NOUN
d-359-5	,	.	.
d-359-6	so	ADV	ADP
d-359-7	i	PRON	PRON
d-359-8	was	VERB	VERB
d-359-9	like	ADP	ADP
d-359-10	fuck	VERB	VERB
d-359-11	the	DET	DET
d-359-12	reverend	NOUN	NOUN

d-360-1	my	DET	DET
d-360-2	mother	NOUN	NOUN
d-360-3	cita	NOUN	NOUN
d-360-4	,	.	.
d-360-5	she	PRON	PRON
d-360-6	said	VERB	VERB
d-360-7	that	CONJ	ADP
d-360-8	i	PRON	PRON
d-360-9	was	VERB	VERB
d-360-10	with	ADP	ADP
d-360-11	the	DET	DET
d-360-12	devil	NOUN	NOUN

d-361-1	my	DET	DET
d-361-2	mother	NOUN	NOUN
d-361-3	cita	NOUN	NOUN
d-361-4	,	.	.
d-361-5	now	ADV	ADV
d-361-6	say	VERB	VERB
d-361-7	that	CONJ	ADP
d-361-8	he	PRON	PRON
d-361-9	was	VERB	VERB
d-361-10	sent	VERB	ADJ
d-361-11	from	ADP	ADP
d-361-12	heaven	NOUN	X

d-362-1	so	ADV	ADV
d-362-2	,	.	.
d-362-3	i	PRON	PRON
d-362-4	take	VERB	VERB
d-362-5	heed	NOUN	VERB
d-362-6	to	ADP	ADP
d-362-7	every	DET	DET
d-362-8	single	ADJ	ADJ
d-362-9	word	NOUN	NOUN
d-362-10	that	CONJ	ADP
d-362-11	he	PRON	PRON
d-362-12	tell	VERB	VERB
d-362-13	me	PRON	PRON

d-363-1	and	CONJ	CONJ
d-363-2	i	PRON	PRON
d-363-3	remember	VERB	VERB
d-363-4	what	PRON	PRON
d-363-5	my	DET	DET
d-363-6	poppa	NOUN	NOUN
d-363-7	told	VERB	VERB
d-363-8	me	PRON	PRON

d-364-1	remember	VERB	VERB
d-364-2	what	PRON	PRON
d-364-3	my	DET	DET
d-364-4	poppa	NOUN	NOUN
d-364-5	told	VERB	VERB
d-364-6	me	PRON	PRON
d-364-7	,	.	.
d-364-8	young	NOUN	ADJ
d-364-9	stunna	NOUN	NOUN

d-365-1	yeah	ADV	PRT

d-366-1	im	PRON	PRT
d-366-2	out	ADP	ADP
d-366-3	c'here	ADV	NOUN
d-366-4	homie	NOUN	NOUN
d-366-5	pitchin	VERB	ADP
d-366-6	the	DET	DET
d-366-7	game	NOUN	NOUN

d-367-1	and	CONJ	CONJ
d-367-2	yes	ADV	PRT
d-367-3	i	PRON	PRON
d-367-4	do	VERB	VERB
d-367-5	the	DET	DET
d-367-6	whole	ADJ	ADJ
d-367-7	thing	NOUN	NOUN
d-367-8	nigga	NOUN	NOUN
d-367-9	give	VERB	VERB
d-367-10	me	PRON	PRON
d-367-11	my	DET	DET
d-367-12	change	NOUN	NOUN

d-368-1	yes	ADV	PRT
d-368-2	we	PRON	PRON
d-368-3	do	VERB	VERB
d-368-4	the	DET	DET
d-368-5	same	ADJ	ADJ
d-368-6	thing	NOUN	NOUN
d-368-7	out	ADP	ADP
d-368-8	the	DET	DET
d-368-9	brand	ADJ	NOUN
d-368-10	new	ADJ	ADJ
d-368-11	range	NOUN	NOUN

d-369-1	little	ADJ	ADJ
d-369-2	nigga	NOUN	NOUN
d-369-3	like	ADP	ADP
d-369-4	his	DET	DET
d-369-5	father	NOUN	NOUN
d-369-6	homie	NOUN	NOUN
d-369-7	doin	VERB	VERB
d-369-8	his	DET	DET
d-369-9	thing	NOUN	NOUN

d-370-1	we	PRON	PRON
d-370-2	keep	VERB	VERB
d-370-3	the	DET	DET
d-370-4	gun	NOUN	NOUN
d-370-5	for	ADP	ADP
d-370-6	paper	NOUN	NOUN
d-370-7	homie	NOUN	NOUN
d-370-8	aimed	VERB	NOUN
d-370-9	and	CONJ	CONJ
d-370-10	cocked	VERB	VERB

d-371-1	every	DET	DET
d-371-2	nigga	NOUN	NOUN
d-371-3	in	ADP	ADP
d-371-4	my	DET	DET
d-371-5	circle	NOUN	NOUN
d-371-6	homie	NOUN	NOUN
d-371-7	ready	ADJ	ADJ
d-371-8	to	ADP	ADP
d-371-9	pop	VERB	NOUN

d-372-1	we	PRON	PRON
d-372-2	be	VERB	VERB
d-372-3	ridin	VERB	NOUN
d-372-4	drop	NOUN	VERB
d-372-5	tops	NOUN	NOUN
d-372-6	thats	PRON	PRT
d-372-7	just	ADV	ADV
d-372-8	how	ADV	ADV
d-372-9	we	PRON	PRON
d-372-10	rock	VERB	NOUN

d-373-1	and	CONJ	CONJ
d-373-2	ill	PRON	PRT
d-373-3	be	VERB	VERB
d-373-4	ridin	VERB	NOUN
d-373-5	in	ADP	ADP
d-373-6	the	DET	DET
d-373-7	phantom	NOUN	NOUN
d-373-8	through	ADP	ADP
d-373-9	my	DET	PRON
d-373-10	up	ADV	PRT
d-373-11	town	ADV	ADJ
d-373-12	blocks	NOUN	NOUN

d-374-1	nigga	NOUN	NOUN

d-375-1	alright	X	PRT
d-375-2	money	NOUN	NOUN
d-375-3	on	ADP	ADP
d-375-4	my	DET	DET
d-375-5	mind	NOUN	NOUN

d-376-1	look	VERB	VERB
d-376-2	i-i-i	PRON	PRT
d-376-3	i	PRON	PRON
d-376-4	hear	VERB	VERB
d-376-5	you	PRON	PRON
d-376-6	niggas	NOUN	NOUN
d-376-7	wisperin	VERB	X

d-377-1	i	PRON	PRON
d-377-2	say	VERB	VERB
d-377-3	wisperin	VERB	VERB
d-377-4	cause	CONJ	ADP
d-377-5	you	PRON	PRON
d-377-6	niggas	NOUN	NOUN
d-377-7	ain't	VERB	VERB
d-377-8	hollerin	VERB	VERB
d-377-9	bout	ADV	ADP
d-377-10	shit	NOUN	NOUN

d-378-1	po'	ADJ	ADJ
d-378-2	pussy	NOUN	NOUN
d-378-3	ass	NOUN	NOUN
d-378-4	niggas	NOUN	NOUN
d-378-5	gangster	NOUN	NOUN
d-378-6	and	CONJ	CONJ
d-378-7	me	PRON	PRON

d-379-1	look	VERB	VERB
d-379-2	birdman	NOUN	NOUN
d-379-3	jr	NOUN	NOUN
d-379-4	fuck	VERB	VERB
d-379-5	the	DET	DET
d-379-6	world	NOUN	NOUN
d-379-7	pops	NOUN	NOUN

d-380-1	and	CONJ	CONJ
d-380-2	we	PRON	PRON
d-380-3	gon	VERB	VERB
d-380-4	keep	VERB	VERB
d-380-5	it	PRON	PRON
d-380-6	movin	VERB	VERB
d-380-7	even	ADV	ADV
d-380-8	if	CONJ	ADP
d-380-9	the	DET	DET
d-380-10	world	NOUN	NOUN
d-380-11	stops	VERB	VERB

d-381-1	stay	VERB	VERB
d-381-2	strapped	ADJ	NOUN
d-381-3	and	CONJ	CONJ
d-381-4	laced	ADJ	VERB
d-381-5	like	ADP	ADP
d-381-6	girl	NOUN	NOUN
d-381-7	socks	NOUN	NOUN

d-382-1	stay	VERB	VERB
d-382-2	dapped	ADJ	NOUN
d-382-3	and	CONJ	CONJ
d-382-4	drapped	ADJ	VERB
d-382-5	like	ADP	ADP
d-382-6	a	DET	DET
d-382-7	birthday	NOUN	NOUN
d-382-8	cake	NOUN	NOUN

d-383-1	birthdays	NOUN	NOUN
d-383-2	was	VERB	VERB
d-383-3	the	DET	DET
d-383-4	worst	ADJ	ADJ
d-383-5	days	NOUN	NOUN

d-384-1	now	ADV	ADV
d-384-2	we	PRON	PRON
d-384-3	sippin'	VERB	VERB
d-384-4	on	ADP	ADP
d-384-5	louis	NOUN	NOUN
d-384-6	when	ADV	ADV
d-384-7	we	PRON	PRON
d-384-8	thirsty	ADJ	VERB

d-385-1	ya	PRON	PRON
d-385-2	know	VERB	VERB
d-385-3	,	.	.
d-385-4	i	PRON	PRON
d-385-5	do	VERB	VERB
d-385-6	believe	VERB	VERB
d-385-7	the	DET	DET
d-385-8	moneys	NOUN	NOUN
d-385-9	cursed	VERB	VERB
d-385-10	me	PRON	PRON

d-386-1	so	ADV	ADP
d-386-2	i	PRON	PRON
d-386-3	pray	VERB	VERB
d-386-4	to	ADP	ADP
d-386-5	god	NOUN	NOUN
d-386-6	that	CONJ	ADP
d-386-7	the	DET	DET
d-386-8	devil	NOUN	NOUN
d-386-9	dont	VERB	VERB
d-386-10	murk	VERB	VERB
d-386-11	me	PRON	PRON
d-386-12	,	.	.
d-386-13	uh	X	PRT

d-387-1	little	ADJ	ADJ
d-387-2	wizzle	NOUN	NOUN
d-387-3	but	CONJ	CONJ
d-387-4	you	PRON	PRON
d-387-5	bitches	NOUN	NOUN
d-387-6	call	VERB	VERB
d-387-7	me	PRON	PRON
d-387-8	first	ADJ	ADJ
d-387-9	place	NOUN	NOUN

d-388-1	and	CONJ	CONJ
d-388-2	papa	NOUN	NOUN
d-388-3	taught	VERB	VERB
d-388-4	me	PRON	PRON
d-388-5	paper	NOUN	NOUN
d-388-6	chase	NOUN	NOUN
d-388-7	never	ADV	ADV
d-388-8	skirt	NOUN	NOUN
d-388-9	chase	NOUN	NOUN

d-389-1	i	PRON	PRON
d-389-2	put	VERB	VERB
d-389-3	you	DET	PRON
d-389-4	niggas	NOUN	NOUN
d-389-5	in	ADP	ADP
d-389-6	the	DET	DET
d-389-7	closet	NOUN	NOUN
d-389-8	in	ADP	ADP
d-389-9	the	DET	DET
d-389-10	shirt	NOUN	NOUN
d-389-11	space	NOUN	NOUN

d-390-1	you	DET	PRON
d-390-2	niggas	NOUN	NOUN
d-390-3	yellow	ADJ	ADV
d-390-4	like	ADP	ADP
d-390-5	sesame	NOUN	NOUN
d-390-6	street	NOUN	NOUN
d-390-7	bert's	NOUN	NOUN
d-390-8	face	NOUN	NOUN

d-391-1	worst	ADJ	ADJ
d-391-2	case	NOUN	NOUN
d-391-3	scenario	NOUN	NOUN
d-391-4	,	.	.
d-391-5	burial	ADJ	NOUN

d-392-1	two	NUM	NUM
d-392-2	tone	NOUN	NOUN
d-392-3	carara	NOUN	NOUN
d-392-4	like	ADP	ADP
d-392-5	mascara	NOUN	NOUN
d-392-6	,	.	.
d-392-7	uh	X	PRT

d-393-1	the	DET	DET
d-393-2	g4	NOUN	NOUN
d-393-3	take	VERB	VERB
d-393-4	your	DET	DET
d-393-5	boy	NOUN	NOUN
d-393-6	where	ADV	ADV
d-393-7	ever	ADV	ADV

d-394-1	like	ADP	ADP
d-394-2	father	NOUN	NOUN
d-394-3	,	.	.
d-394-4	like	ADP	ADP
d-394-5	son	NOUN	VERB
d-394-6	the	DET	DET
d-394-7	era	NOUN	NOUN
d-394-8	,	.	.
d-394-9	nigga	NOUN	NOUN

d-395-1	dj	NOUN	NOUN
d-395-2	,	.	.
d-395-3	please	ADV	VERB
d-395-4	pick	VERB	VERB
d-395-5	up	PRT	PRT
d-395-6	your	DET	DET
d-395-7	phone	NOUN	NOUN

d-396-1	i'm	PRON	PRT
d-396-2	on	ADP	ADP
d-396-3	the	DET	DET
d-396-4	request	NOUN	NOUN
d-396-5	line	NOUN	NOUN

d-397-1	this	PRON	PRON
d-397-2	is	VERB	VERB
d-397-3	a	DET	DET
d-397-4	missy	NOUN	NOUN
d-397-5	elliott	NOUN	NOUN
d-397-6	one-time	ADJ	NOUN
d-397-7	exclusive	NOUN	ADJ
d-397-8	,	.	.
d-397-9	come	VERB	VERB
d-397-10	on	PRT	ADP

d-398-1	is	VERB	VERB
d-398-2	it	PRON	PRON
d-398-3	worth	ADP	VERB
d-398-4	it	PRON	PRON
d-398-5	,	.	.
d-398-6	let	VERB	VERB
d-398-7	me	PRON	PRON
d-398-8	work	NOUN	VERB
d-398-9	it	PRON	PRON

d-399-1	i	PRON	PRON
d-399-2	put	VERB	VERB
d-399-3	my	DET	DET
d-399-4	thing	NOUN	NOUN
d-399-5	down	ADP	ADV
d-399-6	,	.	.
d-399-7	flip	VERB	VERB
d-399-8	it	PRON	PRON
d-399-9	and	CONJ	CONJ
d-399-10	reverse	VERB	VERB
d-399-11	it	PRON	PRON

d-400-1	put	VERB	VERB
d-400-2	my	DET	DET
d-400-3	thing	NOUN	NOUN
d-400-4	down	ADP	ADV
d-400-5	,	.	.
d-400-6	flip	VERB	VERB
d-400-7	it	PRON	PRON
d-400-8	and	CONJ	CONJ
d-400-9	reverse	VERB	VERB
d-400-10	it	PRON	PRON

d-401-1	if	CONJ	ADP
d-401-2	you	PRON	PRON
d-401-3	got	VERB	VERB
d-401-4	a	DET	DET
d-401-5	big	ADJ	ADJ
d-401-6	dick	NOUN	NOUN
d-401-7	,	.	.
d-401-8	let	VERB	VERB
d-401-9	me	PRON	PRON
d-401-10	search	VERB	VERB
d-401-11	you	PRON	PRON

d-402-1	and	CONJ	CONJ
d-402-2	find	VERB	VERB
d-402-3	out	PRT	PRT
d-402-4	how	ADV	ADV
d-402-5	hard	ADJ	ADJ
d-402-6	i	PRON	PRON
d-402-7	gotta	VERB	VERB
d-402-8	work	NOUN	VERB
d-402-9	you	PRON	PRON

d-403-1	put	VERB	VERB
d-403-2	my	DET	DET
d-403-3	thing	NOUN	NOUN
d-403-4	down	ADP	ADV
d-403-5	,	.	.
d-403-6	flip	VERB	VERB
d-403-7	it	PRON	PRON
d-403-8	and	CONJ	CONJ
d-403-9	reverse	VERB	VERB
d-403-10	it	PRON	PRON

d-404-1	i'd	PRON	PRT
d-404-2	like	VERB	VERB
d-404-3	to	ADP	ADP
d-404-4	get	VERB	VERB
d-404-5	to	ADP	ADP
d-404-6	know	VERB	VERB
d-404-7	ya	PRON	PRT
d-404-8	so	CONJ	ADP
d-404-9	i	PRON	PRON
d-404-10	could	VERB	VERB
d-404-11	show	VERB	VERB
d-404-12	ya	PRON	PRON

d-405-1	put	VERB	VERB
d-405-2	the	DET	DET
d-405-3	pussy	NOUN	NOUN
d-405-4	on	ADP	ADP
d-405-5	ya	PRON	PRON
d-405-6	like	ADP	ADP
d-405-7	i	PRON	PRON
d-405-8	told	VERB	VERB
d-405-9	ya	PRON	PRT

d-406-1	give	VERB	VERB
d-406-2	me	PRON	PRON
d-406-3	all	ADJ	PRT
d-406-4	your	DET	DET
d-406-5	numbers	NOUN	NOUN
d-406-6	so	CONJ	ADP
d-406-7	i	PRON	PRON
d-406-8	can	VERB	VERB
d-406-9	phone	VERB	VERB
d-406-10	ya	PRON	PRON

d-407-1	your	DET	DET
d-407-2	girl	NOUN	NOUN
d-407-3	acting	VERB	VERB
d-407-4	stank	ADJ	NOUN
d-407-5	,	.	.
d-407-6	then	ADV	ADV
d-407-7	call	VERB	VERB
d-407-8	me	PRON	PRON
d-407-9	ova	ADP	PRT

d-408-1	not	ADV	ADV
d-408-2	on	ADP	ADP
d-408-3	the	DET	DET
d-408-4	bed	NOUN	NOUN
d-408-5	,	.	.
d-408-6	lay	VERB	VERB
d-408-7	me	PRON	PRON
d-408-8	on	PRT	ADP
d-408-9	your	DET	DET
d-408-10	sofa	NOUN	NOUN

d-409-1	call	VERB	VERB
d-409-2	before	ADP	ADP
d-409-3	you	PRON	PRON
d-409-4	come	VERB	VERB
d-409-5	,	.	.
d-409-6	i	PRON	PRON
d-409-7	need	VERB	VERB
d-409-8	to	ADP	ADP
d-409-9	shave	VERB	VERB
d-409-10	my	DET	DET
d-409-11	chocha	NOUN	NOUN

d-410-1	you	PRON	PRON
d-410-2	do	VERB	VERB
d-410-3	or	CONJ	CONJ
d-410-4	you	PRON	PRON
d-410-5	don't	VERB	VERB
d-410-6	or	CONJ	CONJ
d-410-7	you	PRON	PRON
d-410-8	will	VERB	VERB
d-410-9	or	CONJ	CONJ
d-410-10	won't	VERB	VERB
d-410-11	you	PRON	PRON

d-411-1	go	VERB	VERB
d-411-2	downtown	NOUN	ADJ
d-411-3	and	CONJ	CONJ
d-411-4	eat	VERB	VERB
d-411-5	it	PRON	PRON
d-411-6	like	ADP	ADP
d-411-7	a	DET	DET
d-411-8	vulture	NOUN	NOUN

d-412-1	see	VERB	VERB
d-412-2	my	DET	DET
d-412-3	hips	NOUN	NOUN
d-412-4	and	CONJ	CONJ
d-412-5	my	DET	DET
d-412-6	tips	NOUN	NOUN
d-412-7	,	.	.
d-412-8	don't	VERB	VERB
d-412-9	ya	PRON	PRON

d-413-1	see	VERB	VERB
d-413-2	my	DET	DET
d-413-3	ass	NOUN	NOUN
d-413-4	and	CONJ	CONJ
d-413-5	my	DET	DET
d-413-6	lips	NOUN	NOUN
d-413-7	,	.	.
d-413-8	don't	VERB	VERB
d-413-9	ya	PRON	PRON

d-414-1	lost	VERB	VERB
d-414-2	a	DET	DET
d-414-3	few	ADJ	ADJ
d-414-4	pounds	NOUN	NOUN
d-414-5	and	CONJ	CONJ
d-414-6	my	DET	DET
d-414-7	waist	NOUN	NOUN
d-414-8	for	ADP	ADP
d-414-9	ya	PRON	PRON

d-415-1	this	PRON	PRON
d-415-2	the	DET	DET
d-415-3	kinda	NOUN	ADV
d-415-4	beat	NOUN	VERB
d-415-5	that	PRON	PRON
d-415-6	go	VERB	VERB
d-415-7	ra-ta-ta	X	ADV

d-416-1	ra-ta-ta-ta-ta-ta-ta-ta-ta-ta	X	X

d-417-1	sex	VERB	NOUN
d-417-2	me	PRON	PRON
d-417-3	so	ADV	ADV
d-417-4	good	ADV	ADJ
d-417-5	i	PRON	PRON
d-417-6	say	VERB	VERB
d-417-7	blah-blah-blah	X	PRT

d-418-1	work	VERB	VERB
d-418-2	it	PRON	PRON
d-418-3	,	.	.
d-418-4	i	PRON	PRON
d-418-5	need	VERB	VERB
d-418-6	a	DET	DET
d-418-7	glass	NOUN	NOUN
d-418-8	of	ADP	ADP
d-418-9	water	NOUN	NOUN

d-419-1	boy	NOUN	NOUN
d-419-2	oh	X	PRT
d-419-3	boy	NOUN	NOUN
d-419-4	,	.	.
d-419-5	it's	PRON	PRT
d-419-6	good	ADJ	ADJ
d-419-7	to	ADP	ADP
d-419-8	know	VERB	VERB
d-419-9	ya	PRON	PRON

d-420-1	if	CONJ	ADP
d-420-2	you	PRON	PRON
d-420-3	a	DET	DET
d-420-4	fly	ADJ	ADJ
d-420-5	gal	NOUN	NOUN
d-420-6	get	VERB	VERB
d-420-7	your	DET	DET
d-420-8	nails	NOUN	NOUN
d-420-9	done	VERB	VERB

d-421-1	get	VERB	VERB
d-421-2	a	DET	DET
d-421-3	pedicure	NOUN	NOUN
d-421-4	,	.	.
d-421-5	get	VERB	VERB
d-421-6	your	DET	DET
d-421-7	hair	NOUN	NOUN
d-421-8	did	VERB	VERB

d-422-1	boy	NOUN	NOUN
d-422-2	,	.	.
d-422-3	lift	VERB	VERB
d-422-4	it	PRON	PRON
d-422-5	up	PRT	PRT
d-422-6	,	.	.
d-422-7	let's	PRON	PRT
d-422-8	make	VERB	VERB
d-422-9	a	DET	DET
d-422-10	toast-a	NOUN	NOUN

d-423-1	let's	PRON	PRT
d-423-2	get	VERB	VERB
d-423-3	drunk	ADJ	ADJ
d-423-4	,	.	.
d-423-5	that's	PRON	PRT
d-423-6	gonna	VERB	VERB
d-423-7	bring	VERB	VERB
d-423-8	us	PRON	PRON
d-423-9	closer	ADJ	ADV

d-424-1	don't	VERB	VERB
d-424-2	i	PRON	PRON
d-424-3	look	VERB	VERB
d-424-4	like	ADP	ADP
d-424-5	a	DET	DET
d-424-6	halle	NOUN	NOUN
d-424-7	berry	NOUN	NOUN
d-424-8	poster	NOUN	NOUN

d-425-1	see	VERB	VERB
d-425-2	the	DET	DET
d-425-3	belvedere	NOUN	NOUN
d-425-4	playing	VERB	VERB
d-425-5	tricks	NOUN	NOUN
d-425-6	on	ADP	ADP
d-425-7	you	PRON	PRON

d-426-1	girlfriend	NOUN	NOUN
d-426-2	wanna	VERB	VERB
d-426-3	be	VERB	VERB
d-426-4	like	ADP	ADP
d-426-5	me	PRON	PRON
d-426-6	,	.	.
d-426-7	never	ADV	ADV

d-427-1	you	PRON	PRON
d-427-2	won't	VERB	VERB
d-427-3	find	VERB	VERB
d-427-4	a	DET	DET
d-427-5	bitch	NOUN	NOUN
d-427-6	that's	PRON	PRT
d-427-7	even	ADV	ADV
d-427-8	better	ADJ	ADJ

d-428-1	i	PRON	PRON
d-428-2	make	VERB	VERB
d-428-3	you	PRON	PRON
d-428-4	hot	ADJ	ADJ
d-428-5	as	ADP	ADP
d-428-6	las	NOUN	NOUN
d-428-7	vegas	NOUN	NOUN
d-428-8	weather	NOUN	NOUN

d-429-1	listen	VERB	VERB
d-429-2	up	PRT	PRT
d-429-3	close	ADV	ADJ
d-429-4	while	CONJ	ADP
d-429-5	i	PRON	PRON
d-429-6	take	VERB	VERB
d-429-7	it	PRON	PRT
d-429-8	backwards	ADV	PRT

d-430-1	i'm	PRON	PRT
d-430-2	not	ADV	ADV
d-430-3	a	DET	DET
d-430-4	prostitute	NOUN	NOUN
d-430-5	,	.	.
d-430-6	but	CONJ	CONJ
d-430-7	i	PRON	PRON
d-430-8	could	VERB	VERB
d-430-9	give	VERB	VERB
d-430-10	you	PRON	PRON
d-430-11	what	PRON	PRON
d-430-12	you	PRON	PRON
d-430-13	want	VERB	VERB

d-431-1	i	PRON	PRON
d-431-2	love	VERB	VERB
d-431-3	your	DET	DET
d-431-4	braids	NOUN	NOUN
d-431-5	and	CONJ	CONJ
d-431-6	your	DET	DET
d-431-7	mouth	NOUN	NOUN
d-431-8	full	ADJ	ADJ
d-431-9	of	ADP	ADP
d-431-10	floss	NOUN	NOUN

d-432-1	love	VERB	VERB
d-432-2	the	DET	DET
d-432-3	way	NOUN	NOUN
d-432-4	my	DET	DET
d-432-5	ass	NOUN	NOUN
d-432-6	go	VERB	VERB
d-432-7	bum-bum-bum-bum	X	ADV

d-433-1	keep	VERB	VERB
d-433-2	your	DET	DET
d-433-3	eyes	NOUN	NOUN
d-433-4	on	ADP	ADP
d-433-5	my	DET	DET
d-433-6	bum-bum-bum-bum-bum	X	NOUN

d-434-1	you	PRON	PRON
d-434-2	think	VERB	VERB
d-434-3	you	PRON	PRON
d-434-4	can	VERB	VERB
d-434-5	handle	VERB	VERB
d-434-6	this	DET	DET
d-434-7	badonkadonk-donk	X	NOUN

d-435-1	take	VERB	VERB
d-435-2	my	DET	DET
d-435-3	thong	NOUN	NOUN
d-435-4	off	PRT	ADV
d-435-5	and	CONJ	CONJ
d-435-6	my	DET	DET
d-435-7	ass	NOUN	NOUN
d-435-8	go	VERB	VERB
d-435-9	boom	X	VERB

d-436-1	cut	VERB	VERB
d-436-2	the	DET	DET
d-436-3	lights	NOUN	NOUN
d-436-4	on	PRT	ADP
d-436-5	so	CONJ	ADP
d-436-6	you	PRON	PRON
d-436-7	see	VERB	VERB
d-436-8	what	PRON	PRON
d-436-9	i	PRON	PRON
d-436-10	could	VERB	VERB
d-436-11	do	VERB	VERB

d-437-1	boys	NOUN	NOUN
d-437-2	,	.	.
d-437-3	boys	NOUN	NOUN
d-437-4	,	.	.
d-437-5	all	DET	DET
d-437-6	type	NOUN	NOUN
d-437-7	of	ADP	ADP
d-437-8	boys	NOUN	NOUN

d-438-1	black	ADJ	ADJ
d-438-2	,	.	.
d-438-3	white	ADJ	ADJ
d-438-4	,	.	.
d-438-5	puerto	ADJ	NOUN
d-438-6	rican	ADJ	NOUN
d-438-7	,	.	.
d-438-8	chinese	ADJ	ADJ
d-438-9	boys	NOUN	NOUN

d-439-1	why-thai	ADJ	NOUN
d-439-2	,	.	.
d-439-3	-thai-o-toy-o-thai-thai	ADJ	X

d-440-1	rock-thai	ADJ	NOUN
d-440-2	,	.	.
d-440-3	-thai-o-toy-o-thai-thai	ADJ	X

d-441-1	girls	NOUN	NOUN
d-441-2	,	.	.
d-441-3	girls	NOUN	NOUN
d-441-4	,	.	.
d-441-5	get	VERB	VERB
d-441-6	that	DET	DET
d-441-7	cash	NOUN	NOUN

d-442-1	if	CONJ	ADP
d-442-2	it's	PRON	PRT
d-442-3	!digits	NUM	NUM
d-442-4	to	ADP	ADP
d-442-5	!digits	NUM	NUM
d-442-6	or	CONJ	CONJ
d-442-7	shaking	VERB	VERB
d-442-8	your	DET	DET
d-442-9	ass	NOUN	NOUN

d-443-1	ain't	VERB	VERB
d-443-2	no	DET	DET
d-443-3	shame	NOUN	NOUN
d-443-4	,	.	.
d-443-5	ladies	NOUN	NOUN
d-443-6	do	VERB	VERB
d-443-7	your	DET	DET
d-443-8	thing	NOUN	NOUN

d-444-1	just	ADV	ADV
d-444-2	make	VERB	VERB
d-444-3	sure	ADJ	ADJ
d-444-4	you	PRON	PRON
d-444-5	ahead	ADV	ADV
d-444-6	of	ADP	ADP
d-444-7	the	DET	DET
d-444-8	game	NOUN	NOUN

d-445-1	just	ADV	ADV
d-445-2	cause	CONJ	ADP
d-445-3	i	PRON	PRON
d-445-4	got	VERB	VERB
d-445-5	a	DET	DET
d-445-6	lot	NOUN	NOUN
d-445-7	of	ADP	ADP
d-445-8	fame	NOUN	NOUN
d-445-9	super	ADJ	ADV

d-446-1	prince	NOUN	NOUN
d-446-2	couldn't	VERB	NOUN
d-446-3	get	VERB	VERB
d-446-4	me	PRON	PRON
d-446-5	change	VERB	VERB
d-446-6	my	DET	DET
d-446-7	name	NOUN	NOUN
d-446-8	papa	NOUN	NOUN

d-447-1	kunta	NOUN	NOUN
d-447-2	kinte	NOUN	NOUN
d-447-3	a	DET	DET
d-447-4	slave	NOUN	NOUN
d-447-5	again	ADV	ADV
d-447-6	,	.	.
d-447-7	no	DET	DET
d-447-8	sir	NOUN	NOUN

d-448-1	picture	VERB	NOUN
d-448-2	black	ADJ	ADJ
d-448-3	sam	NOUN	NOUN
d-448-4	,	.	.
d-448-5	oh	X	PRT
d-448-6	yes	ADV	PRT
d-448-7	a	X	DET
d-448-8	massa	NOUN	NOUN

d-449-1	picture	VERB	NOUN
d-449-2	lil'	NOUN	ADJ
d-449-3	kim	NOUN	NOUN
d-449-4	dating	VERB	VERB
d-449-5	a	DET	DET
d-449-6	pastor	NOUN	NOUN

d-450-1	minute	NOUN	ADJ
d-450-2	man	NOUN	NOUN
d-450-3	and	CONJ	CONJ
d-450-4	big	NOUN	ADJ
d-450-5	red	NOUN	VERB
d-450-6	could	VERB	VERB
d-450-7	out	PRT	PRT
d-450-8	last	PRT	ADJ
d-450-9	ya	PRON	PRON

d-451-1	who	PRON	PRON
d-451-2	is	VERB	VERB
d-451-3	the	DET	DET
d-451-4	best	ADJ	ADJ
d-451-5	,	.	.
d-451-6	i	PRON	PRON
d-451-7	don't	VERB	VERB
d-451-8	have	VERB	VERB
d-451-9	to	ADP	ADP
d-451-10	ask	VERB	VERB
d-451-11	ya	PRON	PRON

d-452-1	when	ADV	ADV
d-452-2	i	PRON	PRON
d-452-3	come	VERB	VERB
d-452-4	out	PRT	PRT
d-452-5	,	.	.
d-452-6	you	PRON	PRON
d-452-7	won't	VERB	VERB
d-452-8	even	ADV	ADV
d-452-9	matter	VERB	VERB

d-453-1	why	ADV	ADV
d-453-2	you	PRON	PRON
d-453-3	act	VERB	VERB
d-453-4	dumb	ADJ	ADJ
d-453-5	like	ADP	ADP
d-453-6	,	.	.
d-453-7	uh	X	PRT
d-453-8	,	.	.
d-453-9	duh	X	PRT

d-454-1	so	ADV	ADP
d-454-2	you	PRON	PRON
d-454-3	act	VERB	VERB
d-454-4	dumb	ADJ	ADJ
d-454-5	like	ADP	ADP
d-454-6	,	.	.
d-454-7	uh	X	PRT
d-454-8	,	.	.
d-454-9	duh	X	PRT

d-455-1	as	ADP	ADP
d-455-2	the	DET	DET
d-455-3	drummer	NOUN	NOUN
d-455-4	boy	NOUN	NOUN
d-455-5	go	VERB	VERB
d-455-6	ba-rom-pop-pom-pom	X	ADV

d-456-1	give	VERB	VERB
d-456-2	you	PRON	PRON
d-456-3	some-some-some	DET	VERB
d-456-4	of	ADP	ADP
d-456-5	this	DET	DET
d-456-6	cinnabun	NOUN	NOUN

d-457-1	to	ADP	ADP
d-457-2	my	DET	DET
d-457-3	fellas	NOUN	NOUN
d-457-4	,	.	.
d-457-5	i	PRON	PRON
d-457-6	like	VERB	VERB
d-457-7	the	DET	DET
d-457-8	way	NOUN	NOUN
d-457-9	you	PRON	PRON
d-457-10	work	VERB	VERB
d-457-11	that	PRON	PRON

d-458-1	to	ADP	ADP
d-458-2	my	DET	DET
d-458-3	ladies	NOUN	NOUN
d-458-4	,	.	.
d-458-5	you	PRON	PRON
d-458-6	sure	ADJ	ADV
d-458-7	know	VERB	VERB
d-458-8	how	ADV	ADV
d-458-9	to	ADP	ADP
d-458-10	work	NOUN	VERB
d-458-11	that	PRON	PRON

d-459-1	hey	X	PRT
d-459-2	you	DET	PRON
d-459-3	nigga	NOUN	NOUN

d-460-1	tell	VERB	VERB
d-460-2	me	PRON	PRON
d-460-3	what	PRON	PRON
d-460-4	the	DET	DET
d-460-5	issue	NOUN	NOUN

d-461-1	all	ADV	DET
d-461-2	up	ADP	NOUN
d-461-3	in	ADP	ADP
d-461-4	the	DET	DET
d-461-5	booty	NOUN	NOUN
d-461-6	like	ADP	ADP
d-461-7	tissue	NOUN	NOUN

d-462-1	could	VERB	VERB
d-462-2	it	PRON	PRON
d-462-3	be	VERB	VERB
d-462-4	how	ADV	ADV
d-462-5	missy	NOUN	ADJ
d-462-6	so	ADV	ADV
d-462-7	vicious	ADJ	ADJ

d-463-1	make	VERB	VERB
d-463-2	you	PRON	PRON
d-463-3	so	ADV	ADV
d-463-4	suspicious	ADJ	ADJ

d-464-1	i	PRON	PRON
d-464-2	been	VERB	VERB
d-464-3	known	VERB	VERB
d-464-4	to	ADP	ADP
d-464-5	beat	VERB	VERB
d-464-6	them	DET	DET
d-464-7	bitches	NOUN	NOUN
d-464-8	with	ADP	ADP
d-464-9	those	DET	DET
d-464-10	switches	NOUN	NOUN

d-465-1	if	CONJ	ADP
d-465-2	you	PRON	PRON
d-465-3	wanna	VERB	VERB
d-465-4	roll	VERB	VERB
d-465-5	with	ADP	ADP
d-465-6	those	DET	DET
d-465-7	sissies	NOUN	NOUN

d-466-1	you	PRON	PRON
d-466-2	can't	VERB	VERB
d-466-3	roll	VERB	VERB
d-466-4	with	ADP	ADP
d-466-5	missy	NOUN	NOUN
d-466-6	i'ma	PRON	PRT
d-466-7	kiss	VERB	VERB
d-466-8	you	PRON	PRON
d-466-9	on	ADP	ADP
d-466-10	your	DET	DET
d-466-11	cookie	NOUN	NOUN

d-467-1	show	VERB	NOUN
d-467-2	these	DET	DET
d-467-3	pussies	NOUN	NOUN
d-467-4	i'm	PRON	PRT
d-467-5	the	DET	DET
d-467-6	rookie	NOUN	NOUN

d-468-1	sleep	VERB	NOUN
d-468-2	while	CONJ	ADP
d-468-3	your	DET	DET
d-468-4	homeboy	NOUN	NOUN
d-468-5	book	VERB	NOUN
d-468-6	me	PRON	PRON
d-468-7	(	.	.
d-468-8	fikky	X	NOUN
d-468-9	fikky	X	NOUN
d-468-10	fikky	X	NOUN
d-468-11	)	.	.

d-469-1	is	VERB	VERB
d-469-2	you	PRON	PRON
d-469-3	mad	ADJ	ADJ
d-469-4	cause	CONJ	ADP
d-469-5	i'm	PRON	PRT
d-469-6	took	VERB	ADV
d-469-7	and	CONJ	CONJ
d-469-8	got	VERB	VERB
d-469-9	you	PRON	PRON
d-469-10	shooken	ADJ	VERB

d-470-1	you	PRON	PRON
d-470-2	think	VERB	VERB
d-470-3	you	PRON	PRON
d-470-4	slick	ADJ	VERB

d-471-1	tried	VERB	VERB
d-471-2	to	ADP	ADP
d-471-3	play	VERB	VERB
d-471-4	a	DET	DET
d-471-5	dirty	ADJ	ADJ
d-471-6	trick	NOUN	NOUN
d-471-7	on	ADP	ADP
d-471-8	this	DET	DET
d-471-9	heart	NOUN	NOUN
d-471-10	of	ADP	ADP
d-471-11	mine	PRON	PRON

d-472-1	you	PRON	PRON
d-472-2	thought	VERB	VERB
d-472-3	that	CONJ	ADP
d-472-4	i	PRON	PRON
d-472-5	was	VERB	VERB
d-472-6	blind	ADJ	ADJ

d-473-1	you	PRON	PRON
d-473-2	took	VERB	VERB
d-473-3	your	DET	DET
d-473-4	pick	NOUN	NOUN

d-474-1	between	ADP	ADP
d-474-2	this	DET	DET
d-474-3	other	ADJ	ADJ
d-474-4	girl	NOUN	NOUN
d-474-5	and	CONJ	CONJ
d-474-6	me	PRON	PRON

d-475-1	she	PRON	PRON
d-475-2	was	VERB	VERB
d-475-3	a	DET	DET
d-475-4	friend	NOUN	NOUN
d-475-5	of	ADP	ADP
d-475-6	mine	PRON	PRON

d-476-1	i	PRON	PRON
d-476-2	got	VERB	VERB
d-476-3	your	DET	DET
d-476-4	ass	NOUN	NOUN
d-476-5	this	DET	DET
d-476-6	time	NOUN	NOUN

d-477-1	don't	VERB	VERB
d-477-2	you	PRON	PRON
d-477-3	come	VERB	VERB
d-477-4	here	ADV	ADV
d-477-5	talking	VERB	VERB
d-477-6	that	DET	DET
d-477-7	bull	NOUN	ADJ
d-477-8	shit	NOUN	NOUN
d-477-9	to	ADP	ADP
d-477-10	me	PRON	PRON
d-477-11	(	.	.
d-477-12	to	ADP	ADP
d-477-13	me	PRON	PRON
d-477-14	)	.	.

d-478-1	i	PRON	PRON
d-478-2	ain't	VERB	VERB
d-478-3	the	DET	DET
d-478-4	one	NOUN	NUM
d-478-5	you	PRON	PRON
d-478-6	with	ADP	ADP

d-479-1	tears	NOUN	NOUN
d-479-2	in	ADP	ADP
d-479-3	your	DET	DET
d-479-4	eyes	NOUN	NOUN
d-479-5	won't	VERB	VERB
d-479-6	shed	VERB	VERB
d-479-7	the	DET	DET
d-479-8	lies	NOUN	NOUN
d-479-9	you	PRON	PRON
d-479-10	told	VERB	VERB
d-479-11	to	ADP	ADP
d-479-12	me	PRON	PRON
d-479-13	(	.	.
d-479-14	to	ADP	ADP
d-479-15	me	PRON	PRON
d-479-16	)	.	.

d-480-1	so	ADV	ADP
d-480-2	get	VERB	VERB
d-480-3	up	PRT	PRT
d-480-4	out	PRT	ADP
d-480-5	my	DET	DET
d-480-6	face	NOUN	NOUN

d-481-1	bye	X	PRT
d-481-2	(	.	.
d-481-3	it	PRON	PRON
d-481-4	aint	VERB	VERB
d-481-5	a	DET	DET
d-481-6	,	.	.
d-481-7	it	PRON	PRON
d-481-8	aint	VERB	VERB
d-481-9	a	DET	DET
d-481-10	)	.	.

d-482-1	bye	X	PRT
d-482-2	bye	X	PRT
d-482-3	(	.	.
d-482-4	you	PRON	PRON
d-482-5	can	VERB	VERB
d-482-6	cry	VERB	VERB
d-482-7	all	DET	DET
d-482-8	you	PRON	PRON
d-482-9	want	VERB	VERB
d-482-10	to	ADP	ADP
d-482-11	)	.	X

d-483-1	bye	X	PRT
d-483-2	(	.	.
d-483-3	i	PRON	PRON
d-483-4	caught	VERB	VERB
d-483-5	you	PRON	PRON
d-483-6	)	.	.

d-484-1	you	PRON	PRON
d-484-2	coulda	VERB	VERB
d-484-3	stopped	VERB	VERB
d-484-4	by	PRT	ADP
d-484-5	,	.	.
d-484-6	you	PRON	PRON
d-484-7	got	VERB	VERB
d-484-8	me	PRON	PRON
d-484-9	hurting	VERB	VERB
d-484-10	inside	ADP	PRT

d-485-1	you	PRON	PRON
d-485-2	shoulda	VERB	VERB
d-485-3	never	ADV	ADV
d-485-4	lied	VERB	VERB

d-486-1	bye	X	PRT
d-486-2	(	.	.
d-486-3	bye	X	PRT
d-486-4	)	.	.
d-486-5	you	PRON	PRON
d-486-6	shouldn'tve	VERB	VERB
d-486-7	kept	VERB	VERB
d-486-8	that	DET	DET
d-486-9	trick	NOUN	NOUN
d-486-10	on	ADP	ADP
d-486-11	the	DET	DET
d-486-12	side	NOUN	NOUN

d-487-1	you	PRON	PRON
d-487-2	think	VERB	VERB
d-487-3	you	PRON	PRON
d-487-4	bad	ADJ	ADJ

d-488-1	lost	ADJ	VERB
d-488-2	the	DET	DET
d-488-3	only	ADJ	ADJ
d-488-4	love	NOUN	VERB
d-488-5	you	PRON	PRON
d-488-6	had	VERB	VERB

d-489-1	looking	VERB	VERB
d-489-2	for	ADP	ADP
d-489-3	someone	PRON	NOUN

d-490-1	who	PRON	PRON
d-490-2	you	PRON	PRON
d-490-3	could	VERB	VERB
d-490-4	fuck	VERB	VERB
d-490-5	for	ADP	ADP
d-490-6	fun	NOUN	NOUN
d-490-7	(	.	.
d-490-8	ficky-ficky-ficky	X	NOUN
d-490-9	)	.	.

d-491-1	why	ADV	ADV
d-491-2	stay	VERB	VERB
d-491-3	wit	ADP	ADP
d-491-4	me	PRON	PRON

d-492-1	if	CONJ	ADP
d-492-2	what	PRON	PRON
d-492-3	you	PRON	PRON
d-492-4	wanna	VERB	VERB
d-492-5	do	VERB	VERB
d-492-6	is	VERB	VERB
d-492-7	play	VERB	VERB

d-493-1	take	VERB	VERB
d-493-2	your	DET	DET
d-493-3	tricks	NOUN	NOUN
d-493-4	somewhere	ADV	ADV

d-494-1	and	CONJ	CONJ
d-494-2	keep	VERB	VERB
d-494-3	your	DET	DET
d-494-4	hoe	NOUN	NOUN
d-494-5	ass	NOUN	NOUN
d-494-6	there	ADV	ADV
d-494-7	(	.	.
d-494-8	you	PRON	PRON
d-494-9	can	VERB	VERB
d-494-10	stay	VERB	VERB
d-494-11	right	ADJ	ADV
d-494-12	there	ADV	ADV
d-494-13	)	.	.

d-495-1	shouldn't	VERB	VERB
d-495-2	have	VERB	VERB
d-495-3	kept	VERB	VERB
d-495-4	,	.	.
d-495-5	shouldn't	VERB	VERB
d-495-6	have	VERB	VERB
d-495-7	kept	VERB	VERB
d-495-8	that	DET	DET
d-495-9	trick	NOUN	NOUN
d-495-10	on	ADP	ADP
d-495-11	the	DET	DET
d-495-12	side	NOUN	NOUN

d-496-1	then	ADV	ADV
d-496-2	maybe	ADV	ADV
d-496-3	i	PRON	PRON
d-496-4	,	.	.
d-496-5	i	PRON	PRON
d-496-6	wouldn't	VERB	VERB
d-496-7	of	VERB	ADP
d-496-8	had	VERB	VERB
d-496-9	to	ADP	ADP
d-496-10	say	VERB	VERB
d-496-11	goodbye	X	PRT

d-497-1	all	ADJ	DET
d-497-2	you	PRON	PRON
d-497-3	had	VERB	VERB
d-497-4	to	ADP	ADP
d-497-5	do	VERB	VERB
d-497-6	was	VERB	VERB
d-497-7	ask	VERB	VERB
d-497-8	me	PRON	PRON

d-498-1	if	CONJ	ADP
d-498-2	i	PRON	PRON
d-498-3	was	VERB	VERB
d-498-4	nasty	ADJ	ADJ

d-499-1	lasting	VERB	VERB

d-500-1	won't	VERB	VERB
d-500-2	quit	VERB	VERB
d-500-3	until	ADP	ADP
d-500-4	the	DET	DET
d-500-5	sun	NOUN	NOUN
d-500-6	set	NOUN	VERB

d-501-1	read	VERB	VERB
d-501-2	my	DET	DET
d-501-3	lips	NOUN	NOUN

d-502-1	i'd	PRON	PRT
d-502-2	like	VERB	VERB
d-502-3	to	ADP	ADP
d-502-4	know	VERB	VERB
d-502-5	who	PRON	PRON
d-502-6	that	DET	DET
d-502-7	bitch	NOUN	NOUN
d-502-8	in	ADP	ADP
d-502-9	the	DET	DET
d-502-10	flick	NOUN	NOUN
d-502-11	is	VERB	VERB

d-503-1	who	PRON	PRON
d-503-2	you	PRON	PRON
d-503-3	cheesing	VERB	VERB
d-503-4	with	PRT	ADP
d-503-5	,	.	.
d-503-6	i'm	PRON	PRT
d-503-7	about	ADP	ADP
d-503-8	to	ADP	ADP
d-503-9	flip	VERB	VERB

d-504-1	know	VERB	VERB
d-504-2	what	PRON	PRON
d-504-3	i'd	PRON	PRT
d-504-4	do	VERB	VERB
d-504-5	if	CONJ	ADP
d-504-6	i	PRON	PRON
d-504-7	drink	VERB	VERB
d-504-8	a	DET	DET
d-504-9	brew	NOUN	NOUN

d-505-1	uhh	X	ADJ
d-505-2	miller	NOUN	NOUN
d-505-3	boo	NOUN	NOUN

d-506-1	kick	NOUN	NOUN
d-506-2	1-2	NUM	NUM
d-506-3	kung	NOUN	NOUN
d-506-4	fu	NOUN	NOUN

d-507-1	you	PRON	PRON
d-507-2	and	CONJ	CONJ
d-507-3	your	DET	DET
d-507-4	boo	NOUN	NOUN

d-508-1	the	DET	DET
d-508-2	worst	ADJ	ADJ
d-508-3	thing	NOUN	NOUN
d-508-4	you	PRON	PRON
d-508-5	could	VERB	VERB
d-508-6	ever	ADV	ADV
d-508-7	do	VERB	VERB

d-509-1	is	VERB	VERB
d-509-2	have	VERB	VERB
d-509-3	a	DET	DET
d-509-4	chick	NOUN	NOUN
d-509-5	on	ADP	ADP
d-509-6	the	DET	DET
d-509-7	side	NOUN	NOUN
d-509-8	,	.	.
d-509-9	right	ADJ	ADV
d-509-10	?	.	.

d-510-1	true	ADJ	ADJ
d-510-2	!	.	.
d-510-3	(	.	.
d-510-4	true	ADJ	ADJ
d-510-5	,	.	.
d-510-6	true	ADJ	ADJ
d-510-7	)	.	.
