d-1-1	so	ADV	ADV
d-1-2	,	.	.
d-1-3	your	DET	DET
d-1-4	boy's	DET	NOUN
d-1-5	name	NOUN	NOUN
d-1-6	is	VERB	VERB
d-1-7	what	PRON	PRON
d-1-8	?	.	.

d-2-1	snot	NOUN	ADV
d-2-2	.	.	.

d-3-1	you	PRON	PRON
d-3-2	called	VERB	VERB
d-3-3	the	DET	DET
d-3-4	guy	NOUN	NOUN
d-3-5	snot	NOUN	NOUN
d-3-6	?	.	.

d-4-1	snotboogie	NOUN	NOUN
d-4-2	,	.	.
d-4-3	yeah	ADV	PRT
d-4-4	.	.	.

d-5-1	snotboogie	NOUN	NOUN
d-5-2	?	.	.

d-6-1	-	.	.
d-6-2	he	PRON	PRON
d-6-3	like	VERB	VERB
d-6-4	the	DET	DET
d-6-5	name	NOUN	NOUN
d-6-6	?	.	.

d-7-1	-	.	.
d-7-2	what	PRON	PRON
d-7-3	?	.	.

d-8-1	snotboogie	NOUN	NOUN
d-8-2	.	.	.

d-9-1	this	DET	DET
d-9-2	kid	NOUN	NOUN
d-9-3	,	.	.
d-9-4	whose	DET	VERB
d-9-5	mama	NOUN	NOUN
d-9-6	went	VERB	VERB
d-9-7	to	ADP	ADP
d-9-8	the	DET	DET
d-9-9	trouble	NOUN	NOUN
d-9-10	of	ADP	ADP
d-9-11	christening	VERB	VERB
d-9-12	him	PRON	PRON
d-9-13	omar	NOUN	NOUN
d-9-14	isaiah	NOUN	NOUN
d-9-15	betts	NOUN	NOUN
d-9-16	?	.	.

d-10-1	you	PRON	PRON
d-10-2	know	VERB	VERB
d-10-3	,	.	.
d-10-4	he	PRON	PRON
d-10-5	forgets	VERB	VERB
d-10-6	his	DET	DET
d-10-7	jacket	NOUN	NOUN
d-10-8	,	.	.
d-10-9	so	ADV	ADV
d-10-10	,	.	.
d-10-11	his	DET	DET
d-10-12	nose	NOUN	NOUN
d-10-13	starts	VERB	VERB
d-10-14	running	VERB	VERB
d-10-15	and	CONJ	CONJ
d-10-16	some	DET	DET
d-10-17	asshole	NOUN	NOUN
d-10-18	,	.	.
d-10-19	instead	ADP	NOUN
d-10-20	of	ADP	ADP
d-10-21	giving	VERB	VERB
d-10-22	him	PRON	PRON
d-10-23	a	DET	DET
d-10-24	kleenex	NOUN	NOUN
d-10-25	,	.	.
d-10-26	he	PRON	PRON
d-10-27	calls	VERB	VERB
d-10-28	him	PRON	PRON
d-10-29	"	.	.
d-10-30	snot	NOUN	ADV
d-10-31	.	.	.
d-10-32	"	.	.

d-11-1	so	ADV	ADV
d-11-2	,	.	.
d-11-3	he's	NOUN	PRT
d-11-4	"	.	.
d-11-5	snot	NOUN	NOUN
d-11-6	"	.	.
d-11-7	forever	ADV	ADV
d-11-8	.	.	.

d-12-1	doesn't	VERB	VERB
d-12-2	seem	VERB	VERB
d-12-3	fair	ADJ	NOUN
d-12-4	.	.	.

d-13-1	life	NOUN	NOUN
d-13-2	just	ADV	ADV
d-13-3	be	VERB	VERB
d-13-4	that	DET	DET
d-13-5	way	NOUN	NOUN
d-13-6	,	.	.
d-13-7	i	PRON	PRON
d-13-8	guess	VERB	VERB
d-13-9	.	.	.

d-14-1	so	ADV	ADV
d-14-2	,	.	.
d-14-3	who	PRON	PRON
d-14-4	shot	VERB	VERB
d-14-5	snot	NOUN	ADV
d-14-6	?	.	.

d-15-1	i	PRON	PRON
d-15-2	ain't	VERB	VERB
d-15-3	going	VERB	VERB
d-15-4	to	ADP	ADP
d-15-5	no	DET	DET
d-15-6	court	NOUN	NOUN
d-15-7	.	.	.

d-16-1	motherfucker	NOUN	NOUN
d-16-2	ain't	VERB	VERB
d-16-3	have	VERB	VERB
d-16-4	to	ADP	ADP
d-16-5	put	VERB	VERB
d-16-6	no	DET	DET
d-16-7	cap	NOUN	NOUN
d-16-8	in	ADP	ADP
d-16-9	him	PRON	PRON
d-16-10	,	.	.
d-16-11	though	ADV	ADP
d-16-12	.	.	.

d-17-1	definitely	ADV	ADV
d-17-2	not	ADV	ADV
d-17-3	.	.	.

d-18-1	he	PRON	PRON
d-18-2	could've	VERB	VERB
d-18-3	just	ADV	ADV
d-18-4	whipped	VERB	VERB
d-18-5	his	DET	DET
d-18-6	ass	NOUN	NOUN
d-18-7	like	ADP	ADP
d-18-8	we	PRON	PRON
d-18-9	always	ADV	ADV
d-18-10	whip	VERB	VERB
d-18-11	his	DET	DET
d-18-12	ass	NOUN	NOUN
d-18-13	.	.	.

d-19-1	i	PRON	PRON
d-19-2	agree	VERB	VERB
d-19-3	with	ADP	ADP
d-19-4	you	PRON	PRON
d-19-5	.	.	.

d-20-1	he	PRON	PRON
d-20-2	gonna	VERB	VERB
d-20-3	kill	VERB	VERB
d-20-4	snot	PRON	ADV
d-20-5	.	.	.

d-21-1	snot	NOUN	ADV
d-21-2	been	VERB	VERB
d-21-3	doing	VERB	VERB
d-21-4	the	DET	DET
d-21-5	same	ADJ	ADJ
d-21-6	shit	NOUN	NOUN
d-21-7	since	ADP	ADP
d-21-8	i	PRON	PRON
d-21-9	don't	VERB	VERB
d-21-10	know	VERB	VERB
d-21-11	how	ADV	ADV
d-21-12	long	ADV	ADJ
d-21-13	.	.	.

d-22-1	kill	VERB	VERB
d-22-2	a	DET	DET
d-22-3	man	NOUN	NOUN
d-22-4	over	ADP	ADP
d-22-5	some	DET	DET
d-22-6	bullshit	NOUN	NOUN
d-22-7	.	.	.

d-23-1	i'm	NOUN	PRT
d-23-2	saying	VERB	VERB
d-23-3	,	.	.
d-23-4	every	DET	DET
d-23-5	friday	NOUN	NOUN
d-23-6	night	NOUN	NOUN
d-23-7	,	.	.
d-23-8	in	ADP	ADP
d-23-9	an	DET	DET
d-23-10	alley	NOUN	NOUN
d-23-11	behind	ADP	ADP
d-23-12	the	DET	DET
d-23-13	cut-rate	NOUN	NOUN
d-23-14	,	.	.
d-23-15	we	PRON	PRON
d-23-16	rollin'	VERB	VERB
d-23-17	bones	NOUN	NOUN
d-23-18	,	.	.
d-23-19	you	PRON	PRON
d-23-20	know	VERB	VERB
d-23-21	?	.	.

d-24-1	i	PRON	PRON
d-24-2	mean	VERB	VERB
d-24-3	all	DET	PRT
d-24-4	the	DET	DET
d-24-5	boys	NOUN	NOUN
d-24-6	from	ADP	ADP
d-24-7	'round	ADP	ADP
d-24-8	the	DET	DET
d-24-9	way	NOUN	NOUN
d-24-10	,	.	.
d-24-11	we	PRON	PRON
d-24-12	roll	VERB	VERB
d-24-13	'til	ADP	.
d-24-14	late	ADJ	ADJ
d-24-15	.	.	.

d-25-1	alley	NOUN	NOUN
d-25-2	crap	NOUN	NOUN
d-25-3	game	NOUN	NOUN
d-25-4	,	.	.
d-25-5	right	ADJ	ADV
d-25-6	?	.	.

d-26-1	and	CONJ	CONJ
d-26-2	like	ADV	ADP
d-26-3	every	DET	DET
d-26-4	time	NOUN	NOUN
d-26-5	,	.	.
d-26-6	snot	NOUN	ADV
d-26-7	,	.	.
d-26-8	he'd	PRON	PRT
d-26-9	fade	VERB	VERB
d-26-10	a	DET	DET
d-26-11	few	ADJ	ADJ
d-26-12	shooters	NOUN	NOUN
d-26-13	.	.	.

d-27-1	play	VERB	VERB
d-27-2	it	PRON	PRON
d-27-3	out	PRT	PRT
d-27-4	'til	ADP	ADP
d-27-5	the	DET	DET
d-27-6	pot's	NOUN	NOUN
d-27-7	deep	ADJ	ADJ
d-27-8	.	.	.

d-28-1	then	ADV	ADV
d-28-2	he'd	NOUN	PRT
d-28-3	snatch	VERB	NOUN
d-28-4	and	CONJ	CONJ
d-28-5	run	VERB	VERB
d-28-6	.	.	.

d-29-1	every	DET	DET
d-29-2	time	NOUN	NOUN
d-29-3	?	.	.

d-30-1	couldn't	VERB	VERB
d-30-2	help	VERB	VERB
d-30-3	hisself	PRON	PRON
d-30-4	.	.	.

d-31-1	let	VERB	VERB
d-31-2	me	PRON	PRON
d-31-3	understand	VERB	VERB
d-31-4	you	PRON	PRON
d-31-5	.	.	.

d-32-1	every	DET	DET
d-32-2	friday	NOUN	NOUN
d-32-3	night	NOUN	NOUN
d-32-4	,	.	.
d-32-5	you	PRON	PRON
d-32-6	and	CONJ	CONJ
d-32-7	your	DET	DET
d-32-8	boys	NOUN	NOUN
d-32-9	would	VERB	VERB
d-32-10	shoot	VERB	VERB
d-32-11	crap	NOUN	NOUN
d-32-12	,	.	.
d-32-13	right	ADJ	ADV
d-32-14	?	.	.

d-33-1	and	CONJ	CONJ
d-33-2	every	DET	DET
d-33-3	friday	NOUN	NOUN
d-33-4	night	NOUN	NOUN
d-33-5	,	.	.
d-33-6	your	DET	DET
d-33-7	pal	NOUN	NOUN
d-33-8	snotboogie	NOUN	NOUN
d-33-9	,	.	.
d-33-10	he'd	PRON	VERB
d-33-11	wait	VERB	VERB
d-33-12	'til	ADP	ADP
d-33-13	there	PRON	ADV
d-33-14	was	VERB	VERB
d-33-15	cash	NOUN	NOUN
d-33-16	on	ADP	ADP
d-33-17	the	DET	DET
d-33-18	ground	NOUN	NOUN
d-33-19	,	.	.
d-33-20	then	ADV	ADV
d-33-21	he	PRON	PRON
d-33-22	would	VERB	VERB
d-33-23	grab	VERB	VERB
d-33-24	the	DET	DET
d-33-25	money	NOUN	NOUN
d-33-26	and	CONJ	CONJ
d-33-27	run	VERB	VERB
d-33-28	away	ADV	ADV
d-33-29	?	.	.

d-34-1	you	PRON	PRON
d-34-2	let	VERB	VERB
d-34-3	him	PRON	PRON
d-34-4	do	VERB	VERB
d-34-5	that	PRON	PRON
d-34-6	?	.	.

d-35-1	we	PRON	PRON
d-35-2	catch	VERB	VERB
d-35-3	him	PRON	PRON
d-35-4	and	CONJ	CONJ
d-35-5	beat	VERB	VERB
d-35-6	his	DET	DET
d-35-7	ass	NOUN	NOUN
d-35-8	.	.	.

d-36-1	but	CONJ	CONJ
d-36-2	ain't	VERB	VERB
d-36-3	nobody	PRON	NOUN
d-36-4	ever	ADV	ADV
d-36-5	go	VERB	VERB
d-36-6	past	PRT	ADJ
d-36-7	that	PRON	ADP
d-36-8	.	.	.

d-37-1	i	PRON	PRON
d-37-2	gotta	VERB	VERB
d-37-3	ask	VERB	VERB
d-37-4	you	PRON	PRON
d-37-5	.	.	.

d-38-1	if	CONJ	ADP
d-38-2	every	ADJ	DET
d-38-3	time	NOUN	NOUN
d-38-4	snotboogie	NOUN	NOUN
d-38-5	would	VERB	VERB
d-38-6	grab	VERB	VERB
d-38-7	the	DET	DET
d-38-8	money	NOUN	NOUN
d-38-9	and	CONJ	CONJ
d-38-10	run	VERB	VERB
d-38-11	away	PRT	ADV
d-38-12	,	.	.
d-38-13	why’d	ADV	VERB
d-38-14	you	PRON	PRON
d-38-15	even	ADV	ADV
d-38-16	let	VERB	VERB
d-38-17	him	PRON	PRON
d-38-18	in	ADP	ADP
d-38-19	the	DET	DET
d-38-20	game	NOUN	NOUN
d-38-21	?	.	.

d-39-1	what	PRON	PRON
d-39-2	?	.	.

d-40-1	if	CONJ	ADP
d-40-2	snotboogie	NOUN	NOUN
d-40-3	always	ADV	ADV
d-40-4	stole	VERB	VERB
d-40-5	the	DET	DET
d-40-6	money	NOUN	NOUN
d-40-7	,	.	.
d-40-8	why'd	ADV	VERB
d-40-9	you	PRON	PRON
d-40-10	let	VERB	VERB
d-40-11	him	PRON	PRON
d-40-12	play	VERB	VERB
d-40-13	?	.	.

d-41-1	got	VERB	VERB
d-41-2	to	ADP	ADP
d-41-3	.	.	.

d-42-1	this	PRON	DET
d-42-2	america	NOUN	NOUN
d-42-3	,	.	.
d-42-4	man	NOUN	NOUN
d-42-5	.	.	.

d-43-1	guess	VERB	PRT
d-43-2	what	PRON	PRON
d-43-3	he	PRON	PRON
d-43-4	says	VERB	VERB
d-43-5	.	.	.

d-44-1	what	PRON	PRON
d-44-2	?	.	.

d-45-1	"	.	.
d-45-2	gotta	VERB	VERB
d-45-3	let	VERB	VERB
d-45-4	him	PRON	PRON
d-45-5	play	VERB	VERB
d-45-6	,	.	.
d-45-7	this	PRON	DET
d-45-8	america	NOUN	NOUN
d-45-9	.	.	.
d-45-10	"	.	.

d-46-1	no	ADJ	DET
d-46-2	fucking	ADJ	ADJ
d-46-3	way	NOUN	NOUN
d-46-4	.	.	.

d-47-1	-	.	X
d-47-2	could	VERB	VERB
d-47-3	i	PRON	PRON
d-47-4	make	VERB	VERB
d-47-5	that	PRON	DET
d-47-6	up	PRT	NOUN
d-47-7	?	.	.
d-47-8	-	.	X
d-47-9	he	PRON	PRON
d-47-10	give	VERB	VERB
d-47-11	you	PRON	PRON
d-47-12	the	DET	DET
d-47-13	shooter	NOUN	NOUN
d-47-14	?	.	.

d-48-1	three	NUM	NUM
d-48-2	newports	NOUN	NOUN
d-48-3	and	CONJ	CONJ
d-48-4	a	DET	DET
d-48-5	grape	NOUN	NOUN
d-48-6	nehi	NOUN	NOUN
d-48-7	he's	PRON	PRT
d-48-8	grand	NOUN	ADJ
d-48-9	juried	NOUN	NOUN
d-48-10	.	.	.

d-49-1	it's	PRON	PRT
d-49-2	down	ADP	ADV
d-49-3	,	.	.
d-49-4	bunk	NOUN	NOUN
d-49-5	.	.	.

d-50-1	barksdale's	NOUN	NOUN
d-50-2	in	ADP	ADP
d-50-3	part	NOUN	NOUN
d-50-4	!digits	NUM	NUM
d-50-5	,	.	.
d-50-6	right	ADJ	ADV
d-50-7	?	.	.

d-51-1	-	.	.
d-51-2	huh	X	PRT
d-51-3	?	.	.

d-52-1	-	.	.
d-52-2	project	NOUN	NOUN
d-52-3	murder	NOUN	NOUN
d-52-4	,	.	.
d-52-5	westside	NOUN	NOUN
d-52-6	.	.	.

d-53-1	uh	X	PRT
d-53-2	,	.	.
d-53-3	which	PRON	DET
d-53-4	one	NOUN	NUM
d-53-5	,	.	.
d-53-6	now	ADV	ADV
d-53-7	?	.	.

d-54-1	never	ADV	ADV
d-54-2	mind	VERB	NOUN
d-54-3	.	.	.

d-55-1	gonna	VERB	VERB
d-55-2	sit	VERB	VERB
d-55-3	in	PRT	PRT
d-55-4	on	PRT	ADP
d-55-5	it	PRON	PRON
d-55-6	for	ADP	ADP
d-55-7	a	DET	DET
d-55-8	bit	NOUN	NOUN
d-55-9	.	.	.

d-56-1	where	ADV	ADV
d-56-2	you	PRON	PRON
d-56-3	gonna	VERB	VERB
d-56-4	be	VERB	VERB
d-56-5	?	.	.

d-57-1	i'm	PRON	PRT
d-57-2	gonna	VERB	VERB
d-57-3	drop	VERB	VERB
d-57-4	this	PRON	PRON
d-57-5	off	PRT	PRT
d-57-6	on	ADP	ADP
d-57-7	nathan	NOUN	NOUN
d-57-8	,	.	.
d-57-9	then	ADV	ADV
d-57-10	i'm	PRON	PRT
d-57-11	going	VERB	VERB
d-57-12	to	ADP	ADP
d-57-13	the	DET	DET
d-57-14	office	NOUN	NOUN
d-57-15	.	.	.

d-58-1	don't	VERB	VERB
d-58-2	answer	NOUN	VERB
d-58-3	no	DET	DET
d-58-4	phones	NOUN	NOUN
d-58-5	,	.	.
d-58-6	bunk	NOUN	NOUN
d-58-7	.	.	.

d-59-1	yeah	ADV	PRT
d-59-2	,	.	.
d-59-3	yeah	ADV	PRT
d-59-4	,	.	.

d-60-1	and	CONJ	CONJ
d-60-2	is	VERB	VERB
d-60-3	that	PRON	ADP
d-60-4	your	DET	DET
d-60-5	signature	NOUN	NOUN
d-60-6	on	ADP	ADP
d-60-7	that	DET	DET
d-60-8	photo	NOUN	NOUN
d-60-9	array	NOUN	NOUN
d-60-10	card	NOUN	NOUN
d-60-11	?	.	.

d-61-1	yes	ADV	PRT
d-61-2	.	.	.

d-62-1	and	CONJ	CONJ
d-62-2	those	PRON	PRON
d-62-3	are	VERB	VERB
d-62-4	your	DET	DET
d-62-5	initials	NOUN	NOUN
d-62-6	as	ADP	ADV
d-62-7	well	ADV	ADV
d-62-8	,	.	.
d-62-9	next	ADJ	ADV
d-62-10	to	ADP	ADP
d-62-11	the	DET	DET
d-62-12	photo	NOUN	NOUN
d-62-13	you	PRON	PRON
d-62-14	identified	VERB	VERB
d-62-15	?	.	.

d-63-1	yes	ADV	PRT
d-63-2	.	.	.

d-64-1	mr.	NOUN	NOUN
d-64-2	gant	NOUN	NOUN
d-64-3	,	.	.
d-64-4	do	VERB	VERB
d-64-5	you	PRON	PRON
d-64-6	see	VERB	VERB
d-64-7	the	DET	DET
d-64-8	man	NOUN	NOUN
d-64-9	you	PRON	PRON
d-64-10	identified	VERB	VERB
d-64-11	from	ADP	ADP
d-64-12	that	DET	DET
d-64-13	photo	NOUN	NOUN
d-64-14	array	NOUN	NOUN
d-64-15	card	NOUN	NOUN
d-64-16	sitting	VERB	VERB
d-64-17	in	ADP	ADP
d-64-18	the	DET	DET
d-64-19	courtroom	NOUN	NOUN
d-64-20	today	ADV	NOUN
d-64-21	?	.	.

d-65-1	he's	PRON	PRT
d-65-2	right	ADJ	ADV
d-65-3	there	ADV	ADV
d-65-4	.	.	.

d-66-1	for	ADP	ADP
d-66-2	the	DET	DET
d-66-3	record	NOUN	NOUN
d-66-4	,	.	.
d-66-5	the	DET	DET
d-66-6	witness	NOUN	NOUN
d-66-7	has	VERB	VERB
d-66-8	identified	VERB	VERB
d-66-9	the	DET	DET
d-66-10	defendant	NOUN	NOUN
d-66-11	,	.	.
d-66-12	d'angelo	NOUN	NOUN
d-66-13	barksdale	NOUN	NOUN
d-66-14	.	.	.

d-67-1	your	DET	DET
d-67-2	witness	NOUN	NOUN
d-67-3	.	.	.

d-68-1	thank	VERB	VERB
d-68-2	you	PRON	PRON
d-68-3	.	.	.

d-69-1	just	ADV	ADV
d-69-2	one	NUM	NUM
d-69-3	question	NOUN	NOUN
d-69-4	,	.	.
d-69-5	mr.	NOUN	NOUN
d-69-6	gant	NOUN	NOUN
d-69-7	.	.	.

d-70-1	have	VERB	VERB
d-70-2	you	PRON	PRON
d-70-3	ever	ADV	ADV
d-70-4	seen	VERB	VERB
d-70-5	this	DET	DET
d-70-6	young	ADJ	ADJ
d-70-7	man	NOUN	NOUN
d-70-8	before	ADP	ADP
d-70-9	the	DET	DET
d-70-10	day	NOUN	NOUN
d-70-11	in	ADP	ADP
d-70-12	question	NOUN	NOUN
d-70-13	?	.	.

d-71-1	no	ADV	PRT
d-71-2	,	.	.
d-71-3	no	ADV	PRT
d-71-4	.	.	.

d-72-1	no	DET	DET
d-72-2	further	ADJ	NOUN
d-72-3	questions	NOUN	NOUN
d-72-4	,	.	.
d-72-5	your	NOUN	DET
d-72-6	honor	NOUN	NOUN
d-72-7	.	.	.

d-73-1	you're	PRON	PRT
d-73-2	excused	VERB	ADJ
d-73-3	,	.	.
d-73-4	mr.	NOUN	NOUN
d-73-5	gant	NOUN	NOUN
d-73-6	.	.	.

d-74-1	call	VERB	VERB
d-74-2	your	DET	DET
d-74-3	next	ADJ	ADJ
d-74-4	witness	NOUN	NOUN
d-74-5	.	.	.

d-75-1	-	.	.
d-75-2	state	NOUN	NOUN
d-75-3	calls	VERB	VERB
d-75-4	nakeisha	NOUN	NOUN
d-75-5	lyles	NOUN	NOUN
d-75-6	,	.	.
d-75-7	-	.	.
d-75-8	your	NOUN	DET
d-75-9	honor	NOUN	NOUN
d-75-10	.	.	.

d-76-1	do	VERB	VERB
d-76-2	you	PRON	PRON
d-76-3	promise	VERB	VERB
d-76-4	to	ADP	ADP
d-76-5	tell	VERB	VERB
d-76-6	the	DET	DET
d-76-7	truth	NOUN	NOUN
d-76-8	,	.	.
d-76-9	the	DET	DET
d-76-10	whole	ADJ	ADJ
d-76-11	truth	NOUN	NOUN
d-76-12	,	.	.
d-76-13	and	CONJ	CONJ
d-76-14	nothing	PRON	NOUN
d-76-15	but	ADP	CONJ
d-76-16	the	DET	DET
d-76-17	truth	NOUN	NOUN
d-76-18	,	.	.
d-76-19	so	ADV	ADP
d-76-20	help	VERB	VERB
d-76-21	you	PRON	PRON
d-76-22	god	NOUN	NOUN
d-76-23	?	.	.

d-77-1	i	PRON	PRON
d-77-2	do	VERB	VERB
d-77-3	.	.	.

d-78-1	ma'am	NOUN	NOUN
d-78-2	,	.	.
d-78-3	can	VERB	VERB
d-78-4	you	PRON	PRON
d-78-5	state	NOUN	VERB
d-78-6	your	DET	DET
d-78-7	name	NOUN	NOUN
d-78-8	,	.	.
d-78-9	please	ADV	VERB
d-78-10	?	.	.

d-79-1	nakeisha	NOUN	NOUN
d-79-2	lyles	NOUN	NOUN
d-79-3	.	.	.

d-80-1	and	CONJ	CONJ
d-80-2	are	VERB	VERB
d-80-3	you	PRON	PRON
d-80-4	employed	VERB	VERB
d-80-5	?	.	.

d-81-1	yes	ADV	PRT
d-81-2	,	.	.
d-81-3	i	PRON	PRON
d-81-4	am	VERB	VERB
d-81-5	.	.	.

d-82-1	and	CONJ	CONJ
d-82-2	what	PRON	PRON
d-82-3	is	VERB	VERB
d-82-4	your	DET	DET
d-82-5	occupation	NOUN	NOUN
d-82-6	,	.	.
d-82-7	ms.	NOUN	NOUN
d-82-8	lyles	NOUN	NOUN
d-82-9	?	.	.

d-83-1	i'm	NOUN	PRT
d-83-2	a	DET	DET
d-83-3	security	NOUN	NOUN
d-83-4	guard	NOUN	NOUN
d-83-5	.	.	.

d-84-1	and	CONJ	CONJ
d-84-2	were	VERB	VERB
d-84-3	you	PRON	PRON
d-84-4	employed	VERB	VERB
d-84-5	as	ADP	ADP
d-84-6	a	DET	DET
d-84-7	security	NOUN	NOUN
d-84-8	guard	NOUN	NOUN
d-84-9	on	ADP	ADP
d-84-10	may	NOUN	NOUN
d-84-11	fourth	NOUN	NOUN
d-84-12	,	.	.
d-84-13	the	DET	DET
d-84-14	day	NOUN	NOUN
d-84-15	of	ADP	ADP
d-84-16	the	DET	DET
d-84-17	shooting	NOUN	NOUN
d-84-18	?	.	.

d-85-1	uh-huh	ADV	PRT
d-85-2	.	.	.

d-86-1	and	CONJ	CONJ
d-86-2	what	PRON	PRON
d-86-3	were	VERB	VERB
d-86-4	your	DET	DET
d-86-5	duties	NOUN	NOUN
d-86-6	on	ADP	ADP
d-86-7	that	DET	DET
d-86-8	date	NOUN	NOUN
d-86-9	?	.	.

d-87-1	i	PRON	PRON
d-87-2	was	VERB	VERB
d-87-3	in	ADP	ADP
d-87-4	the	DET	DET
d-87-5	booth	NOUN	NOUN
d-87-6	of	ADP	ADP
d-87-7	2-2-1	NUM	NUM
d-87-8	.	.	.

d-88-1	and	CONJ	CONJ
d-88-2	is	VERB	VERB
d-88-3	that	PRON	ADP
d-88-4	the	DET	DET
d-88-5	guard	NOUN	ADJ
d-88-6	booth	NOUN	NOUN
d-88-7	in	ADP	ADP
d-88-8	the	DET	DET
d-88-9	lobby	NOUN	NOUN
d-88-10	of	ADP	ADP
d-88-11	the	DET	DET
d-88-12	fremont	NOUN	NOUN
d-88-13	avenue	NOUN	NOUN
d-88-14	high-rise	NOUN	NOUN
d-88-15	?	.	.

d-89-1	uh	X	PRT
d-89-2	,	.	.
d-89-3	yes	ADV	PRT
d-89-4	.	.	.

d-90-1	and	CONJ	CONJ
d-90-2	you're	PRON	PRT
d-90-3	behind	ADP	ADP
d-90-4	bullet-proof	NOUN	NOUN
d-90-5	glass	NOUN	NOUN
d-90-6	,	.	.
d-90-7	with	ADP	ADP
d-90-8	a	DET	DET
d-90-9	clear	ADJ	NOUN
d-90-10	view	NOUN	NOUN
d-90-11	of	ADP	ADP
d-90-12	the	DET	DET
d-90-13	lobby	NOUN	NOUN
d-90-14	?	.	.

d-91-1	uh	X	PRT
d-91-2	,	.	.
d-91-3	yeah	ADV	PRT
d-91-4	.	.	.

d-92-1	good	ADJ	ADJ
d-92-2	.	.	.

d-93-1	now	ADV	ADV
d-93-2	,	.	.
d-93-3	ms.	NOUN	NOUN
d-93-4	lyles	NOUN	NOUN
d-93-5	,	.	.
d-93-6	i	PRON	PRON
d-93-7	know	VERB	VERB
d-93-8	this	PRON	DET
d-93-9	may	VERB	NOUN
d-93-10	be	VERB	VERB
d-93-11	difficult	ADJ	VERB
d-93-12	for	ADP	ADP
d-93-13	you	PRON	PRON
d-93-14	,	.	.
d-93-15	but	CONJ	CONJ
d-93-16	can	VERB	VERB
d-93-17	you	PRON	PRON
d-93-18	tell	VERB	VERB
d-93-19	us	PRON	PRON
d-93-20	what	PRON	PRON
d-93-21	you	PRON	PRON
d-93-22	saw	VERB	VERB
d-93-23	?	.	.

d-94-1	um	X	PRT
d-94-2	,	.	.
d-94-3	a	DET	DET
d-94-4	man	NOUN	NOUN
d-94-5	,	.	.
d-94-6	you	PRON	PRON
d-94-7	know	VERB	VERB
d-94-8	,	.	.
d-94-9	he	PRON	PRON
d-94-10	was	VERB	VERB
d-94-11	waiting	VERB	VERB
d-94-12	for	ADP	ADP
d-94-13	the	DET	DET
d-94-14	elevator	NOUN	NOUN
d-94-15	and	CONJ	CONJ
d-94-16	when	ADV	ADV
d-94-17	another	DET	DET
d-94-18	man	NOUN	NOUN
d-94-19	just	ADV	ADV
d-94-20	starts	VERB	VERB
d-94-21	beating	VERB	VERB
d-94-22	on	ADP	ADP
d-94-23	him	PRON	PRON
d-94-24	,	.	.
d-94-25	and	CONJ	CONJ
d-94-26	like	ADV	ADV
d-94-27	,	.	.
d-94-28	the	DET	DET
d-94-29	one	DET	NUM
d-94-30	man	NOUN	NOUN
d-94-31	,	.	.
d-94-32	he	PRON	PRON
d-94-33	got	VERB	VERB
d-94-34	knocked	VERB	VERB
d-94-35	down	PRT	PRT
d-94-36	--	.	.

d-95-1	the	DET	DET
d-95-2	victim	NOUN	NOUN
d-95-3	got	VERB	VERB
d-95-4	knocked	VERB	VERB
d-95-5	down	PRT	PRT
d-95-6	?	.	.

d-96-1	no	ADV	PRT
d-96-2	,	.	.
d-96-3	the	DET	DET
d-96-4	man	NOUN	NOUN
d-96-5	with	ADP	ADP
d-96-6	the	DET	DET
d-96-7	gun	NOUN	NOUN
d-96-8	.	.	.

d-97-1	the	DET	DET
d-97-2	man	NOUN	NOUN
d-97-3	who	PRON	PRON
d-97-4	was	VERB	VERB
d-97-5	knocked	VERB	VERB
d-97-6	down	PRT	ADV
d-97-7	had	VERB	VERB
d-97-8	a	DET	DET
d-97-9	gun	NOUN	NOUN
d-97-10	.	.	.

d-98-1	and	CONJ	CONJ
d-98-2	do	VERB	VERB
d-98-3	you	PRON	PRON
d-98-4	see	VERB	VERB
d-98-5	that	DET	DET
d-98-6	man	NOUN	NOUN
d-98-7	in	ADP	ADP
d-98-8	the	DET	DET
d-98-9	courtroom	NOUN	NOUN
d-98-10	today	ADV	NOUN
d-98-11	?	.	.

d-99-1	nope	ADV	PRT
d-99-2	.	.	.

d-100-1	excuse	VERB	VERB
d-100-2	me	PRON	PRON
d-100-3	?	.	.

d-101-1	he	PRON	PRON
d-101-2	ain't	VERB	VERB
d-101-3	here	ADV	ADV
d-101-4	.	.	.

d-102-1	you	PRON	PRON
d-102-2	don't	VERB	VERB
d-102-3	--	.	VERB
d-102-4	you	PRON	PRON
d-102-5	testified	VERB	VERB
d-102-6	.	.	.

d-103-1	ms.	NOUN	NOUN
d-103-2	lyles	NOUN	NOUN
d-103-3	,	.	.
d-103-4	do	VERB	VERB
d-103-5	you	PRON	PRON
d-103-6	remember	VERB	VERB
d-103-7	when	ADV	ADV
d-103-8	detective	NOUN	ADJ
d-103-9	barlow	NOUN	NOUN
d-103-10	showed	VERB	VERB
d-103-11	you	PRON	PRON
d-103-12	this	DET	DET
d-103-13	photo	NOUN	NOUN
d-103-14	array	NOUN	NOUN
d-103-15	?	.	.

d-104-1	-	.	.
d-104-2	yeah	ADV	PRT
d-104-3	.	.	.

d-105-1	-	.	.
d-105-2	good	ADJ	ADJ
d-105-3	.	.	.

d-106-1	i	PRON	PRON
d-106-2	call	VERB	VERB
d-106-3	your	DET	DET
d-106-4	attention	NOUN	NOUN
d-106-5	to	ADP	ADP
d-106-6	your	DET	DET
d-106-7	initials	NOUN	NOUN
d-106-8	which	PRON	DET
d-106-9	identify	VERB	VERB
d-106-10	this	DET	DET
d-106-11	photo	NOUN	NOUN
d-106-12	as	ADP	ADP
d-106-13	the	DET	DET
d-106-14	man	NOUN	NOUN
d-106-15	who	PRON	PRON
d-106-16	shot	VERB	VERB
d-106-17	mr.	NOUN	NOUN
d-106-18	blanchard	NOUN	NOUN
d-106-19	.	.	.

d-107-1	did	VERB	VERB
d-107-2	you	PRON	PRON
d-107-3	write	VERB	VERB
d-107-4	your	DET	DET
d-107-5	initials	NOUN	NOUN
d-107-6	above	ADP	NOUN
d-107-7	that	DET	ADP
d-107-8	photograph	NOUN	NOUN
d-107-9	?	.	.

d-108-1	he	PRON	PRON
d-108-2	ain't	VERB	VERB
d-108-3	the	DET	DET
d-108-4	one	NOUN	NUM
d-108-5	that	PRON	ADP
d-108-6	did	VERB	VERB
d-108-7	the	DET	DET
d-108-8	shooting	NOUN	NOUN
d-108-9	.	.	.

d-109-1	but	CONJ	CONJ
d-109-2	you	PRON	PRON
d-109-3	identified	VERB	VERB
d-109-4	him	PRON	PRON
d-109-5	.	.	.

d-110-1	that's	PRON	PRT
d-110-2	'cause	CONJ	ADP
d-110-3	he	PRON	PRON
d-110-4	looked	VERB	VERB
d-110-5	like	ADV	ADP
d-110-6	the	DET	DET
d-110-7	boy	NOUN	NOUN
d-110-8	that	PRON	PRON
d-110-9	did	VERB	VERB
d-110-10	it	PRON	PRON
d-110-11	.	.	.

d-111-1	see	VERB	VERB
d-111-2	,	.	.
d-111-3	the	DET	DET
d-111-4	one	NOUN	NUM
d-111-5	that	PRON	PRON
d-111-6	did	VERB	VERB
d-111-7	it	PRON	PRON
d-111-8	,	.	.
d-111-9	i	PRON	PRON
d-111-10	saw	VERB	VERB
d-111-11	him	PRON	PRON
d-111-12	come	VERB	VERB
d-111-13	in	PRT	ADP
d-111-14	the	DET	DET
d-111-15	building	NOUN	NOUN
d-111-16	a	DET	DET
d-111-17	week	NOUN	NOUN
d-111-18	later	ADV	NOUN
d-111-19	.	.	.

d-112-1	you	PRON	PRON
d-112-2	saw	VERB	VERB
d-112-3	someone	NOUN	NOUN
d-112-4	else	ADV	ADV
d-112-5	you	PRON	PRON
d-112-6	thought	VERB	VERB
d-112-7	did	VERB	VERB
d-112-8	the	DET	DET
d-112-9	shooting	NOUN	NOUN
d-112-10	?	.	.

d-113-1	right	ADJ	ADV
d-113-2	,	.	.
d-113-3	a	DET	DET
d-113-4	week	NOUN	NOUN
d-113-5	later	ADV	NOUN
d-113-6	.	.	.

d-114-1	ms.	NOUN	NOUN
d-114-2	lyles	NOUN	NOUN
d-114-3	,	.	.
d-114-4	when	ADV	ADV
d-114-5	you	PRON	PRON
d-114-6	spoke	VERB	VERB
d-114-7	with	ADP	ADP
d-114-8	the	DET	DET
d-114-9	detectives	NOUN	NOUN
d-114-10	,	.	.
d-114-11	you	PRON	PRON
d-114-12	never	ADV	ADV
d-114-13	said	VERB	VERB
d-114-14	anything	PRON	NOUN
d-114-15	about	ADP	ADP
d-114-16	--	.	.

d-115-1	i	PRON	PRON
d-115-2	tried	VERB	VERB
d-115-3	.	.	.

d-116-1	i	PRON	PRON
d-116-2	called	VERB	VERB
d-116-3	detective	NOUN	ADJ
d-116-4	--	.	.
d-116-5	um	X	NOUN
d-116-6	,	.	.
d-116-7	um	X	PRT
d-116-8	,	.	.
d-116-9	yeah	ADV	PRT
d-116-10	,	.	.
d-116-11	detective	NOUN	ADJ
d-116-12	barlow	NOUN	NOUN
d-116-13	on	ADP	ADP
d-116-14	may	NOUN	NOUN
d-116-15	13th	NOUN	NUM
d-116-16	at	ADP	ADP
d-116-17	!digits	NUM	NUM
d-116-18	COL	.	.
d-116-19	!digits	NUM	NUM
d-116-20	p.m.	X	NOUN

d-117-1	but	CONJ	CONJ
d-117-2	he	PRON	PRON
d-117-3	didn't	VERB	VERB
d-117-4	call	VERB	VERB
d-117-5	me	PRON	PRON
d-117-6	back	PRT	ADV
d-117-7	.	.	.

d-118-1	nicely	ADV	ADV
d-118-2	done	VERB	VERB
d-118-3	.	.	.

d-119-1	you	PRON	PRON
d-119-2	called	VERB	VERB
d-119-3	detective	NOUN	ADJ
d-119-4	barlow	NOUN	NOUN
d-119-5	?	.	.

d-120-1	yeah	ADV	PRT
d-120-2	,	.	.
d-120-3	twice	NUM	NOUN
d-120-4	.	.	.

d-121-1	yeah	ADV	PRT
d-121-2	,	.	.
d-121-3	i	PRON	PRON
d-121-4	wrote	VERB	VERB
d-121-5	it	PRON	PRON
d-121-6	down	PRT	ADV
d-121-7	in	ADP	ADP
d-121-8	the	DET	DET
d-121-9	log	NOUN	NOUN
d-121-10	.	.	.

d-122-1	i	PRON	PRON
d-122-2	need	VERB	VERB
d-122-3	a	DET	DET
d-122-4	price	NOUN	NOUN
d-122-5	for	ADP	ADP
d-122-6	pressure-treated	ADJ	NOUN
d-122-7	.	.	.

d-123-1	that's	PRON	PRT
d-123-2	your	DET	DET
d-123-3	price	NOUN	NOUN
d-123-4	?	.	.

d-124-1	that's	PRON	PRT
d-124-2	the	DET	DET
d-124-3	price	NOUN	NOUN
d-124-4	that	PRON	ADP
d-124-5	you	PRON	PRON
d-124-6	were	VERB	VERB
d-124-7	going	VERB	VERB
d-124-8	to	ADP	ADP
d-124-9	quote	VERB	VERB
d-124-10	me	PRON	PRON
d-124-11	?	.	.

d-125-1	well	X	ADV
d-125-2	,	.	.
d-125-3	do	VERB	VERB
d-125-4	you	PRON	PRON
d-125-5	feel	VERB	VERB
d-125-6	that	PRON	PRON
d-125-7	,	.	.
d-125-8	mikey	NOUN	NOUN
d-125-9	,	.	.
d-125-10	do	VERB	VERB
d-125-11	you	PRON	PRON
d-125-12	feel	VERB	VERB
d-125-13	it	PRON	PRON
d-125-14	?	.	.

d-126-1	'cause	CONJ	.
d-126-2	i	PRON	PRON
d-126-3	swear	VERB	VERB
d-126-4	to	ADP	ADP
d-126-5	god	NOUN	NOUN
d-126-6	that	PRON	PRON
d-126-7	is	VERB	VERB
d-126-8	my	PRON	DET
d-126-9	fucking	ADJ	ADJ
d-126-10	dick	NOUN	NOUN
d-126-11	in	ADP	ADP
d-126-12	your	PRON	DET
d-126-13	ear	NOUN	NOUN
d-126-14	.	.	.

d-127-1	hang	VERB	VERB
d-127-2	on	PRT	PRT
d-127-3	,	.	.
d-127-4	you	PRON	PRON
d-127-5	fucking	ADJ	VERB
d-127-6	thief	NOUN	NOUN
d-127-7	.	.	.

d-128-1	what's	PRON	PRT
d-128-2	up	PRT	PRT
d-128-3	?	.	.

d-129-1	-	.	.
d-129-2	you	PRON	PRON
d-129-3	been	VERB	VERB
d-129-4	down	ADP	ADP
d-129-5	the	DET	DET
d-129-6	hall	NOUN	NOUN
d-129-7	lately	ADV	ADV
d-129-8	?	.	.
d-129-9	-	.	.
d-129-10	what	PRON	PRON
d-129-11	?	.	.

d-130-1	your	DET	DET
d-130-2	case	NOUN	NOUN
d-130-3	just	ADV	ADV
d-130-4	hit	VERB	VERB
d-130-5	the	DET	DET
d-130-6	wall	NOUN	NOUN
d-130-7	.	.	.

d-131-1	barksdale's	ADJ	NOUN
d-131-2	crew	NOUN	NOUN
d-131-3	,	.	.
d-131-4	they	PRON	PRON
d-131-5	turned	VERB	VERB
d-131-6	it	PRT	PRON
d-131-7	.	.	.

d-132-1	two	NUM	NUM
d-132-2	eyewitnesses	NOUN	NOUN
d-132-3	and	CONJ	CONJ
d-132-4	a	DET	DET
d-132-5	statement	NOUN	NOUN
d-132-6	.	.	.

d-133-1	no	DET	DET
d-133-2	fucking	ADJ	NOUN
d-133-3	way	NOUN	NOUN
d-133-4	,	.	.
d-133-5	pal	NOUN	NOUN
d-133-6	.	.	.

d-134-1	you	PRON	PRON
d-134-2	listen	VERB	VERB
d-134-3	to	ADP	ADP
d-134-4	me	PRON	PRON
d-134-5	,	.	.
d-134-6	you	PRON	PRON
d-134-7	little	ADJ	ADJ
d-134-8	shit	NOUN	NOUN
d-134-9	,	.	.
d-134-10	there	PRON	PRT
d-134-11	is	VERB	VERB
d-134-12	no	DET	DET
d-134-13	way	NOUN	NOUN
d-134-14	in	ADP	ADP
d-134-15	hell	NOUN	NOUN
d-134-16	i	PRON	PRON
d-134-17	am	VERB	VERB
d-134-18	paying	VERB	VERB
d-134-19	that	PRON	ADP
d-134-20	.	.	.

d-135-1	no	ADV	PRT
d-135-2	!	.	.

d-136-1	you	PRON	PRON
d-136-2	use	VERB	VERB
d-136-3	my	DET	DET
d-136-4	goddamn	ADJ	ADJ
d-136-5	car	NOUN	NOUN
d-136-6	to	ADP	ADP
d-136-7	chauffeur	VERB	VERB
d-136-8	that	DET	DET
d-136-9	dusty	ADJ	ADJ
d-136-10	bitch	NOUN	NOUN
d-136-11	around	ADP	ADP
d-136-12	.	.	.

d-137-1	-	.	.
d-137-2	yo	X	PRT
d-137-3	,	.	.
d-137-4	ease	VERB	VERB
d-137-5	up	PRT	PRT
d-137-6	.	.	.

d-138-1	-	.	.
d-138-2	you	PRON	PRON
d-138-3	don't	VERB	VERB
d-138-4	understand	VERB	VERB
d-138-5	.	.	.

d-139-1	i	PRON	PRON
d-139-2	did	VERB	VERB
d-139-3	for	ADP	ADP
d-139-4	that	DET	DET
d-139-5	man	NOUN	NOUN
d-139-6	and	CONJ	CONJ
d-139-7	he	PRON	PRON
d-139-8	do	VERB	VERB
d-139-9	this	PRON	PRON
d-139-10	.	.	.

d-140-1	well	X	ADV
d-140-2	,	.	.
d-140-3	getting	VERB	VERB
d-140-4	heated	ADJ	VERB
d-140-5	ain't	VERB	VERB
d-140-6	gonna	VERB	VERB
d-140-7	help	VERB	VERB
d-140-8	.	.	.

d-141-1	hey	X	PRT
d-141-2	,	.	.
d-141-3	greggs	NOUN	NOUN
d-141-4	,	.	.
d-141-5	what's	PRON	PRT
d-141-6	your	DET	DET
d-141-7	bird	NOUN	NOUN
d-141-8	saying	VERB	NOUN
d-141-9	?	.	.

d-142-1	it	PRON	PRON
d-142-2	ain't	VERB	VERB
d-142-3	what	PRON	PRON
d-142-4	she	PRON	PRON
d-142-5	says	VERB	VERB
d-142-6	.	.	.

d-143-1	yeah	ADV	PRT
d-143-2	?	.	.
d-143-3	what	PRON	PRON
d-143-4	do	VERB	VERB
d-143-5	you	PRON	PRON
d-143-6	say	VERB	VERB
d-143-7	?	.	.

d-144-1	i	PRON	PRON
d-144-2	say	VERB	VERB
d-144-3	we	PRON	PRON
d-144-4	wait	VERB	VERB
d-144-5	...	.	.
d-144-6	shithead	NOUN	NOUN
d-144-7	.	.	.

d-145-1	that's	PRON	PRT
d-145-2	him	PRON	PRON
d-145-3	.	.	.

d-146-1	all	ADJ	DET
d-146-2	right	ADJ	ADJ
d-146-3	,	.	.
d-146-4	easy	ADV	ADJ
d-146-5	,	.	.
d-146-6	girl	NOUN	NOUN
d-146-7	.	.	.

d-147-1	yo	X	PRT
d-147-2	,	.	.
d-147-3	herc	NOUN	PRT
d-147-4	,	.	.
d-147-5	you	PRON	PRON
d-147-6	got	VERB	VERB
d-147-7	that	PRON	PRON
d-147-8	?	.	.

d-148-1	yeah	ADV	PRT
d-148-2	,	.	.
d-148-3	we	PRON	PRON
d-148-4	see	VERB	VERB
d-148-5	.	.	.

d-149-1	-	.	.
d-149-2	you	PRON	PRON
d-149-3	got	VERB	VERB
d-149-4	the	DET	DET
d-149-5	uniforms	NOUN	NOUN
d-149-6	-	.	.
d-149-7	they're	PRON	PRT
d-149-8	on	ADP	ADP
d-149-9	hold	NOUN	NOUN
d-149-10	.	.	.

d-150-1	that's	PRON	PRT
d-150-2	ghost	NOUN	ADJ
d-150-3	.	.	.

d-151-1	all	ADJ	DET
d-151-2	right	ADJ	ADJ
d-151-3	,	.	.
d-151-4	good	ADJ	ADJ
d-151-5	,	.	.
d-151-6	tiff	NOUN	NOUN
d-151-7	.	.	.

d-152-1	now	ADV	ADV
d-152-2	tell	VERB	VERB
d-152-3	me	PRON	PRON
d-152-4	what	PRON	PRON
d-152-5	i'm	PRON	PRT
d-152-6	seeing	VERB	VERB
d-152-7	,	.	.
d-152-8	girl	NOUN	NOUN
d-152-9	.	.	.

d-153-1	-	.	.
d-153-2	he	PRON	PRON
d-153-3	gonna	VERB	VERB
d-153-4	get	VERB	VERB
d-153-5	little	ADJ	ADJ
d-153-6	mike	NOUN	NOUN
d-153-7	.	.	.

d-154-1	-	.	.
d-154-2	mm-hmm	X	NOUN
d-154-3	.	.	.

d-155-1	then	ADV	ADV
d-155-2	what	PRON	PRON
d-155-3	?	.	.

d-156-1	mike	NOUN	NOUN
d-156-2	come	VERB	VERB
d-156-3	back	PRT	ADV
d-156-4	with	ADP	ADP
d-156-5	the	DET	DET
d-156-6	money	NOUN	NOUN
d-156-7	.	.	.

d-157-1	all	ADJ	DET
d-157-2	right	ADJ	ADJ
d-157-3	,	.	.
d-157-4	wait	VERB	VERB
d-157-5	on	ADP	ADP
d-157-6	the	DET	DET
d-157-7	drop	NOUN	NOUN
d-157-8	,	.	.
d-157-9	take	VERB	VERB
d-157-10	the	DET	DET
d-157-11	car	NOUN	NOUN
d-157-12	when	ADV	ADV
d-157-13	it's	PRON	PRT
d-157-14	deep	ADJ	VERB
d-157-15	in	ADP	ADP
d-157-16	the	DET	DET
d-157-17	block	NOUN	NOUN
d-157-18	.	.	.

d-158-1	i	PRON	PRON
d-158-2	don't	VERB	VERB
d-158-3	want	VERB	VERB
d-158-4	no	DET	DET
d-158-5	foot	NOUN	NOUN
d-158-6	chase	NOUN	NOUN
d-158-7	.	.	.

d-159-1	copy	X	NOUN
d-159-2	.	.	.

d-160-1	got	VERB	VERB
d-160-2	it	PRON	PRON
d-160-3	.	.	.

d-161-1	go	VERB	VERB
d-161-2	,	.	.
d-161-3	go	VERB	NOUN
d-161-4	,	.	.
d-161-5	go	VERB	NOUN
d-161-6	!	.	.

d-162-1	the	DET	DET
d-162-2	driver's	NOUN	NOUN
d-162-3	mine	PRON	NOUN
d-162-4	!	.	.

d-163-1	i	PRON	PRON
d-163-2	got	VERB	VERB
d-163-3	the	DET	DET
d-163-4	house	NOUN	NOUN
d-163-5	on	ADP	ADP
d-163-6	the	DET	DET
d-163-7	left	NOUN	NOUN
d-163-8	!	.	.

d-164-1	get	VERB	VERB
d-164-2	on	ADP	ADP
d-164-3	the	DET	DET
d-164-4	ground	NOUN	NOUN
d-164-5	.	.	.

d-165-1	get	VERB	VERB
d-165-2	down	ADP	PRT
d-165-3	.	.	.

d-166-1	put	VERB	VERB
d-166-2	your	DET	DET
d-166-3	hands	NOUN	NOUN
d-166-4	behind	ADP	ADP
d-166-5	your	DET	DET
d-166-6	head	NOUN	NOUN
d-166-7	.	.	.

d-167-1	see	VERB	VERB
d-167-2	your	DET	DET
d-167-3	hands	NOUN	NOUN
d-167-4	,	.	.
d-167-5	get	VERB	VERB
d-167-6	your	DET	DET
d-167-7	hands	NOUN	NOUN
d-167-8	up	ADP	PRT
d-167-9	!	.	.

d-168-1	shut	VERB	VERB
d-168-2	the	DET	DET
d-168-3	engine	NOUN	NOUN
d-168-4	.	.	.

d-169-1	get	VERB	VERB
d-169-2	that	DET	DET
d-169-3	motherfucker	NOUN	NOUN
d-169-4	around	ADP	ADP
d-169-5	the	DET	DET
d-169-6	corner	NOUN	NOUN
d-169-7	!	.	.

d-170-1	hand	VERB	VERB
d-170-2	the	DET	DET
d-170-3	keys	NOUN	NOUN
d-170-4	out	PRT	ADP
d-170-5	.	.	.

d-171-1	drop	VERB	VERB
d-171-2	the	DET	DET
d-171-3	keys	NOUN	NOUN
d-171-4	out	ADP	ADP
d-171-5	of	ADP	ADP
d-171-6	the	DET	DET
d-171-7	car	NOUN	NOUN
d-171-8	!	.	.

d-172-1	drop	VERB	VERB
d-172-2	'em	PRON	.
d-172-3	now	ADV	ADV
d-172-4	,	.	.
d-172-5	drop	VERB	VERB
d-172-6	'em	PRON	.
d-172-7	!	.	.

d-173-1	get	VERB	VERB
d-173-2	out	PRT	ADP
d-173-3	of	ADP	ADP
d-173-4	the	DET	DET
d-173-5	car	NOUN	NOUN
d-173-6	.	.	.

d-174-1	get	VERB	VERB
d-174-2	down	PRT	PRT
d-174-3	right	ADJ	ADV
d-174-4	here	ADV	ADV
d-174-5	,	.	.
d-174-6	right	ADJ	ADV
d-174-7	here	ADV	ADV
d-174-8	.	.	.

d-175-1	get	VERB	VERB
d-175-2	down	PRT	PRT
d-175-3	!	.	.

d-176-1	passenger	NOUN	NOUN
d-176-2	,	.	.
d-176-3	put	VERB	VERB
d-176-4	your	DET	DET
d-176-5	hands	NOUN	NOUN
d-176-6	out	PRT	ADP
d-176-7	of	ADP	ADP
d-176-8	the	DET	DET
d-176-9	car	NOUN	NOUN
d-176-10	window	NOUN	NOUN
d-176-11	!	.	.

d-177-1	both	DET	NOUN
d-177-2	hands	NOUN	VERB
d-177-3	out	ADP	ADP
d-177-4	of	ADP	ADP
d-177-5	the	DET	DET
d-177-6	car	NOUN	NOUN
d-177-7	window	NOUN	NOUN
d-177-8	!	.	.

d-178-1	use	VERB	VERB
d-178-2	your	DET	DET
d-178-3	right	ADJ	ADJ
d-178-4	hand	NOUN	NOUN
d-178-5	,	.	.
d-178-6	open	ADJ	VERB
d-178-7	up	PRT	ADP
d-178-8	the	DET	DET
d-178-9	car	NOUN	NOUN
d-178-10	door	NOUN	NOUN
d-178-11	!	.	.

d-179-1	slowly	ADV	NOUN
d-179-2	!	.	.

d-180-1	step	VERB	VERB
d-180-2	out	PRT	ADP
d-180-3	of	ADP	ADP
d-180-4	the	DET	DET
d-180-5	car	NOUN	NOUN
d-180-6	.	.	.

d-181-1	step	VERB	VERB
d-181-2	out	PRT	ADP
d-181-3	of	ADP	ADP
d-181-4	the	DET	DET
d-181-5	car	NOUN	NOUN
d-181-6	!	.	.

d-182-1	down	ADP	PRT
d-182-2	on	ADP	ADP
d-182-3	the	DET	DET
d-182-4	ground	NOUN	NOUN
d-182-5	!	.	.

d-183-1	down	ADP	PRT
d-183-2	on	ADP	ADP
d-183-3	the	DET	DET
d-183-4	ground	NOUN	NOUN
d-183-5	!	.	.

d-184-1	that's	PRON	PRT
d-184-2	it	PRON	PRON
d-184-3	,	.	.
d-184-4	that's	PRON	PRT
d-184-5	it	PRON	PRON
d-184-6	,	.	.
d-184-7	take	VERB	VERB
d-184-8	his	DET	DET
d-184-9	ass	NOUN	NOUN
d-184-10	to	ADP	ADP
d-184-11	jail	NOUN	NOUN
d-184-12	.	.	.

d-185-1	-	.	.
d-185-2	you	PRON	PRON
d-185-3	got	VERB	VERB
d-185-4	him	PRON	PRON
d-185-5	,	.	.
d-185-6	carv	NOUN	NOUN
d-185-7	?	.	.
d-185-8	-	.	X
d-185-9	i	PRON	PRON
d-185-10	got	VERB	VERB
d-185-11	him	PRON	PRON
d-185-12	.	.	.

d-186-1	look	VERB	VERB
d-186-2	at	ADP	ADP
d-186-3	this	DET	DET
d-186-4	shit	NOUN	NOUN
d-186-5	.	.	.

d-187-1	cross	VERB	VERB
d-187-2	your	DET	DET
d-187-3	legs	NOUN	NOUN
d-187-4	!	.	.

d-188-1	look	VERB	VERB
d-188-2	at	ADP	ADP
d-188-3	this	PRON	PRON
d-188-4	.	.	.

d-189-1	-	.	.
d-189-2	you	PRON	PRON
d-189-3	see	VERB	VERB
d-189-4	what	PRON	PRON
d-189-5	he	PRON	PRON
d-189-6	did	VERB	VERB
d-189-7	?	.	.
d-189-8	-	.	X
d-189-9	do	VERB	VERB
d-189-10	you	PRON	PRON
d-189-11	see	VERB	VERB
d-189-12	what	PRON	PRON
d-189-13	he	PRON	PRON
d-189-14	did	VERB	VERB
d-189-15	?	.	.

d-190-1	why	ADV	ADV
d-190-2	he	PRON	PRON
d-190-3	throw	VERB	VERB
d-190-4	the	DET	DET
d-190-5	gun	NOUN	NOUN
d-190-6	on	ADP	ADP
d-190-7	my	DET	DET
d-190-8	car	NOUN	NOUN
d-190-9	like	ADP	ADP
d-190-10	that	PRON	PRON
d-190-11	?	.	.

d-191-1	shit	NOUN	NOUN
d-191-2	gonna	VERB	VERB
d-191-3	scratch	VERB	VERB
d-191-4	the	DET	DET
d-191-5	paint	NOUN	NOUN
d-191-6	.	.	.

d-192-1	stay	VERB	VERB
d-192-2	in	ADP	ADP
d-192-3	the	DET	DET
d-192-4	car	NOUN	NOUN
d-192-5	.	.	.

d-193-1	tell	VERB	VERB
d-193-2	him	PRON	PRON
d-193-3	to	ADP	ADP
d-193-4	leave	VERB	VERB
d-193-5	my	DET	DET
d-193-6	car	NOUN	NOUN
d-193-7	be	VERB	VERB
d-193-8	.	.	.

d-194-1	stay	VERB	VERB
d-194-2	in	ADP	ADP
d-194-3	the	DET	DET
d-194-4	fucking	ADJ	ADJ
d-194-5	car	NOUN	NOUN
d-194-6	.	.	.

d-195-1	that	DET	DET
d-195-2	shit	NOUN	NOUN
d-195-3	just	ADV	ADV
d-195-4	ain't	VERB	VERB
d-195-5	right	ADJ	ADV
d-195-6	.	.	.

d-196-1	whatcha	PRON	VERB
d-196-2	doing	VERB	VERB
d-196-3	with	ADP	ADP
d-196-4	something	NOUN	NOUN
d-196-5	like	ADP	ADP
d-196-6	that	PRON	PRON
d-196-7	,	.	.
d-196-8	huh	X	PRT
d-196-9	?	.	.

d-197-1	what	PRON	PRON
d-197-2	you	PRON	PRON
d-197-3	got	VERB	VERB
d-197-4	here	ADV	ADV
d-197-5	?	.	.

d-198-1	you	PRON	PRON
d-198-2	should've	VERB	VERB
d-198-3	seen	VERB	VERB
d-198-4	the	DET	DET
d-198-5	way	NOUN	NOUN
d-198-6	this	DET	DET
d-198-7	bitch	NOUN	NOUN
d-198-8	was	VERB	VERB
d-198-9	lookin'	VERB	ADJ
d-198-10	at	ADP	ADP
d-198-11	me	PRON	PRON
d-198-12	,	.	.
d-198-13	kima	NOUN	NOUN
d-198-14	.	.	.

d-199-1	ugly	ADJ	ADJ
d-199-2	little	ADJ	ADJ
d-199-3	fucker	NOUN	NOUN
d-199-4	almost	ADV	ADV
d-199-5	shit	NOUN	VERB
d-199-6	his	DET	DET
d-199-7	pants	NOUN	NOUN
d-199-8	he	PRON	PRON
d-199-9	was	VERB	VERB
d-199-10	so	ADV	ADV
d-199-11	scared	ADJ	ADJ
d-199-12	.	.	.

d-200-1	right	ADJ	ADV
d-200-2	?	.	.

d-201-1	two	NUM	NUM
d-201-2	guns	NOUN	NOUN
d-201-3	,	.	.
d-201-4	remember	VERB	VERB
d-201-5	?	.	.

d-202-1	two	NUM	NUM
d-202-2	?	.	.

d-203-1	it's	PRON	PRT
d-203-2	all	ADV	DET
d-203-3	good	ADJ	ADJ
d-203-4	,	.	.
d-203-5	kima	NOUN	NOUN
d-203-6	,	.	.
d-203-7	ease	VERB	VERB
d-203-8	up	PRT	PRT
d-203-9	.	.	.

d-204-1	all	PRON	DET
d-204-2	rise	VERB	NOUN
d-204-3	.	.	.

d-205-1	part	NOUN	NOUN
d-205-2	!digits	NUM	NUM
d-205-3	of	ADP	ADP
d-205-4	the	DET	DET
d-205-5	circuit	NOUN	NOUN
d-205-6	court	NOUN	NOUN
d-205-7	of	ADP	ADP
d-205-8	baltimore	NOUN	NOUN
d-205-9	city	NOUN	NOUN
d-205-10	is	VERB	VERB
d-205-11	now	ADV	ADV
d-205-12	in	ADP	ADP
d-205-13	session	NOUN	NOUN
d-205-14	.	.	.

d-206-1	be	VERB	VERB
d-206-2	seated	ADJ	ADJ
d-206-3	.	.	.

d-207-1	madame	NOUN	NOUN
d-207-2	forelady	NOUN	NOUN
d-207-3	,	.	.
d-207-4	you	PRON	PRON
d-207-5	have	VERB	VERB
d-207-6	a	DET	DET
d-207-7	unanimous	ADJ	ADJ
d-207-8	verdict	NOUN	NOUN
d-207-9	?	.	.

d-208-1	-	.	.
d-208-2	as	ADV	ADP
d-208-3	to	ADP	ADP
d-208-4	the	DET	DET
d-208-5	defendant	NOUN	NOUN
d-208-6	-	.	.
d-208-7	d'angelo	NOUN	NOUN
d-208-8	barksdale	NOUN	NOUN
d-208-9	,	.	.
d-208-10	how	ADV	ADV
d-208-11	say	VERB	VERB
d-208-12	you	PRON	PRON
d-208-13	to	ADP	ADP
d-208-14	the	DET	DET
d-208-15	charge	NOUN	NOUN
d-208-16	of	ADP	ADP
d-208-17	murder	NOUN	NOUN
d-208-18	in	ADP	ADP
d-208-19	the	DET	DET
d-208-20	first-degree	NOUN	NOUN
d-208-21	?	.	.

d-209-1	not	ADV	ADV
d-209-2	guilty	ADJ	NOUN
d-209-3	.	.	.

d-210-1	how	ADV	ADV
d-210-2	say	VERB	VERB
d-210-3	you	PRON	PRON
d-210-4	to	ADP	ADP
d-210-5	the	DET	DET
d-210-6	charge	NOUN	NOUN
d-210-7	of	ADP	ADP
d-210-8	murder	NOUN	NOUN
d-210-9	in	ADP	ADP
d-210-10	the	DET	DET
d-210-11	second-degree	NOUN	NOUN
d-210-12	?	.	.

d-211-1	not	ADV	ADV
d-211-2	guilty	ADJ	NOUN
d-211-3	.	.	.

d-212-1	yeah	ADV	PRT
d-212-2	!	.	.

d-213-1	that's	PRON	PRT
d-213-2	what	PRON	PRON
d-213-3	i'm	PRON	PRT
d-213-4	talkin'	VERB	VERB
d-213-5	about	ADP	ADP
d-213-6	!	.	.

d-214-1	it's	PRON	PRT
d-214-2	you	PRON	PRON
d-214-3	,	.	.
d-214-4	daddy	NOUN	NOUN
d-214-5	,	.	.
d-214-6	uh-huh	X	PRT
d-214-7	.	.	.

d-215-1	yeah	ADV	PRT
d-215-2	,	.	.
d-215-3	that's	PRON	PRT
d-215-4	right	ADJ	ADJ
d-215-5	!	.	.

d-216-1	at	ADP	ADP
d-216-2	least	ADJ	ADJ
d-216-3	you	PRON	PRON
d-216-4	made	VERB	VERB
d-216-5	'em	PRON	NUM
d-216-6	work	VERB	NOUN
d-216-7	for	ADP	ADP
d-216-8	it	PRON	PRON
d-216-9	.	.	.

d-217-1	be	VERB	VERB
d-217-2	seated	ADJ	ADJ
d-217-3	.	.	.

d-218-1	the	DET	DET
d-218-2	jury	NOUN	NOUN
d-218-3	is	VERB	VERB
d-218-4	to	ADP	ADP
d-218-5	be	VERB	VERB
d-218-6	thanked	VERB	VERB
d-218-7	for	ADP	ADP
d-218-8	its	DET	DET
d-218-9	services	NOUN	NOUN
d-218-10	in	ADP	ADP
d-218-11	this	DET	DET
d-218-12	case	NOUN	NOUN
d-218-13	.	.	.

d-219-1	deputies	NOUN	NOUN
d-219-2	will	VERB	VERB
d-219-3	return	VERB	VERB
d-219-4	defendant	NOUN	ADJ
d-219-5	barksdale	NOUN	NOUN
d-219-6	to	ADP	ADP
d-219-7	pre-trial	NOUN	VERB
d-219-8	for	ADP	ADP
d-219-9	processing	VERB	VERB
d-219-10	prior	ADJ	NOUN
d-219-11	to	ADP	ADP
d-219-12	his	DET	DET
d-219-13	release	NOUN	NOUN
d-219-14	.	.	.

d-220-1	think	VERB	VERB
d-220-2	i	PRON	PRON
d-220-3	give	VERB	VERB
d-220-4	a	DET	DET
d-220-5	fuck	NOUN	NOUN
d-220-6	?	.	.

d-221-1	i'll	PRON	PRT
d-221-2	be	VERB	VERB
d-221-3	chalking	VERB	VERB
d-221-4	you	PRON	PRON
d-221-5	off	PRT	ADJ
d-221-6	one	DET	NUM
d-221-7	night	NOUN	NOUN
d-221-8	.	.	.

d-222-1	you	PRON	PRON
d-222-2	have	VERB	VERB
d-222-3	a	DET	DET
d-222-4	nice	ADJ	ADJ
d-222-5	day	NOUN	NOUN
d-222-6	.	.	.

d-223-1	yo	X	PRT
d-223-2	,	.	.
d-223-3	stringer	NOUN	NOUN
d-223-4	,	.	.
d-223-5	let's	VERB	PRT
d-223-6	go	VERB	VERB
d-223-7	.	.	.

d-224-1	detective	NOUN	ADJ
d-224-2	?	.	.

d-225-1	detective	NOUN	ADJ
d-225-2	.	.	.

d-226-1	detective	NOUN	ADJ
d-226-2	.	.	.

d-227-1	judge	NOUN	NOUN
d-227-2	asked	VERB	VERB
d-227-3	to	ADP	ADP
d-227-4	speak	VERB	VERB
d-227-5	with	ADP	ADP
d-227-6	you	PRON	PRON
d-227-7	.	.	.

d-228-1	what	PRON	PRON
d-228-2	the	DET	DET
d-228-3	hell	NOUN	NOUN
d-228-4	happened	VERB	VERB
d-228-5	out	ADP	ADP
d-228-6	there	ADV	ADV
d-228-7	?	.	.

d-229-1	-	.	.
d-229-2	we	PRON	PRON
d-229-3	lost	VERB	VERB
d-229-4	.	.	.

d-230-1	-	.	.
d-230-2	were	VERB	VERB
d-230-3	you	PRON	PRON
d-230-4	on	PRT	ADP
d-230-5	this	PRON	PRON
d-230-6	?	.	.

d-231-1	-	.	.
d-231-2	the	DET	DET
d-231-3	case	NOUN	NOUN
d-231-4	?	.	.

d-232-1	-	.	.
d-232-2	yeah	ADV	PRT
d-232-3	.	.	.

d-233-1	-	.	.
d-233-2	no	ADV	PRT
d-233-3	,	.	.
d-233-4	it	PRON	PRON
d-233-5	was	VERB	VERB
d-233-6	barlow	NOUN	NOUN
d-233-7	,	.	.
d-233-8	with	ADP	ADP
d-233-9	an	DET	DET
d-233-10	assist	NOUN	NOUN
d-233-11	from	ADP	ADP
d-233-12	mclarney	NOUN	NOUN
d-233-13	.	.	.

d-234-1	if	CONJ	ADP
d-234-2	it	PRON	PRON
d-234-3	was	VERB	VERB
d-234-4	barlow's	DET	NOUN
d-234-5	case	NOUN	NOUN
d-234-6	,	.	.
d-234-7	why	ADV	ADV
d-234-8	are	VERB	VERB
d-234-9	you	PRON	PRON
d-234-10	in	ADP	ADP
d-234-11	court	NOUN	NOUN
d-234-12	?	.	.

d-235-1	no	DET	DET
d-235-2	reason	NOUN	NOUN
d-235-3	.	.	.

d-236-1	you	PRON	PRON
d-236-2	just	ADV	ADV
d-236-3	like	VERB	ADP
d-236-4	coming	VERB	VERB
d-236-5	to	ADP	ADP
d-236-6	court	NOUN	NOUN
d-236-7	on	ADP	ADP
d-236-8	murders	NOUN	NOUN
d-236-9	you	PRON	PRON
d-236-10	don't	VERB	VERB
d-236-11	even	ADV	ADV
d-236-12	work	VERB	VERB
d-236-13	?	.	.

d-237-1	just	ADV	ADV
d-237-2	for	ADP	ADP
d-237-3	the	DET	DET
d-237-4	thrill	NOUN	NOUN
d-237-5	of	ADP	ADP
d-237-6	it	PRON	PRON
d-237-7	?	.	.

d-238-1	when	ADV	ADV
d-238-2	you	PRON	PRON
d-238-3	start	VERB	VERB
d-238-4	cumming	VERB	VERB
d-238-5	with	ADP	ADP
d-238-6	the	DET	DET
d-238-7	customers	NOUN	NOUN
d-238-8	,	.	.
d-238-9	it's	PRON	PRT
d-238-10	time	NOUN	NOUN
d-238-11	to	ADP	ADP
d-238-12	get	VERB	VERB
d-238-13	out	PRT	ADP
d-238-14	of	ADP	ADP
d-238-15	the	DET	DET
d-238-16	business	NOUN	NOUN
d-238-17	.	.	.

d-239-1	you	PRON	PRON
d-239-2	shouldn't	VERB	VERB
d-239-3	talk	VERB	VERB
d-239-4	dirty	ADJ	ADP
d-239-5	now	ADV	ADV
d-239-6	that	PRON	ADP
d-239-7	you're	PRON	PRT
d-239-8	a	DET	DET
d-239-9	judge	NOUN	NOUN
d-239-10	.	.	.

d-240-1	now	ADV	ADV
d-240-2	that	PRON	ADP
d-240-3	i'm	PRON	PRT
d-240-4	a	DET	DET
d-240-5	judge	NOUN	NOUN
d-240-6	,	.	.
d-240-7	i	PRON	PRON
d-240-8	can	VERB	VERB
d-240-9	say	VERB	VERB
d-240-10	anything	PRON	NOUN
d-240-11	i	PRON	PRON
d-240-12	damn	ADJ	PRT
d-240-13	please	VERB	VERB
d-240-14	.	.	.

d-241-1	that	DET	DET
d-241-2	barksdale	NOUN	NOUN
d-241-3	kid	NOUN	NOUN
d-241-4	,	.	.
d-241-5	he's	PRON	PRT
d-241-6	a	DET	DET
d-241-7	cousin	NOUN	NOUN
d-241-8	to	ADP	ADP
d-241-9	avon	NOUN	NOUN
d-241-10	barksdale	NOUN	NOUN
d-241-11	.	.	.

d-242-1	who	PRON	PRON
d-242-2	?	.	.

d-243-1	avon	NOUN	NOUN
d-243-2	barksdale	NOUN	NOUN
d-243-3	,	.	.
d-243-4	stringer	NOUN	NOUN
d-243-5	bell	NOUN	NOUN
d-243-6	.	.	.

d-244-1	the	DET	DET
d-244-2	crew	NOUN	NOUN
d-244-3	that's	PRON	PRT
d-244-4	been	VERB	VERB
d-244-5	running	VERB	VERB
d-244-6	franklin	NOUN	VERB
d-244-7	terrace	NOUN	NOUN
d-244-8	for	ADP	ADP
d-244-9	a	DET	DET
d-244-10	year	NOUN	NOUN
d-244-11	.	.	.

d-245-1	stringer	NOUN	NOUN
d-245-2	bell	NOUN	NOUN
d-245-3	?	.	.

d-246-1	yeah	ADV	PRT
d-246-2	,	.	.
d-246-3	that	PRON	PRON
d-246-4	was	VERB	VERB
d-246-5	him	PRON	PRON
d-246-6	in	ADP	ADP
d-246-7	court	NOUN	NOUN
d-246-8	with	ADP	ADP
d-246-9	the	DET	DET
d-246-10	legal	NOUN	ADJ
d-246-11	pad	NOUN	NOUN
d-246-12	and	CONJ	CONJ
d-246-13	the	DET	DET
d-246-14	glasses	NOUN	NOUN
d-246-15	,	.	.
d-246-16	scaring	VERB	VERB
d-246-17	the	DET	DET
d-246-18	living	ADJ	VERB
d-246-19	shit	NOUN	NOUN
d-246-20	out	ADP	ADP
d-246-21	of	ADP	ADP
d-246-22	every	DET	DET
d-246-23	witness	NOUN	NOUN
d-246-24	.	.	.

d-247-1	him	PRON	PRON
d-247-2	and	CONJ	CONJ
d-247-3	the	DET	DET
d-247-4	rest	NOUN	NOUN
d-247-5	of	ADP	ADP
d-247-6	his	DET	DET
d-247-7	crew	NOUN	NOUN
d-247-8	,	.	.
d-247-9	wee-bey	NOUN	NOUN
d-247-10	,	.	.
d-247-11	savino	NOUN	NOUN
d-247-12	,	.	.
d-247-13	stinkum	NOUN	NOUN
d-247-14	.	.	.

d-248-1	i	PRON	PRON
d-248-2	saw	VERB	VERB
d-248-3	them	PRON	PRON
d-248-4	.	.	.

d-249-1	you	PRON	PRON
d-249-2	think	VERB	VERB
d-249-3	about	ADP	ADP
d-249-4	clearing	VERB	VERB
d-249-5	the	DET	DET
d-249-6	court	NOUN	NOUN
d-249-7	?	.	.

d-250-1	on	ADP	ADP
d-250-2	what	PRON	PRON
d-250-3	basis	NOUN	NOUN
d-250-4	?	.	.

d-251-1	it's	PRON	PRT
d-251-2	an	DET	DET
d-251-3	open	ADJ	NOUN
d-251-4	court	NOUN	NOUN
d-251-5	in	ADP	ADP
d-251-6	a	DET	DET
d-251-7	free	ADJ	ADJ
d-251-8	nation	NOUN	NOUN
d-251-9	of	ADP	ADP
d-251-10	laws	NOUN	NOUN
d-251-11	.	.	.

d-252-1	i	PRON	PRON
d-252-2	thought	VERB	VERB
d-252-3	it	PRON	PRON
d-252-4	was	VERB	VERB
d-252-5	baltimore	NOUN	ADJ
d-252-6	.	.	.

d-253-1	barksdale	NOUN	NOUN
d-253-2	has	VERB	VERB
d-253-3	five	NUM	VERB
d-253-4	out	ADP	ADP
d-253-5	of	ADP	ADP
d-253-6	seven	NUM	NOUN
d-253-7	towers	NOUN	NOUN
d-253-8	in	ADP	ADP
d-253-9	the	DET	DET
d-253-10	terrace	NOUN	NOUN
d-253-11	.	.	.

d-254-1	that's	PRON	PRT
d-254-2	!digits	NUM	NUM
d-254-3	stairwells	NOUN	NOUN
d-254-4	in	ADP	ADP
d-254-5	five	NUM	NOUN
d-254-6	high-rises	NOUN	NOUN
d-254-7	,	.	.
d-254-8	going	VERB	VERB
d-254-9	24-seven	NUM	NUM
d-254-10	for	ADP	ADP
d-254-11	dope	NOUN	NOUN
d-254-12	and	CONJ	CONJ
d-254-13	coke	NOUN	NOUN
d-254-14	.	.	.

d-255-1	and	CONJ	CONJ
d-255-2	that's	PRON	PRT
d-255-3	just	ADV	ADV
d-255-4	the	DET	DET
d-255-5	towers	NOUN	NOUN
d-255-6	.	.	.

d-256-1	the	DET	DET
d-256-2	low-rises	NOUN	NOUN
d-256-3	,	.	.
d-256-4	the	DET	DET
d-256-5	avenue	NOUN	NOUN
d-256-6	corners	NOUN	NOUN
d-256-7	,	.	.
d-256-8	they're	PRON	PRT
d-256-9	all	DET	DET
d-256-10	his	DET	DET
d-256-11	,	.	.
d-256-12	too	ADV	ADV
d-256-13	.	.	.

d-257-1	how	ADV	ADV
d-257-2	do	VERB	VERB
d-257-3	you	PRON	PRON
d-257-4	know	VERB	VERB
d-257-5	this	PRON	PRON
d-257-6	?	.	.

d-258-1	everybody	PRON	NOUN
d-258-2	knows	VERB	VERB
d-258-3	it	PRON	PRON
d-258-4	.	.	.

d-259-1	define	VERB	NOUN
d-259-2	"	.	.
d-259-3	everybody	PRON	NOUN
d-259-4	"	.	.
d-259-5	.	.	.

d-260-1	everybody	PRON	NOUN
d-260-2	on	ADP	ADP
d-260-3	the	DET	DET
d-260-4	westside	NOUN	NOUN
d-260-5	.	.	.

d-261-1	barksdale	NOUN	NOUN
d-261-2	and	CONJ	CONJ
d-261-3	bell	NOUN	NOUN
d-261-4	,	.	.
d-261-5	they're	PRON	PRT
d-261-6	the	DET	DET
d-261-7	new	ADJ	ADJ
d-261-8	power	NOUN	NOUN
d-261-9	.	.	.

d-262-1	i	PRON	PRON
d-262-2	mean	VERB	VERB
d-262-3	,	.	.
d-262-4	they've	PRON	NOUN
d-262-5	dropped	VERB	VERB
d-262-6	!digits	NUM	NUM
d-262-7	or	CONJ	CONJ
d-262-8	!digits	NUM	NUM
d-262-9	bodies	NOUN	NOUN
d-262-10	in	ADP	ADP
d-262-11	as	ADV	ADV
d-262-12	many	ADJ	ADJ
d-262-13	months	NOUN	NOUN
d-262-14	.	.	.

d-263-1	beat	VERB	VERB
d-263-2	three	NUM	NUM
d-263-3	cases	NOUN	NOUN
d-263-4	in	ADP	ADP
d-263-5	court	NOUN	NOUN
d-263-6	doing	VERB	VERB
d-263-7	the	DET	DET
d-263-8	same	ADJ	ADJ
d-263-9	thing	NOUN	NOUN
d-263-10	they	PRON	PRON
d-263-11	just	ADV	ADV
d-263-12	did	VERB	VERB
d-263-13	to	ADP	ADP
d-263-14	you	PRON	PRON
d-263-15	.	.	.

d-264-1	who's	PRON	PRT
d-264-2	working	VERB	VERB
d-264-3	on	ADP	ADP
d-264-4	them	PRON	PRON
d-264-5	?	.	.

d-265-1	in	ADP	ADP
d-265-2	the	DET	DET
d-265-3	department	NOUN	NOUN
d-265-4	?	.	.

d-266-1	nobody	PRON	NOUN
d-266-2	,	.	.
d-266-3	really	ADV	ADV
d-266-4	.	.	.

d-267-1	well	X	PRT
d-267-2	,	.	.
d-267-3	we're	PRON	PRT
d-267-4	a	DET	DET
d-267-5	little	ADV	ADJ
d-267-6	busy	ADJ	NOUN
d-267-7	doing	VERB	VERB
d-267-8	street	NOUN	NOUN
d-267-9	rips	NOUN	NOUN
d-267-10	,	.	.
d-267-11	you	PRON	PRON
d-267-12	know	VERB	VERB
d-267-13	.	.	.

d-268-1	community	NOUN	NOUN
d-268-2	policing	NOUN	NOUN
d-268-3	and	CONJ	CONJ
d-268-4	all	DET	DET
d-268-5	that	PRON	PRON
d-268-6	.	.	.

d-269-1	so	ADV	ADV
d-269-2	,	.	.
d-269-3	if	CONJ	ADP
d-269-4	it's	PRON	PRT
d-269-5	not	ADV	ADV
d-269-6	your	DET	DET
d-269-7	case	NOUN	NOUN
d-269-8	,	.	.
d-269-9	why	ADV	ADV
d-269-10	do	VERB	VERB
d-269-11	you	PRON	PRON
d-269-12	care	VERB	VERB
d-269-13	?	.	.

d-270-1	who	PRON	PRON
d-270-2	said	VERB	VERB
d-270-3	i	PRON	PRON
d-270-4	did	VERB	VERB
d-270-5	?	.	.

d-271-1	one	NUM	NUM
d-271-2	more	ADJ	ADJ
d-271-3	time	NOUN	NOUN
d-271-4	.	.	.

d-272-1	one	NUM	NUM
d-272-2	more	ADJ	ADJ
d-272-3	time	NOUN	NOUN
d-272-4	.	.	.

d-273-1	stop	VERB	VERB
d-273-2	playing	VERB	VERB
d-273-3	.	.	.

d-274-1	fuck	VERB	VERB
d-274-2	me	PRON	PRON
d-274-3	.	.	.

d-275-1	stop	VERB	VERB
d-275-2	playing	VERB	VERB
d-275-3	.	.	.

d-276-1	you	PRON	PRON
d-276-2	got	VERB	VERB
d-276-3	submission	NOUN	NOUN
d-276-4	numbers	NOUN	NOUN
d-276-5	for	ADP	ADP
d-276-6	ecu	NOUN	NOUN
d-276-7	?	.	.

d-277-1	-	.	.
d-277-2	nope	ADV	NOUN
d-277-3	.	.	.

d-278-1	-	.	.
d-278-2	get	VERB	VERB
d-278-3	'em	PRON	.
d-278-4	.	.	.

d-279-1	why	ADV	ADV
d-279-2	me	PRON	PRON
d-279-3	?	.	.

d-280-1	you	PRON	PRON
d-280-2	want	VERB	VERB
d-280-3	the	DET	DET
d-280-4	collar	NOUN	NOUN
d-280-5	,	.	.
d-280-6	do	VERB	VERB
d-280-7	the	DET	DET
d-280-8	submissions	NOUN	NOUN
d-280-9	.	.	.

d-281-1	you	PRON	PRON
d-281-2	giving	VERB	VERB
d-281-3	me	PRON	PRON
d-281-4	the	DET	DET
d-281-5	stat	NOUN	NOUN
d-281-6	?	.	.

d-282-1	it's	PRON	PRT
d-282-2	your	DET	DET
d-282-3	turn	NOUN	NOUN
d-282-4	.	.	.

d-283-1	what's	PRON	PRT
d-283-2	the	DET	DET
d-283-3	extension	NOUN	NOUN
d-283-4	for	ADP	ADP
d-283-5	ecu	NOUN	NOUN
d-283-6	?	.	.

d-284-1	do	VERB	VERB
d-284-2	i	PRON	PRON
d-284-3	look	VERB	VERB
d-284-4	like	ADJ	ADP
d-284-5	your	DET	DET
d-284-6	bitch	NOUN	NOUN
d-284-7	?	.	.

d-285-1	we	PRON	PRON
d-285-2	taking	VERB	VERB
d-285-3	the	DET	DET
d-285-4	mercedes	NOUN	NOUN
d-285-5	?	.	.

d-286-1	no	ADV	PRT
d-286-2	,	.	.
d-286-3	i	PRON	PRON
d-286-4	promised	VERB	VERB
d-286-5	my	DET	DET
d-286-6	girl	NOUN	NOUN
d-286-7	.	.	.

d-287-1	car's	NOUN	NOUN
d-287-2	in	ADP	ADP
d-287-3	her	PRON	DET
d-287-4	name	NOUN	NOUN
d-287-5	.	.	.

d-288-1	narcotics	NOUN	NOUN
d-288-2	.	.	.

d-289-1	lieutenant	NOUN	VERB
d-289-2	...	.	.
d-289-3	line	NOUN	ADJ
d-289-4	two	NUM	NUM
d-289-5	.	.	.

d-290-1	here	ADV	ADV
d-290-2	you	PRON	PRON
d-290-3	go	VERB	VERB
d-290-4	.	.	.

d-291-1	fuck	VERB	VERB
d-291-2	me	PRON	PRON
d-291-3	,	.	.
d-291-4	i	PRON	PRON
d-291-5	cannot	VERB	VERB
d-291-6	type	VERB	NOUN
d-291-7	.	.	.

d-292-1	who	PRON	PRON
d-292-2	the	DET	DET
d-292-3	fuck	NOUN	NOUN
d-292-4	can	VERB	VERB
d-292-5	?	.	.

d-293-1	shit	NOUN	NOUN
d-293-2	,	.	.
d-293-3	millennium	NOUN	NOUN
d-293-4	been	VERB	VERB
d-293-5	an'	CONJ	DET
d-293-6	gone	VERB	NOUN
d-293-7	and	CONJ	CONJ
d-293-8	we	PRON	PRON
d-293-9	still	ADV	ADV
d-293-10	fuckin'	VERB	VERB
d-293-11	around	ADP	PRT
d-293-12	with	ADP	ADP
d-293-13	smith-corona	NOUN	NOUN
d-293-14	.	.	.

d-294-1	we	PRON	PRON
d-294-2	need	VERB	VERB
d-294-3	to	ADP	ADP
d-294-4	get	VERB	VERB
d-294-5	them	DET	PRON
d-294-6	computers	NOUN	NOUN
d-294-7	hooked	ADJ	VERB
d-294-8	up	PRT	PRT
d-294-9	.	.	.

d-295-1	they	PRON	PRON
d-295-2	promised	VERB	VERB
d-295-3	to	ADP	ADP
d-295-4	train	VERB	VERB
d-295-5	us	PRON	PRON
d-295-6	on	ADP	ADP
d-295-7	that	DET	DET
d-295-8	shit	NOUN	NOUN
d-295-9	a	DET	DET
d-295-10	year	NOUN	NOUN
d-295-11	ago	ADJ	NOUN
d-295-12	.	.	.

d-296-1	what	PRON	PRON
d-296-2	would	VERB	VERB
d-296-3	an	DET	DET
d-296-4	ass-ignorant	ADJ	NOUN
d-296-5	motherfucker	NOUN	NOUN
d-296-6	like	ADP	ADP
d-296-7	you	PRON	PRON
d-296-8	do	VERB	VERB
d-296-9	with	ADP	ADP
d-296-10	a	DET	DET
d-296-11	computer	NOUN	NOUN
d-296-12	?	.	.

d-297-1	i	PRON	PRON
d-297-2	don't	VERB	VERB
d-297-3	know	VERB	VERB
d-297-4	,	.	.
d-297-5	trade	VERB	ADJ
d-297-6	stocks	NOUN	NOUN
d-297-7	and	CONJ	CONJ
d-297-8	shit	NOUN	NOUN
d-297-9	.	.	.

d-298-1	jerk	VERB	NOUN
d-298-2	off	PRT	PRT
d-298-3	,	.	.
d-298-4	you	PRON	PRON
d-298-5	mean	VERB	VERB
d-298-6	.	.	.

d-299-1	we	PRON	PRON
d-299-2	get	VERB	VERB
d-299-3	them	DET	DET
d-299-4	computers	NOUN	NOUN
d-299-5	hooked	ADJ	VERB
d-299-6	up	PRT	PRT
d-299-7	,	.	.
d-299-8	herc'll	NOUN	PRT
d-299-9	be	VERB	VERB
d-299-10	deep	ADJ	ADJ
d-299-11	into	ADP	ADP
d-299-12	some	DET	DET
d-299-13	porn	NOUN	NOUN
d-299-14	and	CONJ	CONJ
d-299-15	kima	NOUN	NOUN
d-299-16	still	ADV	ADV
d-299-17	be	VERB	VERB
d-299-18	pecking	VERB	VERB
d-299-19	out	PRT	ADP
d-299-20	her	PRON	DET
d-299-21	24s	NUM	NOUN
d-299-22	on	ADP	ADP
d-299-23	that	DET	DET
d-299-24	old	ADJ	ADJ
d-299-25	piece	NOUN	NOUN
d-299-26	of	ADP	ADP
d-299-27	shit	NOUN	NOUN
d-299-28	.	.	.

d-300-1	-	.	.
d-300-2	gotta	VERB	VERB
d-300-3	go	VERB	VERB
d-300-4	upstairs	NOUN	ADV
d-300-5	.	.	.

d-301-1	-	.	.
d-301-2	what's	PRON	PRT
d-301-3	up	PRT	PRT
d-301-4	?	.	.

d-302-1	deputy's	NOUN	PRT
d-302-2	throwing	VERB	VERB
d-302-3	some	DET	DET
d-302-4	kinda	NOUN	NOUN
d-302-5	piss-fit	NOUN	NOUN
d-302-6	.	.	.

d-303-1	major	NOUN	ADJ
d-303-2	know	VERB	NOUN
d-303-3	?	.	.

d-304-1	he's	PRON	PRT
d-304-2	up	ADP	PRT
d-304-3	there	ADV	ADV
d-304-4	now	ADV	ADV
d-304-5	.	.	.

d-305-1	with	ADP	ADP
d-305-2	a	DET	DET
d-305-3	mouthful	NOUN	NOUN
d-305-4	of	ADP	ADP
d-305-5	piss	NOUN	NOUN
d-305-6	,	.	.
d-305-7	probably	ADV	ADV
d-305-8	.	.	.

d-306-1	like	CONJ	ADP
d-306-2	our	DET	DET
d-306-3	major	NOUN	NOUN
d-306-4	don't	VERB	VERB
d-306-5	know	VERB	VERB
d-306-6	what	PRON	PRON
d-306-7	that	PRON	PRON
d-306-8	tastes	VERB	VERB
d-306-9	like	ADP	ADP
d-306-10	?	.	.

d-307-1	it's	PRON	PRT
d-307-2	the	DET	DET
d-307-3	chain-of-command	NOUN	NOUN
d-307-4	,	.	.
d-307-5	baby	NOUN	NOUN
d-307-6	,	.	.
d-307-7	the	DET	DET
d-307-8	shit	NOUN	NOUN
d-307-9	always	ADV	ADV
d-307-10	rolls	VERB	VERB
d-307-11	downhill	ADV	VERB
d-307-12	.	.	.

d-308-1	motherfucker	NOUN	NOUN
d-308-2	,	.	.
d-308-3	we	PRON	PRON
d-308-4	talking	VERB	VERB
d-308-5	about	ADP	ADP
d-308-6	piss	NOUN	NOUN
d-308-7	.	.	.

d-309-1	piss	NOUN	NOUN
d-309-2	does	VERB	VERB
d-309-3	too	ADV	ADV
d-309-4	,	.	.
d-309-5	think	VERB	VERB
d-309-6	about	ADP	ADP
d-309-7	it	PRON	PRON
d-309-8	.	.	.

d-310-1	shit	NOUN	NOUN
d-310-2	rolls	VERB	VERB
d-310-3	,	.	.
d-310-4	piss	NOUN	NOUN
d-310-5	trickles	VERB	NOUN
d-310-6	.	.	.

d-311-1	downhill	ADV	VERB
d-311-2	,	.	.
d-311-3	though	ADV	ADP
d-311-4	.	.	.

d-312-1	you	PRON	PRON
d-312-2	don't	VERB	VERB
d-312-3	know	VERB	VERB
d-312-4	that	PRON	PRON
d-312-5	for	ADP	ADP
d-312-6	sure	ADJ	ADJ
d-312-7	--	.	.
d-312-8	not	ADV	ADV
d-312-9	to	ADP	ADP
d-312-10	change	VERB	VERB
d-312-11	the	DET	DET
d-312-12	subject	NOUN	NOUN
d-312-13	on	ADP	ADP
d-312-14	you	PRON	PRON
d-312-15	two	NUM	NUM
d-312-16	charmers	NOUN	NOUN
d-312-17	,	.	.
d-312-18	but	ADP	CONJ
d-312-19	why	ADV	ADV
d-312-20	are	VERB	VERB
d-312-21	there	ADV	ADV
d-312-22	only	ADJ	ADJ
d-312-23	two	NUM	NUM
d-312-24	ecu	NOUN	NOUN
d-312-25	numbers	NOUN	NOUN
d-312-26	?	.	.

d-313-1	dope	NOUN	NOUN
d-313-2	and	CONJ	CONJ
d-313-3	guns	NOUN	NOUN
d-313-4	.	.	.

d-314-1	two	NUM	NUM
d-314-2	guns	NOUN	NOUN
d-314-3	,	.	.
d-314-4	right	ADJ	ADV
d-314-5	?	.	.

d-315-1	that's	PRON	PRT
d-315-2	three	NUM	NUM
d-315-3	.	.	.

d-316-1	fuck	VERB	VERB
d-316-2	it	PRON	PRON
d-316-3	,	.	.
d-316-4	kima	NOUN	NOUN
d-316-5	.	.	.

d-317-1	you	PRON	PRON
d-317-2	want	VERB	VERB
d-317-3	a	DET	DET
d-317-4	job	NOUN	NOUN
d-317-5	done	VERB	NOUN
d-317-6	right	ADJ	ADV
d-317-7	,	.	.
d-317-8	you	PRON	PRON
d-317-9	gotta	VERB	VERB
d-317-10	do	VERB	VERB
d-317-11	it	PRON	PRON
d-317-12	your	DET	DET
d-317-13	ownself	PRON	NOUN
d-317-14	.	.	.

d-318-1	what	PRON	PRON
d-318-2	he	PRON	PRON
d-318-3	means	VERB	VERB
d-318-4	to	ADP	ADP
d-318-5	say	VERB	VERB
d-318-6	is	VERB	VERB
d-318-7	that	CONJ	ADP
d-318-8	we	PRON	PRON
d-318-9	are	VERB	VERB
d-318-10	an	DET	DET
d-318-11	effective	ADJ	ADJ
d-318-12	deterrent	NOUN	NOUN
d-318-13	on	ADP	ADP
d-318-14	the	DET	DET
d-318-15	war	NOUN	NOUN
d-318-16	on	ADP	ADP
d-318-17	drugs	NOUN	NOUN
d-318-18	when	ADV	ADV
d-318-19	we	PRON	PRON
d-318-20	are	VERB	VERB
d-318-21	on	ADP	ADP
d-318-22	the	DET	DET
d-318-23	street	NOUN	NOUN
d-318-24	.	.	.

d-319-1	fucking	VERB	VERB
d-319-2	motherfuckers	NOUN	NOUN
d-319-3	up	PRT	PRT
d-319-4	,	.	.
d-319-5	right	ADJ	PRT
d-319-6	?	.	.

d-320-1	indeed	ADV	VERB
d-320-2	.	.	.

d-321-1	fuck	VERB	VERB
d-321-2	the	DET	DET
d-321-3	paperwork	NOUN	NOUN
d-321-4	.	.	.

d-322-1	collect	VERB	ADJ
d-322-2	bodies	NOUN	NOUN
d-322-3	,	.	.
d-322-4	split	VERB	ADJ
d-322-5	heads	NOUN	NOUN
d-322-6	.	.	.

d-323-1	-	.	.
d-323-2	split	VERB	NOUN
d-323-3	'em	PRON	.
d-323-4	wide	ADV	NOUN
d-323-5	.	.	.

d-324-1	-	.	.
d-324-2	the	DET	DET
d-324-3	western	NOUN	ADJ
d-324-4	district	NOUN	NOUN
d-324-5	way	NOUN	NOUN
d-324-6	.	.	.

d-325-1	a'ight	ADV	PRT
d-325-2	.	.	.

d-326-1	you	PRON	PRON
d-326-2	heroic	ADJ	VERB
d-326-3	motherfuckers	NOUN	NOUN
d-326-4	kill	VERB	VERB
d-326-5	me	PRON	PRON
d-326-6	.	.	.

d-327-1	fighting	VERB	VERB
d-327-2	the	DET	DET
d-327-3	war	NOUN	NOUN
d-327-4	on	ADP	ADP
d-327-5	drugs	NOUN	NOUN
d-327-6	,	.	.
d-327-7	one	DET	NUM
d-327-8	brutality	NOUN	NOUN
d-327-9	case	NOUN	NOUN
d-327-10	at	ADP	ADP
d-327-11	a	DET	DET
d-327-12	time	NOUN	NOUN
d-327-13	.	.	.

d-328-1	girl	NOUN	NOUN
d-328-2	,	.	.
d-328-3	you	PRON	PRON
d-328-4	can't	VERB	VERB
d-328-5	even	ADV	ADV
d-328-6	call	VERB	VERB
d-328-7	this	DET	DET
d-328-8	shit	NOUN	NOUN
d-328-9	a	DET	DET
d-328-10	war	NOUN	NOUN
d-328-11	.	.	.

d-329-1	why	ADV	ADV
d-329-2	not	ADV	ADV
d-329-3	?	.	.

d-330-1	wars	NOUN	NOUN
d-330-2	end	VERB	NOUN
d-330-3	.	.	.

d-331-1	you	PRON	PRON
d-331-2	gonna	VERB	VERB
d-331-3	write	VERB	VERB
d-331-4	that	PRON	PRON
d-331-5	down	ADP	ADV
d-331-6	?	.	.

d-332-1	how	ADV	ADV
d-332-2	happy	ADJ	ADJ
d-332-3	am	VERB	VERB
d-332-4	i	PRON	PRON
d-332-5	to	ADP	ADP
d-332-6	see	VERB	VERB
d-332-7	my	DET	DET
d-332-8	pager	NOUN	NOUN
d-332-9	go	VERB	VERB
d-332-10	off	PRT	ADV
d-332-11	with	ADP	ADP
d-332-12	your	DET	DET
d-332-13	call	NOUN	NOUN
d-332-14	number	NOUN	NOUN
d-332-15	?	.	.

d-333-1	smoke	VERB	VERB
d-333-2	'em	PRON	.
d-333-3	if	CONJ	ADP
d-333-4	you	PRON	PRON
d-333-5	got	VERB	VERB
d-333-6	'em	PRON	VERB
d-333-7	because	CONJ	ADP
d-333-8	this	DET	DET
d-333-9	motherfucker	NOUN	NOUN
d-333-10	is	VERB	VERB
d-333-11	as	ADP	ADV
d-333-12	ripe	ADJ	ADJ
d-333-13	as	ADP	ADP
d-333-14	they	PRON	PRON
d-333-15	get	VERB	VERB
d-333-16	.	.	.

d-334-1	we	PRON	PRON
d-334-2	aren't	VERB	VERB
d-334-3	up	PRT	PRT
d-334-4	,	.	.
d-334-5	nolan's	DET	NOUN
d-334-6	squad	NOUN	NOUN
d-334-7	is	VERB	VERB
d-334-8	up	PRT	PRT
d-334-9	.	.	.

d-335-1	i	PRON	PRON
d-335-2	know	VERB	VERB
d-335-3	,	.	.
d-335-4	i	PRON	PRON
d-335-5	know	VERB	VERB
d-335-6	.	.	.

d-336-1	but	ADP	CONJ
d-336-2	you	PRON	PRON
d-336-3	had	VERB	VERB
d-336-4	to	ADP	ADP
d-336-5	answer	VERB	VERB
d-336-6	the	DET	DET
d-336-7	fucking	ADJ	ADJ
d-336-8	phone	NOUN	NOUN
d-336-9	,	.	.
d-336-10	didn't	VERB	VERB
d-336-11	you	PRON	PRON
d-336-12	?	.	.

d-337-1	got	VERB	VERB
d-337-2	to	ADP	ADP
d-337-3	pay	VERB	VERB
d-337-4	down	PRT	PRT
d-337-5	my	DET	DET
d-337-6	credit	NOUN	NOUN
d-337-7	cards	NOUN	NOUN
d-337-8	.	.	.

d-338-1	not	ADV	ADV
d-338-2	off	ADP	ADP
d-338-3	him	PRON	PRON
d-338-4	,	.	.
d-338-5	you	PRON	PRON
d-338-6	ain't	VERB	VERB
d-338-7	.	.	.

d-339-1	motherfucker	NOUN	NOUN
d-339-2	,	.	.
d-339-3	i	PRON	PRON
d-339-4	leave	VERB	VERB
d-339-5	you	PRON	PRON
d-339-6	alone	ADJ	VERB
d-339-7	for	ADP	ADP
d-339-8	a	DET	DET
d-339-9	minute	NOUN	NOUN
d-339-10	or	CONJ	CONJ
d-339-11	two	NUM	NUM
d-339-12	,	.	.
d-339-13	what	PRON	PRON
d-339-14	do	VERB	VERB
d-339-15	you	PRON	PRON
d-339-16	do	VERB	VERB
d-339-17	?	.	.

d-340-1	all	ADJ	DET
d-340-2	right	ADJ	ADJ
d-340-3	,	.	.
d-340-4	i	PRON	PRON
d-340-5	heard	VERB	VERB
d-340-6	you	PRON	PRON
d-340-7	.	.	.

d-341-1	well	X	PRT
d-341-2	,	.	.
d-341-3	say	VERB	VERB
d-341-4	the	DET	DET
d-341-5	words	NOUN	NOUN
d-341-6	,	.	.
d-341-7	bunk	NOUN	NOUN
d-341-8	.	.	.

d-342-1	-	.	.
d-342-2	c'mon	VERB	NOUN
d-342-3	,	.	.
d-342-4	man	NOUN	NOUN
d-342-5	.	.	.

d-343-1	-	.	.
d-343-2	speak	VERB	VERB
d-343-3	to	ADP	ADP
d-343-4	me	PRON	PRON
d-343-5	.	.	.

d-344-1	so	CONJ	ADV
d-344-2	,	.	.
d-344-3	you	PRON	PRON
d-344-4	gonna	VERB	VERB
d-344-5	cut	VERB	VERB
d-344-6	and	CONJ	CONJ
d-344-7	run	VERB	VERB
d-344-8	on	ADP	ADP
d-344-9	the	DET	DET
d-344-10	bunk	NOUN	NOUN
d-344-11	?	.	.

d-345-1	that	DET	DET
d-345-2	shit	NOUN	NOUN
d-345-3	ain't	VERB	VERB
d-345-4	right	ADJ	ADV
d-345-5	,	.	.
d-345-6	jimmy	NOUN	NOUN
d-345-7	.	.	.

d-346-1	all	ADJ	DET
d-346-2	right	ADJ	ADJ
d-346-3	,	.	.
d-346-4	then	ADV	ADV
d-346-5	,	.	.
d-346-6	this	PRON	PRON
d-346-7	is	VERB	VERB
d-346-8	my	DET	DET
d-346-9	case	NOUN	NOUN
d-346-10	.	.	.

d-347-1	my	DET	DET
d-347-2	file	NOUN	NOUN
d-347-3	.	.	.

d-348-1	this	DET	DET
d-348-2	shit	NOUN	NOUN
d-348-3	comes	VERB	VERB
d-348-4	back	ADV	PRT
d-348-5	a	DET	DET
d-348-6	murder	NOUN	NOUN
d-348-7	,	.	.
d-348-8	you	PRON	PRON
d-348-9	ain't	VERB	VERB
d-348-10	gotta	VERB	VERB
d-348-11	do	VERB	VERB
d-348-12	shit	NOUN	NOUN
d-348-13	but	ADP	CONJ
d-348-14	stand	VERB	ADV
d-348-15	there	ADV	ADV
d-348-16	and	CONJ	CONJ
d-348-17	laugh	VERB	VERB
d-348-18	at	ADP	ADP
d-348-19	me	PRON	PRON
d-348-20	.	.	.

d-349-1	you	PRON	PRON
d-349-2	happy	ADJ	ADJ
d-349-3	now	ADV	ADV
d-349-4	,	.	.
d-349-5	you	PRON	PRON
d-349-6	bitch	NOUN	NOUN
d-349-7	?	.	.

d-350-1	this'll	PRON	PRT
d-350-2	teach	VERB	VERB
d-350-3	you	PRON	PRON
d-350-4	to	ADP	ADP
d-350-5	give	VERB	VERB
d-350-6	a	DET	DET
d-350-7	fuck	NOUN	NOUN
d-350-8	when	ADV	ADV
d-350-9	it	PRON	PRON
d-350-10	ain't	VERB	VERB
d-350-11	your	DET	DET
d-350-12	turn	NOUN	NOUN
d-350-13	to	ADP	ADP
d-350-14	give	VERB	VERB
d-350-15	a	DET	DET
d-350-16	fuck	NOUN	NOUN
d-350-17	.	.	.

d-351-1	it	PRON	PRON
d-351-2	ain't	VERB	VERB
d-351-3	even	ADV	ADV
d-351-4	gonna	VERB	VERB
d-351-5	be	VERB	VERB
d-351-6	a	DET	DET
d-351-7	murder	NOUN	NOUN
d-351-8	.	.	.

d-352-1	this	DET	DET
d-352-2	motherfucker	NOUN	NOUN
d-352-3	probably	ADV	ADV
d-352-4	came	VERB	VERB
d-352-5	in	PRT	ADP
d-352-6	here	ADV	ADV
d-352-7	to	ADP	ADP
d-352-8	take	VERB	VERB
d-352-9	a	DET	DET
d-352-10	shit	NOUN	NOUN
d-352-11	or	CONJ	CONJ
d-352-12	something	NOUN	NOUN
d-352-13	and	CONJ	CONJ
d-352-14	just	ADV	ADV
d-352-15	fell	VERB	VERB
d-352-16	out	PRT	PRT
d-352-17	.	.	.

d-353-1	i	PRON	PRON
d-353-2	bet	VERB	VERB
d-353-3	you	PRON	PRON
d-353-4	there	ADV	ADV
d-353-5	ain't	VERB	VERB
d-353-6	nothing	PRON	VERB
d-353-7	to	ADP	ADP
d-353-8	it	PRON	PRON
d-353-9	.	.	.

d-354-1	-	.	.
d-354-2	you	PRON	PRON
d-354-3	hope	VERB	VERB
d-354-4	.	.	.

d-355-1	-	.	.
d-355-2	where	ADV	ADV
d-355-3	you	PRON	PRON
d-355-4	going	VERB	VERB
d-355-5	?	.	.

d-356-1	back	ADV	ADV
d-356-2	to	ADP	ADP
d-356-3	the	DET	DET
d-356-4	office	NOUN	NOUN
d-356-5	,	.	.
d-356-6	where	ADV	ADV
d-356-7	i	PRON	PRON
d-356-8	belong	VERB	VERB
d-356-9	.	.	.

d-357-1	you	PRON	PRON
d-357-2	...	.	.
d-357-3	moldering	ADJ	VERB
d-357-4	motherfucker	NOUN	NOUN
d-357-5	.	.	.

d-358-1	don't	VERB	VERB
d-358-2	even	ADV	ADV
d-358-3	think	VERB	VERB
d-358-4	about	ADP	ADP
d-358-5	coming	VERB	VERB
d-358-6	back	PRT	PRT
d-358-7	a	DET	DET
d-358-8	murder	NOUN	NOUN
d-358-9	.	.	.

d-359-1	don't	VERB	VERB
d-359-2	even	ADV	ADV
d-359-3	think	VERB	VERB
d-359-4	of	ADP	ADP
d-359-5	that	DET	DET
d-359-6	shit	NOUN	NOUN
d-359-7	.	.	.

d-360-1	by	ADP	ADP
d-360-2	tomorrow	NOUN	NOUN
d-360-3	,	.	.
d-360-4	lieutenant	NOUN	NOUN
d-360-5	.	.	.

d-361-1	don't	VERB	VERB
d-361-2	fail	VERB	VERB
d-361-3	me	PRON	PRON
d-361-4	.	.	.

d-362-1	major's	NOUN	NOUN
d-362-2	pissed	VERB	VERB
d-362-3	.	.	.

d-363-1	he	PRON	PRON
d-363-2	should	VERB	VERB
d-363-3	be	VERB	VERB
d-363-4	.	.	.

d-364-1	he	PRON	PRON
d-364-2	didn't	VERB	VERB
d-364-3	have	VERB	VERB
d-364-4	answers	NOUN	NOUN
d-364-5	for	ADP	ADP
d-364-6	the	DET	DET
d-364-7	deputy's	NOUN	NOUN
d-364-8	questions	NOUN	NOUN
d-364-9	.	.	.

d-365-1	about	ADP	ADP
d-365-2	what	PRON	PRON
d-365-3	?	.	.

d-366-1	avon	NOUN	NOUN
d-366-2	barksdale	NOUN	NOUN
d-366-3	.	.	.

d-367-1	who	PRON	PRON
d-367-2	?	.	.

d-368-1	that's	PRON	PRT
d-368-2	what	PRON	PRON
d-368-3	i	PRON	PRON
d-368-4	said	VERB	VERB
d-368-5	.	.	.

d-369-1	who	PRON	PRON
d-369-2	the	DET	DET
d-369-3	fuck	NOUN	NOUN
d-369-4	is	VERB	VERB
d-369-5	avon	NOUN	NOUN
d-369-6	barksdale	NOUN	NOUN
d-369-7	?	.	.

d-370-1	according	ADP	VERB
d-370-2	to	ADP	ADP
d-370-3	the	DET	DET
d-370-4	right	ADJ	ADV
d-370-5	honorable	ADJ	ADJ
d-370-6	judge	NOUN	NOUN
d-370-7	phelan	NOUN	NOUN
d-370-8	,	.	.
d-370-9	a	DET	DET
d-370-10	westside	ADJ	NOUN
d-370-11	player	NOUN	NOUN
d-370-12	who	PRON	PRON
d-370-13	apparently	ADV	ADV
d-370-14	indulges	VERB	VERB
d-370-15	in	ADP	ADP
d-370-16	the	DET	DET
d-370-17	occasional	ADJ	ADJ
d-370-18	murder	NOUN	NOUN
d-370-19	.	.	.

d-371-1	now	ADV	ADV
d-371-2	,	.	.
d-371-3	as	ADP	ADP
d-371-4	of	ADP	ADP
d-371-5	today	NOUN	NOUN
d-371-6	,	.	.
d-371-7	i	PRON	PRON
d-371-8	never	ADV	ADV
d-371-9	heard	VERB	VERB
d-371-10	of	ADP	ADP
d-371-11	mr.	NOUN	NOUN
d-371-12	barksdale	NOUN	NOUN
d-371-13	,	.	.
d-371-14	but	CONJ	CONJ
d-371-15	by	ADP	ADP
d-371-16	tomorrow	NOUN	NOUN
d-371-17	...	.	X

d-372-1	all	ADJ	DET
d-372-2	right	ADJ	ADJ
d-372-3	,	.	.
d-372-4	what	PRON	PRON
d-372-5	do	VERB	VERB
d-372-6	we	PRON	PRON
d-372-7	know	VERB	VERB
d-372-8	?	.	.

d-373-1	according	ADP	VERB
d-373-2	to	ADP	ADP
d-373-3	the	DET	DET
d-373-4	judge	NOUN	NOUN
d-373-5	,	.	.
d-373-6	he	PRON	PRON
d-373-7	has	VERB	VERB
d-373-8	the	DET	DET
d-373-9	westside	ADJ	ADJ
d-373-10	high-rises	NOUN	NOUN
d-373-11	.	.	.

d-374-1	the	DET	DET
d-374-2	terrace	NOUN	NOUN
d-374-3	mostly	ADV	ADV
d-374-4	.	.	.

d-375-1	sounds	VERB	VERB
d-375-2	like	ADP	ADP
d-375-3	a	DET	DET
d-375-4	bunch	NOUN	NOUN
d-375-5	of	ADP	ADP
d-375-6	bullshit	NOUN	NOUN
d-375-7	to	ADP	ADP
d-375-8	me	PRON	PRON
d-375-9	,	.	.
d-375-10	boss	NOUN	NOUN
d-375-11	.	.	.

d-376-1	maybe	ADV	ADV
d-376-2	so	ADV	ADV
d-376-3	.	.	.

d-377-1	it's	PRON	PRT
d-377-2	gotta	VERB	VERB
d-377-3	be	VERB	VERB
d-377-4	tonight	NOUN	ADV
d-377-5	?	.	.

d-378-1	major	NOUN	NOUN
d-378-2	wants	VERB	VERB
d-378-3	the	DET	DET
d-378-4	file	NOUN	NOUN
d-378-5	by	ADP	ADP
d-378-6	morning	NOUN	NOUN
d-378-7	.	.	.

d-379-1	call	VERB	ADJ
d-379-2	andrews	NOUN	NOUN
d-379-3	at	ADP	ADP
d-379-4	dea	NOUN	NOUN
d-379-5	.	.	.

d-380-1	see	VERB	VERB
d-380-2	what	PRON	PRON
d-380-3	they	PRON	PRON
d-380-4	have	VERB	VERB
d-380-5	on	ADP	ADP
d-380-6	this	DET	DET
d-380-7	mope	NOUN	NOUN
d-380-8	.	.	.

d-381-1	what	PRON	PRON
d-381-2	about	ADP	ADP
d-381-3	homicide	NOUN	NOUN
d-381-4	,	.	.
d-381-5	i	PRON	PRON
d-381-6	mean	VERB	VERB
d-381-7	,	.	.
d-381-8	if	CONJ	ADP
d-381-9	the	DET	DET
d-381-10	guy's	NOUN	NOUN
d-381-11	doing	VERB	VERB
d-381-12	murders	NOUN	NOUN
d-381-13	--	.	.

d-382-1	homicide	NOUN	X
d-382-2	major	NOUN	PRON
d-382-3	was	VERB	VERB
d-382-4	in	ADP	ADP
d-382-5	the	DET	DET
d-382-6	same	ADJ	ADJ
d-382-7	meeting	NOUN	NOUN
d-382-8	.	.	.

d-383-1	his	DET	DET
d-383-2	people	NOUN	NOUN
d-383-3	will	VERB	VERB
d-383-4	be	VERB	VERB
d-383-5	scrambling	VERB	VERB
d-383-6	to	ADP	ADP
d-383-7	put	VERB	VERB
d-383-8	something	NOUN	NOUN
d-383-9	on	PRT	ADP
d-383-10	paper	NOUN	NOUN
d-383-11	,	.	.
d-383-12	too	ADV	ADV
d-383-13	.	.	.

d-384-1	i	PRON	PRON
d-384-2	doubt	VERB	VERB
d-384-3	they'll	PRON	PRT
d-384-4	be	VERB	VERB
d-384-5	willing	VERB	VERB
d-384-6	to	ADP	ADP
d-384-7	share	VERB	VERB
d-384-8	,	.	.
d-384-9	but	CONJ	CONJ
d-384-10	you	PRON	PRON
d-384-11	can	VERB	VERB
d-384-12	try	VERB	VERB
d-384-13	.	.	.

d-385-1	barksdale	NOUN	NOUN
d-385-2	,	.	.
d-385-3	avon	NOUN	NOUN
d-385-4	.	.	.

d-386-1	got	VERB	VERB
d-386-2	a	DET	DET
d-386-3	dob	NOUN	NOUN
d-386-4	?	.	.

d-387-1	hey	X	PRT
d-387-2	,	.	.
d-387-3	jay	NOUN	NOUN
d-387-4	.	.	.

d-388-1	where	ADV	ADV
d-388-2	the	DET	DET
d-388-3	fuck	NOUN	NOUN
d-388-4	you	PRON	PRON
d-388-5	been	VERB	VERB
d-388-6	all	DET	DET
d-388-7	day	NOUN	NOUN
d-388-8	?	.	.

d-389-1	drinking	VERB	VERB
d-389-2	,	.	.
d-389-3	crack	NOUN	NOUN
d-389-4	smoking	VERB	VERB
d-389-5	?	.	.

d-390-1	whoring	VERB	VERB
d-390-2	myself	PRON	PRON
d-390-3	on	ADP	ADP
d-390-4	the	DET	DET
d-390-5	streets	NOUN	NOUN
d-390-6	of	ADP	ADP
d-390-7	baltimore	NOUN	NOUN
d-390-8	.	.	.

d-391-1	well	X	PRT
d-391-2	,	.	.
d-391-3	okay	ADV	PRT
d-391-4	.	.	.

d-392-1	just	ADV	ADV
d-392-2	so	ADV	ADP
d-392-3	you	PRON	PRON
d-392-4	have	VERB	VERB
d-392-5	an	DET	DET
d-392-6	excuse	NOUN	NOUN
d-392-7	.	.	.

d-393-1	but	CONJ	CONJ
d-393-2	your	DET	DET
d-393-3	fuck	NOUN	NOUN
d-393-4	of	ADP	ADP
d-393-5	a	DET	DET
d-393-6	partner	NOUN	NOUN
d-393-7	picked	VERB	VERB
d-393-8	up	PRT	PRT
d-393-9	the	DET	DET
d-393-10	phone	NOUN	NOUN
d-393-11	,	.	.
d-393-12	caught	VERB	VERB
d-393-13	a	DET	DET
d-393-14	call	NOUN	NOUN
d-393-15	.	.	.

d-394-1	yeah	ADV	PRT
d-394-2	,	.	.
d-394-3	i	PRON	PRON
d-394-4	saw	VERB	VERB
d-394-5	him	PRON	PRON
d-394-6	out	ADP	ADP
d-394-7	there	ADV	ADV
d-394-8	.	.	.

d-395-1	yeah	ADV	PRT
d-395-2	,	.	.
d-395-3	what'd	PRON	PRT
d-395-4	he	PRON	PRON
d-395-5	get	VERB	VERB
d-395-6	?	.	.

d-396-1	decomp	NOUN	NOUN
d-396-2	in	ADP	ADP
d-396-3	a	DET	DET
d-396-4	vacant	ADJ	ADJ
d-396-5	apartment	NOUN	NOUN
d-396-6	.	.	.

d-397-1	fuck	X	NOUN
d-397-2	!	.	.

d-398-1	nolan's	DET	NOUN
d-398-2	squad	NOUN	NOUN
d-398-3	was	VERB	VERB
d-398-4	up	PRT	PRT
d-398-5	,	.	.
d-398-6	that	DET	DET
d-398-7	one	NOUN	NOUN
d-398-8	should	VERB	VERB
d-398-9	be	VERB	VERB
d-398-10	theirs	PRON	NOUN
d-398-11	.	.	.

d-399-1	hey	X	PRT
d-399-2	,	.	.
d-399-3	it's	PRON	PRT
d-399-4	a	DET	DET
d-399-5	decomp	NOUN	NOUN
d-399-6	.	.	.

d-400-1	maybe	ADV	ADV
d-400-2	it	PRON	PRON
d-400-3	comes	VERB	VERB
d-400-4	back	PRT	PRT
d-400-5	a	DET	DET
d-400-6	natural	ADJ	NOUN
d-400-7	death	NOUN	NOUN
d-400-8	.	.	.

d-401-1	-	.	.
d-401-2	you	PRON	PRON
d-401-3	think	VERB	VERB
d-401-4	?	.	.

d-402-1	-	.	.
d-402-2	in	ADP	ADP
d-402-3	the	DET	DET
d-402-4	poe	NOUN	NOUN
d-402-5	homes	NOUN	NOUN
d-402-6	,	.	.
d-402-7	no	DET	DET
d-402-8	fucking	ADJ	ADJ
d-402-9	way	NOUN	NOUN
d-402-10	.	.	.

d-403-1	hold	VERB	VERB
d-403-2	up	PRT	PRT
d-403-3	.	.	.

d-404-1	major	NOUN	ADJ
d-404-2	wants	VERB	NOUN
d-404-3	to	ADP	ADP
d-404-4	talk	VERB	VERB
d-404-5	to	ADP	ADP
d-404-6	you	PRON	PRON
d-404-7	before	ADP	ADP
d-404-8	you	PRON	PRON
d-404-9	roll	VERB	VERB
d-404-10	out	PRT	PRT
d-404-11	.	.	.

d-405-1	what	PRON	PRON
d-405-2	about	ADP	ADP
d-405-3	?	.	.

d-406-1	fuck	NOUN	NOUN
d-406-2	should	VERB	VERB
d-406-3	i	PRON	PRON
d-406-4	know	VERB	VERB
d-406-5	?	.	.
d-406-6	i'm	PRON	PRT
d-406-7	only	ADV	ADJ
d-406-8	your	DET	DET
d-406-9	sergeant	NOUN	NOUN
d-406-10	.	.	.

d-407-1	sit	VERB	VERB
d-407-2	the	DET	DET
d-407-3	fuck	NOUN	NOUN
d-407-4	down	PRT	NOUN
d-407-5	,	.	.
d-407-6	detective	NOUN	NOUN
d-407-7	.	.	.

d-408-1	something	PRON	NOUN
d-408-2	wrong	ADJ	ADJ
d-408-3	?	.	.

d-409-1	put	VERB	VERB
d-409-2	your	DET	DET
d-409-3	ass	NOUN	NOUN
d-409-4	in	ADP	ADP
d-409-5	the	DET	DET
d-409-6	chair	NOUN	NOUN
d-409-7	.	.	.

d-410-1	you	PRON	PRON
d-410-2	see	VERB	VERB
d-410-3	these	PRON	DET
d-410-4	,	.	.
d-410-5	mcnulty	NOUN	NOUN
d-410-6	?	.	.
d-410-7	you	PRON	PRON
d-410-8	see	VERB	VERB
d-410-9	'em	PRON	NOUN
d-410-10	?	.	.

d-411-1	these	PRON	PRON
d-411-2	are	VERB	VERB
d-411-3	for	ADP	ADP
d-411-4	you	PRON	PRON
d-411-5	.	.	.

d-412-1	these	PRON	PRON
d-412-2	are	VERB	VERB
d-412-3	for	ADP	ADP
d-412-4	you	PRON	PRON
d-412-5	for	ADP	ADP
d-412-6	as	ADP	ADV
d-412-7	long	ADJ	ADJ
d-412-8	as	ADP	ADP
d-412-9	it	PRON	PRON
d-412-10	takes	VERB	VERB
d-412-11	me	PRON	PRON
d-412-12	to	ADP	ADP
d-412-13	get	VERB	VERB
d-412-14	even	PRT	ADV
d-412-15	.	.	.

d-413-1	major	NOUN	ADJ
d-413-2	,	.	.
d-413-3	what	PRON	PRON
d-413-4	--	.	X

d-414-1	don't	VERB	VERB
d-414-2	"	.	.
d-414-3	major	VERB	VERB
d-414-4	"	.	.
d-414-5	me	PRON	PRON
d-414-6	,	.	.
d-414-7	you	PRON	PRON
d-414-8	back-stabbing	NOUN	VERB
d-414-9	,	.	.
d-414-10	smartass	NOUN	NOUN
d-414-11	piece	NOUN	NOUN
d-414-12	of	ADP	ADP
d-414-13	shit	NOUN	NOUN
d-414-14	.	.	.

d-415-1	what	PRON	PRON
d-415-2	the	DET	DET
d-415-3	fuck	NOUN	NOUN
d-415-4	you	PRON	PRON
d-415-5	doing	VERB	VERB
d-415-6	over	ADP	ADP
d-415-7	at	ADP	ADP
d-415-8	the	DET	DET
d-415-9	courthouse	NOUN	NOUN
d-415-10	anyway	ADV	NOUN
d-415-11	?	.	.

d-416-1	why	ADV	ADV
d-416-2	the	DET	DET
d-416-3	fuck	NOUN	NOUN
d-416-4	are	VERB	VERB
d-416-5	you	PRON	PRON
d-416-6	talking	VERB	VERB
d-416-7	to	ADP	ADP
d-416-8	some	DET	DET
d-416-9	shitbag	ADJ	NOUN
d-416-10	judge	NOUN	NOUN
d-416-11	?	.	.

d-417-1	these	PRON	PRON
d-417-2	are	VERB	VERB
d-417-3	for	ADP	ADP
d-417-4	you	PRON	PRON
d-417-5	,	.	.
d-417-6	mcnulty	NOUN	NOUN
d-417-7	.	.	.

d-418-1	this	DET	DET
d-418-2	one	NOUN	NUM
d-418-3	over	ADP	ADP
d-418-4	here	ADV	ADV
d-418-5	is	VERB	VERB
d-418-6	going	VERB	VERB
d-418-7	up	ADP	PRT
d-418-8	your	DET	DET
d-418-9	narrow	ADJ	NOUN
d-418-10	fucking	ADJ	ADV
d-418-11	irish	ADJ	ADJ
d-418-12	ass	NOUN	NOUN
d-418-13	.	.	.

d-419-1	and	CONJ	CONJ
d-419-2	this	DET	DET
d-419-3	bad	ADJ	ADJ
d-419-4	boy	NOUN	NOUN
d-419-5	over	ADP	ADP
d-419-6	here	ADV	ADV
d-419-7	is	VERB	VERB
d-419-8	in	ADP	ADP
d-419-9	your	DET	DET
d-419-10	fucking	ADJ	ADJ
d-419-11	eye	NOUN	NOUN
d-419-12	.	.	.

d-420-1	i'm	PRON	PRT
d-420-2	upstairs	NOUN	ADJ
d-420-3	answering	VERB	VERB
d-420-4	questions	NOUN	NOUN
d-420-5	about	ADP	ADP
d-420-6	some	DET	DET
d-420-7	project	NOUN	ADJ
d-420-8	nigger	NOUN	NOUN
d-420-9	i	PRON	PRON
d-420-10	never	ADV	ADV
d-420-11	even	ADV	ADV
d-420-12	heard	VERB	VERB
d-420-13	of	ADP	ADP
d-420-14	who's	PRON	PRT
d-420-15	supposed	VERB	ADJ
d-420-16	to	ADP	ADP
d-420-17	have	VERB	VERB
d-420-18	beat	VERB	VERB
d-420-19	my	DET	DET
d-420-20	unit	NOUN	NOUN
d-420-21	out	PRT	ADP
d-420-22	of	ADP	ADP
d-420-23	!digits	NUM	NUM
d-420-24	murders	NOUN	NOUN
d-420-25	.	.	.

d-421-1	three	NUM	NUM
d-421-2	.	.	.

d-422-1	they	PRON	PRON
d-422-2	only	ADJ	ADV
d-422-3	beat	VERB	VERB
d-422-4	three	NUM	NOUN
d-422-5	in	ADP	ADP
d-422-6	court	NOUN	NOUN
d-422-7	.	.	.

d-423-1	i	PRON	PRON
d-423-2	got	VERB	VERB
d-423-3	the	DET	DET
d-423-4	deputy	NOUN	NOUN
d-423-5	asking	VERB	VERB
d-423-6	about	ADP	ADP
d-423-7	!digits	NUM	NUM
d-423-8	.	.	.

d-424-1	no	ADV	PRT
d-424-2	,	.	.
d-424-3	they	PRON	PRON
d-424-4	did	VERB	VERB
d-424-5	!digits	NUM	NUM
d-424-6	,	.	.
d-424-7	we	PRON	PRON
d-424-8	only	ADJ	ADV
d-424-9	charged	VERB	VERB
d-424-10	them	PRON	PRON
d-424-11	with	ADP	ADP
d-424-12	three	NUM	NOUN
d-424-13	.	.	.

d-425-1	you're	PRON	PRT
d-425-2	full	ADJ	ADJ
d-425-3	of	ADP	ADP
d-425-4	shit	NOUN	NOUN
d-425-5	.	.	.

d-426-1	well	X	PRT
d-426-2	,	.	.
d-426-3	sir	NOUN	NOUN
d-426-4	,	.	.
d-426-5	you	PRON	PRON
d-426-6	can	VERB	VERB
d-426-7	check	VERB	VERB
d-426-8	the	DET	DET
d-426-9	files	NOUN	NOUN
d-426-10	.	.	.

d-427-1	maurice	NOUN	NOUN
d-427-2	scroggins	NOUN	NOUN
d-427-3	,	.	.
d-427-4	toreen	NOUN	NOUN
d-427-5	boyd	NOUN	NOUN
d-427-6	,	.	.
d-427-7	roland	NOUN	NOUN
d-427-8	leggett	NOUN	NOUN
d-427-9	,	.	.
d-427-10	what's	PRON	PRT
d-427-11	her	DET	DET
d-427-12	name	NOUN	NOUN
d-427-13	,	.	.
d-427-14	the	DET	DET
d-427-15	girl	NOUN	NOUN
d-427-16	they	PRON	PRON
d-427-17	found	VERB	VERB
d-427-18	in	ADP	ADP
d-427-19	the	DET	DET
d-427-20	stairwell	NOUN	NOUN
d-427-21	on	ADP	ADP
d-427-22	saratoga	NOUN	NOUN
d-427-23	,	.	.
d-427-24	collette	NOUN	NOUN
d-427-25	something	NOUN	NOUN
d-427-26	or	CONJ	CONJ
d-427-27	other	NOUN	ADJ
d-427-28	.	.	.

d-428-1	i	PRON	PRON
d-428-2	mean	VERB	VERB
d-428-3	,	.	.
d-428-4	major	NOUN	ADJ
d-428-5	,	.	.
d-428-6	these	DET	DET
d-428-7	guys	NOUN	NOUN
d-428-8	are	VERB	VERB
d-428-9	real	ADJ	ADJ
d-428-10	.	.	.

d-429-1	they	PRON	PRON
d-429-2	beat	VERB	VERB
d-429-3	me	PRON	PRON
d-429-4	up	PRT	PRT
d-429-5	on	ADP	ADP
d-429-6	the	DET	DET
d-429-7	gerard	NOUN	NOUN
d-429-8	bogue	NOUN	NOUN
d-429-9	case	NOUN	NOUN
d-429-10	just	ADV	ADV
d-429-11	like	ADP	ADP
d-429-12	they	PRON	PRON
d-429-13	did	VERB	VERB
d-429-14	barlow	NOUN	NOUN
d-429-15	.	.	.

d-430-1	scroggins	NOUN	NOUN
d-430-2	?	.	.

d-431-1	i	PRON	PRON
d-431-2	don't	VERB	VERB
d-431-3	have	VERB	VERB
d-431-4	an	DET	DET
d-431-5	h-file	NOUN	NOUN
d-431-6	on	ADP	ADP
d-431-7	scroggins	NOUN	NOUN
d-431-8	.	.	.

d-432-1	he	PRON	PRON
d-432-2	was	VERB	VERB
d-432-3	last	ADJ	ADJ
d-432-4	year	NOUN	NOUN
d-432-5	,	.	.
d-432-6	summer	NOUN	NOUN
d-432-7	.	.	.

d-433-1	two	NUM	NUM
d-433-2	in	ADP	ADP
d-433-3	the	DET	DET
d-433-4	back	NOUN	NOUN
d-433-5	of	ADP	ADP
d-433-6	the	DET	DET
d-433-7	head	NOUN	NOUN
d-433-8	,	.	.
d-433-9	low-rise	NOUN	NOUN
d-433-10	courtyard	NOUN	NOUN
d-433-11	.	.	.

d-434-1	let	VERB	VERB
d-434-2	me	PRON	PRON
d-434-3	understand	VERB	VERB
d-434-4	something	PRON	NOUN
d-434-5	.	.	.

d-435-1	you	PRON	PRON
d-435-2	are	VERB	VERB
d-435-3	having	VERB	VERB
d-435-4	the	DET	DET
d-435-5	deputy	NOUN	NOUN
d-435-6	bust	VERB	VERB
d-435-7	my	DET	DET
d-435-8	balls	NOUN	NOUN
d-435-9	over	ADP	ADP
d-435-10	a	DET	DET
d-435-11	prior-year	NOUN	NOUN
d-435-12	case	NOUN	NOUN
d-435-13	?	.	.

d-436-1	is	VERB	VERB
d-436-2	this	PRON	DET
d-436-3	what	PRON	PRON
d-436-4	i	PRON	PRON
d-436-5	need	VERB	VERB
d-436-6	from	ADP	ADP
d-436-7	you	PRON	PRON
d-436-8	,	.	.
d-436-9	you	PRON	PRON
d-436-10	insubordinate	ADJ	VERB
d-436-11	little	ADJ	ADJ
d-436-12	fuck	NOUN	NOUN
d-436-13	?	.	.

d-437-1	major	NOUN	ADJ
d-437-2	,	.	.
d-437-3	look	VERB	NOUN
d-437-4	,	.	.
d-437-5	i'm	PRON	PRT
d-437-6	really	ADV	ADV
d-437-7	sorry	ADJ	ADJ
d-437-8	.	.	.

d-438-1	phelan	NOUN	NOUN
d-438-2	,	.	.
d-438-3	he	PRON	PRON
d-438-4	and	CONJ	CONJ
d-438-5	i	PRON	PRON
d-438-6	,	.	.
d-438-7	we	PRON	PRON
d-438-8	go	VERB	VERB
d-438-9	back	PRT	ADV
d-438-10	a	DET	DET
d-438-11	little	ADJ	ADJ
d-438-12	,	.	.
d-438-13	you	PRON	PRON
d-438-14	know	VERB	VERB
d-438-15	?	.	.

d-439-1	he	PRON	PRON
d-439-2	wanted	VERB	VERB
d-439-3	to	ADP	ADP
d-439-4	know	VERB	VERB
d-439-5	what	PRON	PRON
d-439-6	i	PRON	PRON
d-439-7	know	VERB	VERB
d-439-8	about	ADP	ADP
d-439-9	the	DET	DET
d-439-10	crew	NOUN	NOUN
d-439-11	in	ADP	ADP
d-439-12	his	DET	DET
d-439-13	court	NOUN	NOUN
d-439-14	.	.	.

d-440-1	i	PRON	PRON
d-440-2	didn't	VERB	VERB
d-440-3	mean	VERB	VERB
d-440-4	to	ADP	ADP
d-440-5	cross	VERB	VERB
d-440-6	you	PRON	PRON
d-440-7	up	PRT	PRT
d-440-8	--	.	.

d-441-1	i	PRON	PRON
d-441-2	had	VERB	VERB
d-441-3	to	ADP	ADP
d-441-4	go	VERB	VERB
d-441-5	upstairs	NOUN	ADJ
d-441-6	knowing	VERB	NOUN
d-441-7	nothing	PRON	NOUN
d-441-8	and	CONJ	CONJ
d-441-9	explain	VERB	ADV
d-441-10	to	ADP	ADP
d-441-11	the	DET	DET
d-441-12	deputy	NOUN	NOUN
d-441-13	why	ADV	ADV
d-441-14	he's	PRON	PRT
d-441-15	getting	VERB	VERB
d-441-16	calls	VERB	VERB
d-441-17	about	ADP	ADP
d-441-18	murders	NOUN	NOUN
d-441-19	that	PRON	PRON
d-441-20	don't	VERB	VERB
d-441-21	mean	VERB	VERB
d-441-22	a	DET	DET
d-441-23	shit	NOUN	NOUN
d-441-24	to	ADP	ADP
d-441-25	anybody	PRON	NOUN
d-441-26	.	.	.

d-442-1	look	VERB	VERB
d-442-2	,	.	.
d-442-3	sir	NOUN	NOUN
d-442-4	,	.	.
d-442-5	this	DET	DET
d-442-6	judge	NOUN	NOUN
d-442-7	,	.	.
d-442-8	he	PRON	PRON
d-442-9	fucks	VERB	VERB
d-442-10	me	PRON	PRON
d-442-11	up	PRT	PRT
d-442-12	.	.	.

d-443-1	he	PRON	PRON
d-443-2	asks	VERB	VERB
d-443-3	me	PRON	PRON
d-443-4	a	DET	DET
d-443-5	question	NOUN	NOUN
d-443-6	and	CONJ	CONJ
d-443-7	i	PRON	PRON
d-443-8	answer	VERB	VERB
d-443-9	it	PRON	PRON
d-443-10	.	.	.

d-444-1	i	PRON	PRON
d-444-2	didn't	VERB	VERB
d-444-3	know	VERB	VERB
d-444-4	he	PRON	PRON
d-444-5	was	VERB	VERB
d-444-6	gonna	VERB	VERB
d-444-7	call	VERB	VERB
d-444-8	anybody	PRON	NOUN
d-444-9	.	.	.

d-445-1	you	PRON	PRON
d-445-2	have	VERB	VERB
d-445-3	my	DET	DET
d-445-4	attention	NOUN	NOUN
d-445-5	,	.	.
d-445-6	detective	NOUN	ADJ
d-445-7	.	.	.

d-446-1	my	DET	DET
d-446-2	complete	ADJ	NOUN
d-446-3	,	.	.
d-446-4	undivided	ADJ	ADJ
d-446-5	attention	NOUN	NOUN
d-446-6	.	.	.

d-447-1	yes	ADV	PRT
d-447-2	,	.	.
d-447-3	sir	NOUN	NOUN
d-447-4	.	.	.

d-448-1	where	ADV	ADV
d-448-2	you	PRON	PRON
d-448-3	going	VERB	VERB
d-448-4	?	.	.

d-449-1	i'm	PRON	PRT
d-449-2	eight-to-four	NOUN	NOUN
d-449-3	.	.	.

d-450-1	no	ADV	PRT
d-450-2	.	.	.

d-451-1	you're	PRON	PRT
d-451-2	typing	VERB	VERB
d-451-3	.	.	.

d-452-1	sir	NOUN	NOUN
d-452-2	?	.	.

d-453-1	deputy	NOUN	NOUN
d-453-2	wants	VERB	VERB
d-453-3	a	DET	DET
d-453-4	report	NOUN	NOUN
d-453-5	on	ADP	ADP
d-453-6	his	DET	DET
d-453-7	desk	NOUN	NOUN
d-453-8	at	ADP	ADP
d-453-9	!digits	NUM	NUM
d-453-10	.	.	.

d-454-1	a	DET	DET
d-454-2	report	NOUN	NOUN
d-454-3	?	.	.

d-455-1	clean	ADJ	NOUN
d-455-2	,	.	.
d-455-3	no	DET	DET
d-455-4	typos	NOUN	NOUN
d-455-5	.	.	.

d-456-1	make	VERB	VERB
d-456-2	it	PRON	PRON
d-456-3	look	VERB	VERB
d-456-4	right	ADJ	ADV
d-456-5	,	.	.
d-456-6	then	ADV	ADV
d-456-7	put	VERB	VERB
d-456-8	my	DET	DET
d-456-9	name	NOUN	NOUN
d-456-10	on	ADP	ADP
d-456-11	it	PRON	PRON
d-456-12	.	.	.

d-457-1	do	VERB	VERB
d-457-2	you	PRON	PRON
d-457-3	want	VERB	VERB
d-457-4	to	ADP	ADP
d-457-5	reference	VERB	VERB
d-457-6	all	DET	PRT
d-457-7	the	DET	DET
d-457-8	murders	NOUN	NOUN
d-457-9	?	.	.

d-458-1	or	CONJ	CONJ
d-458-2	should	VERB	VERB
d-458-3	i	PRON	PRON
d-458-4	soft-pedal	VERB	VERB
d-458-5	that	PRON	PRON
d-458-6	?	.	.

d-459-1	fucking	ADJ	ADJ
d-459-2	horse	NOUN	NOUN
d-459-3	is	VERB	VERB
d-459-4	out	ADP	ADP
d-459-5	the	DET	DET
d-459-6	barn	NOUN	NOUN
d-459-7	door	NOUN	NOUN
d-459-8	,	.	.
d-459-9	right	ADJ	ADV
d-459-10	?	.	.

d-460-1	let's	VERB	PRT
d-460-2	try	VERB	VERB
d-460-3	not	ADV	ADV
d-460-4	to	ADP	ADP
d-460-5	make	VERB	VERB
d-460-6	me	PRON	PRON
d-460-7	look	VERB	VERB
d-460-8	stupid	ADJ	ADJ
d-460-9	twice	NUM	NOUN
d-460-10	.	.	.

d-461-1	and	CONJ	CONJ
d-461-2	when	ADV	ADV
d-461-3	you	PRON	PRON
d-461-4	list	VERB	VERB
d-461-5	the	DET	DET
d-461-6	cases	NOUN	NOUN
d-461-7	,	.	.
d-461-8	put	VERB	VERB
d-461-9	a	DET	DET
d-461-10	little	ADJ	ADJ
d-461-11	dot	NOUN	NOUN
d-461-12	next	ADJ	ADJ
d-461-13	to	ADP	ADP
d-461-14	each	ADJ	VERB
d-461-15	one	NOUN	NUM
d-461-16	.	.	.

d-462-1	deputy	NOUN	NOUN
d-462-2	likes	VERB	NOUN
d-462-3	dots	NOUN	NOUN
d-462-4	.	.	.

d-463-1	i'm	PRON	PRT
d-463-2	sorry	ADJ	ADJ
d-463-3	,	.	.
d-463-4	major	NOUN	ADJ
d-463-5	,	.	.
d-463-6	really	ADV	ADV
d-463-7	.	.	.

d-464-1	niggers	NOUN	NOUN
d-464-2	crazy	ADJ	ADJ
d-464-3	in	ADP	ADP
d-464-4	there	ADP	ADV
d-464-5	,	.	.
d-464-6	yo	X	PRT
d-464-7	.	.	.

d-465-1	eastside	NOUN	NOUN
d-465-2	,	.	.
d-465-3	westside	NOUN	NOUN
d-465-4	,	.	.
d-465-5	everybody	PRON	NOUN
d-465-6	beefin'	VERB	NOUN
d-465-7	.	.	.

d-466-1	you	PRON	PRON
d-466-2	ain't	VERB	VERB
d-466-3	have	VERB	VERB
d-466-4	no	DET	DET
d-466-5	problem	NOUN	NOUN
d-466-6	,	.	.
d-466-7	right	ADJ	ADV
d-466-8	?	.	.

d-467-1	hell	X	NOUN
d-467-2	,	.	.
d-467-3	naw	ADV	PRT
d-467-4	,	.	.
d-467-5	we	PRON	PRON
d-467-6	deep	ADJ	VERB
d-467-7	in	ADP	ADP
d-467-8	there	ADP	ADV
d-467-9	.	.	.

d-468-1	hmm	X	PRT
d-468-2	.	.	.

d-469-1	y'all	PRON	PRON
d-469-2	deep	ADJ	ADJ
d-469-3	down	ADP	ADV
d-469-4	at	ADP	ADP
d-469-5	the	DET	DET
d-469-6	courthouse	NOUN	NOUN
d-469-7	,	.	.
d-469-8	too	ADV	ADV
d-469-9	.	.	.

d-470-1	sittin'	VERB	NOUN
d-470-2	there	ADP	ADV
d-470-3	,	.	.
d-470-4	i	PRON	PRON
d-470-5	didn't	VERB	VERB
d-470-6	know	VERB	VERB
d-470-7	what	PRON	PRON
d-470-8	the	DET	DET
d-470-9	fuck	NOUN	NOUN
d-470-10	was	VERB	VERB
d-470-11	gonna	VERB	VERB
d-470-12	happen	VERB	VERB
d-470-13	.	.	.

d-471-1	i'm	PRON	PRT
d-471-2	wondering	VERB	VERB
d-471-3	,	.	.
d-471-4	how	ADV	ADV
d-471-5	y'all	PRON	PRON
d-471-6	gonna	VERB	VERB
d-471-7	make	VERB	VERB
d-471-8	it	PRON	PRON
d-471-9	happen	VERB	VERB
d-471-10	for	ADP	ADP
d-471-11	me	PRON	PRON
d-471-12	,	.	.
d-471-13	you	PRON	PRON
d-471-14	know	VERB	VERB
d-471-15	?	.	.

d-472-1	slick	ADJ	VERB
d-472-2	what	PRON	PRON
d-472-3	y'all	PRON	PRON
d-472-4	did	VERB	VERB
d-472-5	with	ADP	ADP
d-472-6	that	DET	DET
d-472-7	security	NOUN	NOUN
d-472-8	lady	NOUN	NOUN
d-472-9	though	ADV	ADP
d-472-10	.	.	.

d-473-1	that	DET	DET
d-473-2	shit	NOUN	NOUN
d-473-3	was	VERB	VERB
d-473-4	tight	ADJ	ADV
d-473-5	,	.	.
d-473-6	yo	X	PRT
d-473-7	.	.	.

d-474-1	let's	VERB	PRT
d-474-2	walk	VERB	VERB
d-474-3	.	.	.

d-475-1	what's	PRON	PRT
d-475-2	the	DET	DET
d-475-3	rule	NOUN	NOUN
d-475-4	?	.	.

d-476-1	i	PRON	PRON
d-476-2	know	VERB	VERB
d-476-3	the	DET	DET
d-476-4	rule	NOUN	NOUN
d-476-5	.	.	.

d-477-1	say	VERB	VERB
d-477-2	it	PRON	PRON
d-477-3	.	.	.

d-478-1	don't	VERB	VERB
d-478-2	talk	VERB	VERB
d-478-3	in	ADP	ADP
d-478-4	the	DET	DET
d-478-5	car	NOUN	NOUN
d-478-6	.	.	.

d-479-1	or	CONJ	CONJ
d-479-2	on	ADP	ADP
d-479-3	the	DET	DET
d-479-4	phone	NOUN	NOUN
d-479-5	or	CONJ	CONJ
d-479-6	in	ADP	ADP
d-479-7	any	DET	DET
d-479-8	place	NOUN	NOUN
d-479-9	that	CONJ	PRON
d-479-10	ain't	VERB	VERB
d-479-11	ours	PRON	PRON
d-479-12	.	.	.

d-480-1	and	CONJ	CONJ
d-480-2	don't	VERB	VERB
d-480-3	say	VERB	VERB
d-480-4	shit	NOUN	NOUN
d-480-5	to	ADP	ADP
d-480-6	anybody	PRON	NOUN
d-480-7	who	PRON	PRON
d-480-8	ain't	VERB	VERB
d-480-9	us	PRON	PRON
d-480-10	.	.	.

d-481-1	but	CONJ	CONJ
d-481-2	it	PRON	PRON
d-481-3	was	VERB	VERB
d-481-4	just	ADV	ADV
d-481-5	you	PRON	PRON
d-481-6	,	.	.
d-481-7	yo	X	PRT
d-481-8	.	.	.

d-482-1	it's	PRON	PRT
d-482-2	your	DET	DET
d-482-3	fucking	ADJ	ADJ
d-482-4	truck	NOUN	NOUN
d-482-5	.	.	.

d-483-1	don't	VERB	VERB
d-483-2	talk	VERB	VERB
d-483-3	in	ADP	ADP
d-483-4	the	DET	DET
d-483-5	car	NOUN	NOUN
d-483-6	.	.	.

d-484-1	what	PRON	PRON
d-484-2	about	ADP	ADP
d-484-3	marcel	NOUN	NOUN
d-484-4	?	.	.

d-485-1	no	ADV	PRT
d-485-2	,	.	.
d-485-3	i	PRON	PRON
d-485-4	ain't	VERB	VERB
d-485-5	invitin'	VERB	VERB
d-485-6	marcel	NOUN	NOUN
d-485-7	.	.	.

d-486-1	you	PRON	PRON
d-486-2	want	VERB	VERB
d-486-3	him	PRON	PRON
d-486-4	out	ADP	PRT
d-486-5	?	.	.

d-487-1	i	PRON	PRON
d-487-2	really	ADV	ADV
d-487-3	don't	VERB	VERB
d-487-4	give	VERB	VERB
d-487-5	a	DET	DET
d-487-6	shit	NOUN	NOUN
d-487-7	what	PRON	PRON
d-487-8	you	PRON	PRON
d-487-9	do	VERB	VERB
d-487-10	.	.	.

d-488-1	actually	ADV	ADV
d-488-2	,	.	.
d-488-3	no	ADV	PRT
d-488-4	.	.	.

d-489-1	go	VERB	VERB
d-489-2	down	ADP	ADV
d-489-3	there	ADP	ADV
d-489-4	and	CONJ	CONJ
d-489-5	make	VERB	VERB
d-489-6	that	DET	DET
d-489-7	motherfucker	NOUN	NOUN
d-489-8	pay	VERB	NOUN
d-489-9	for	ADP	ADP
d-489-10	his	DET	DET
d-489-11	drinks	NOUN	NOUN
d-489-12	.	.	.

d-490-1	the	DET	DET
d-490-2	bum	NOUN	NOUN
d-490-3	.	.	.

d-491-1	how	ADV	ADV
d-491-2	you	PRON	PRON
d-491-3	doin'	VERB	VERB
d-491-4	?	.	.

d-492-1	what's	PRON	PRT
d-492-2	up	ADP	PRT
d-492-3	,	.	.
d-492-4	dee	NOUN	NOUN
d-492-5	,	.	.
d-492-6	good	ADJ	ADJ
d-492-7	to	ADP	ADP
d-492-8	see	VERB	VERB
d-492-9	you	PRON	PRON
d-492-10	.	.	.

d-493-1	what	PRON	PRON
d-493-2	up	PRT	PRT
d-493-3	,	.	.
d-493-4	man	NOUN	NOUN
d-493-5	?	.	.
d-493-6	ain't	VERB	VERB
d-493-7	seen	VERB	VERB
d-493-8	you	PRON	PRON
d-493-9	in	ADP	ADP
d-493-10	a	DET	DET
d-493-11	long	ADJ	ADJ
d-493-12	time	NOUN	NOUN
d-493-13	.	.	.

d-494-1	yo	X	PRT
d-494-2	,	.	.
d-494-3	you	PRON	PRON
d-494-4	remember	VERB	VERB
d-494-5	the	DET	DET
d-494-6	cop	NOUN	NOUN
d-494-7	that	PRON	ADP
d-494-8	tried	VERB	VERB
d-494-9	to	ADP	ADP
d-494-10	pin	VERB	VERB
d-494-11	gerard	NOUN	NOUN
d-494-12	on	ADP	ADP
d-494-13	little	NOUN	ADJ
d-494-14	kevin	NOUN	NOUN
d-494-15	?	.	.

d-495-1	which	ADJ	DET
d-495-2	one	NOUN	NUM
d-495-3	?	.	.

d-496-1	white	ADJ	ADJ
d-496-2	detective	NOUN	NOUN
d-496-3	,	.	.
d-496-4	black	ADJ	ADJ
d-496-5	hair	NOUN	NOUN
d-496-6	.	.	.

d-497-1	the	DET	DET
d-497-2	one	NOUN	NUM
d-497-3	that	PRON	PRON
d-497-4	was	VERB	VERB
d-497-5	knocking	VERB	VERB
d-497-6	on	PRT	ADP
d-497-7	all	DET	DET
d-497-8	the	DET	DET
d-497-9	doors	NOUN	NOUN
d-497-10	.	.	.

d-498-1	what	PRON	PRON
d-498-2	about	ADP	ADP
d-498-3	him	PRON	PRON
d-498-4	?	.	.

d-499-1	he	PRON	PRON
d-499-2	showed	VERB	VERB
d-499-3	up	PRT	PRT
d-499-4	in	ADP	ADP
d-499-5	court	NOUN	NOUN
d-499-6	to	ADP	ADP
d-499-7	watch	VERB	VERB
d-499-8	.	.	.

d-500-1	word	ADV	NOUN
d-500-2	?	.	.

d-501-1	what	PRON	PRON
d-501-2	are	VERB	VERB
d-501-3	you	PRON	PRON
d-501-4	talkin'	VERB	VERB
d-501-5	to	ADP	ADP
d-501-6	that	DET	DET
d-501-7	motherfucker	NOUN	NOUN
d-501-8	for	ADP	ADP
d-501-9	?	.	.

d-502-1	damn	ADJ	PRT
d-502-2	,	.	.
d-502-3	dee	NOUN	NOUN
d-502-4	.	.	.

d-503-1	he	PRON	PRON
d-503-2	say	VERB	VERB
d-503-3	anything	PRON	NOUN
d-503-4	?	.	.

d-504-1	naw	ADV	PRT
d-504-2	,	.	.
d-504-3	just	ADV	ADV
d-504-4	sat	VERB	VERB
d-504-5	in	ADP	ADP
d-504-6	the	DET	DET
d-504-7	back	NOUN	NOUN
d-504-8	.	.	.

d-505-1	yo	X	PRT
d-505-2	,	.	.
d-505-3	what	PRON	PRON
d-505-4	up	PRT	PRT
d-505-5	?	.	.

d-506-1	wee-bey	NOUN	NOUN
d-506-2	,	.	.
d-506-3	yo	X	PRT
d-506-4	,	.	.
d-506-5	what	PRON	PRON
d-506-6	you	PRON	PRON
d-506-7	got	VERB	VERB
d-506-8	?	.	.

d-507-1	c'mon	VERB	NOUN
d-507-2	,	.	.
d-507-3	i	PRON	PRON
d-507-4	got	VERB	VERB
d-507-5	something	PRON	NOUN
d-507-6	for	ADP	ADP
d-507-7	you	PRON	PRON
d-507-8	.	.	.

d-508-1	you	PRON	PRON
d-508-2	must	VERB	VERB
d-508-3	feel	VERB	VERB
d-508-4	good	ADJ	ADJ
d-508-5	.	.	.

d-509-1	you	PRON	PRON
d-509-2	know	VERB	VERB
d-509-3	how	ADV	ADV
d-509-4	that	PRON	ADP
d-509-5	go	VERB	VERB
d-509-6	.	.	.

d-510-1	say	VERB	VERB
d-510-2	what	PRON	PRON
d-510-3	?	.	.

d-511-1	i'm	PRON	PRT
d-511-2	sayin'	VERB	ADJ
d-511-3	,	.	.
d-511-4	you	PRON	PRON
d-511-5	know	VERB	VERB
d-511-6	,	.	.
d-511-7	jail	NOUN	NOUN
d-511-8	ain't	VERB	VERB
d-511-9	no	DET	DET
d-511-10	joke	NOUN	NOUN
d-511-11	.	.	.

d-512-1	i	PRON	PRON
d-512-2	don't	VERB	VERB
d-512-3	know	VERB	VERB
d-512-4	shit	PRON	NOUN
d-512-5	about	ADP	ADP
d-512-6	jail	NOUN	NOUN
d-512-7	.	.	.

d-513-1	i	PRON	PRON
d-513-2	don't	VERB	VERB
d-513-3	plan	VERB	VERB
d-513-4	on	ADP	ADP
d-513-5	knowing	VERB	VERB
d-513-6	shit	PRON	NOUN
d-513-7	about	ADP	ADP
d-513-8	jail	NOUN	NOUN
d-513-9	,	.	.
d-513-10	you	PRON	PRON
d-513-11	feel	VERB	VERB
d-513-12	me	PRON	PRON
d-513-13	?	.	.

d-514-1	you	PRON	PRON
d-514-2	wanna	VERB	VERB
d-514-3	talk	VERB	VERB
d-514-4	about	ADP	ADP
d-514-5	jail	NOUN	NOUN
d-514-6	though	ADV	NOUN
d-514-7	,	.	.
d-514-8	you	PRON	PRON
d-514-9	can	VERB	VERB
d-514-10	go	VERB	VERB
d-514-11	sit	VERB	VERB
d-514-12	down	PRT	ADV
d-514-13	next	ADP	ADV
d-514-14	to	ADP	ADP
d-514-15	marcel	NOUN	NOUN
d-514-16	.	.	.

d-515-1	he	PRON	PRON
d-515-2	just	ADV	ADV
d-515-3	got	VERB	VERB
d-515-4	home	NOUN	NOUN
d-515-5	.	.	.

d-516-1	true	ADJ	ADJ
d-516-2	,	.	.
d-516-3	you	PRON	PRON
d-516-4	right	ADJ	ADV
d-516-5	.	.	.

d-517-1	sit	VERB	VERB
d-517-2	your	DET	DET
d-517-3	ass	NOUN	NOUN
d-517-4	down	PRT	ADV
d-517-5	.	.	.

d-518-1	i	PRON	PRON
d-518-2	know	VERB	VERB
d-518-3	it	PRON	PRON
d-518-4	ain't	VERB	VERB
d-518-5	go	VERB	VERB
d-518-6	so	ADV	ADV
d-518-7	good	ADV	ADJ
d-518-8	.	.	.

d-519-1	but	CONJ	CONJ
d-519-2	that	DET	DET
d-519-3	nigger	NOUN	NOUN
d-519-4	,	.	.
d-519-5	pooh	NOUN	NOUN
d-519-6	,	.	.
d-519-7	he	PRON	PRON
d-519-8	caught	VERB	VERB
d-519-9	me	PRON	PRON
d-519-10	off	ADP	ADV
d-519-11	guard	NOUN	NOUN
d-519-12	.	.	.

d-520-1	he	PRON	PRON
d-520-2	came	VERB	VERB
d-520-3	at	ADP	ADP
d-520-4	me	PRON	PRON
d-520-5	like	VERB	ADP
d-520-6	he	PRON	PRON
d-520-7	was	VERB	VERB
d-520-8	crazy	ADJ	ADJ
d-520-9	.	.	.

d-521-1	so	CONJ	ADV
d-521-2	,	.	.
d-521-3	you	PRON	PRON
d-521-4	shoot	VERB	VERB
d-521-5	the	DET	DET
d-521-6	motherfucker	NOUN	NOUN
d-521-7	?	.	.

d-522-1	i'm	PRON	PRT
d-522-2	sayin'	VERB	ADJ
d-522-3	,	.	.
d-522-4	it	PRON	PRON
d-522-5	was	VERB	VERB
d-522-6	him	PRON	PRON
d-522-7	or	CONJ	CONJ
d-522-8	me	PRON	PRON
d-522-9	.	.	.

d-523-1	you	PRON	PRON
d-523-2	in	ADP	ADP
d-523-3	our	DET	DET
d-523-4	building	NOUN	NOUN
d-523-5	.	.	.

d-524-1	you	PRON	PRON
d-524-2	got	VERB	VERB
d-524-3	people	NOUN	NOUN
d-524-4	on	ADP	ADP
d-524-5	both	DET	DET
d-524-6	stairs	NOUN	NOUN
d-524-7	.	.	.

d-525-1	you	PRON	PRON
d-525-2	got	VERB	VERB
d-525-3	more	ADJ	ADJ
d-525-4	motherfuckin'	ADJ	ADJ
d-525-5	people	NOUN	NOUN
d-525-6	out	ADP	ADP
d-525-7	in	ADP	ADP
d-525-8	the	DET	DET
d-525-9	court	NOUN	NOUN
d-525-10	.	.	.

d-526-1	and	CONJ	CONJ
d-526-2	you	PRON	PRON
d-526-3	got	VERB	VERB
d-526-4	a	DET	DET
d-526-5	gun	NOUN	NOUN
d-526-6	.	.	.

d-527-1	so	CONJ	ADV
d-527-2	,	.	.
d-527-3	what	PRON	PRON
d-527-4	i'm	PRON	PRT
d-527-5	tryin'	VERB	VERB
d-527-6	to	ADP	ADP
d-527-7	figure	VERB	VERB
d-527-8	out	PRT	PRT
d-527-9	is	VERB	VERB
d-527-10	...	.	.
d-527-11	how	ADP	ADV
d-527-12	the	DET	DET
d-527-13	fuck	NOUN	NOUN
d-527-14	you	PRON	PRON
d-527-15	end	VERB	VERB
d-527-16	up	PRT	PRT
d-527-17	shootin’	VERB	NOUN
d-527-18	this	DET	DET
d-527-19	nigger	NOUN	NOUN
d-527-20	in	ADP	ADP
d-527-21	front	ADP	NOUN
d-527-22	of	ADP	ADP
d-527-23	the	DET	DET
d-527-24	security	NOUN	NOUN
d-527-25	booth	NOUN	NOUN
d-527-26	with	ADP	ADP
d-527-27	all	DET	DET
d-527-28	them	DET	PRON
d-527-29	people	NOUN	NOUN
d-527-30	around	ADP	ADP
d-527-31	?	.	.

d-528-1	i'm	PRON	PRT
d-528-2	sayin'	VERB	ADJ
d-528-3	,	.	.
d-528-4	this	DET	DET
d-528-5	nigger	NOUN	NOUN
d-528-6	was	VERB	VERB
d-528-7	coming	VERB	VERB
d-528-8	at	ADP	ADP
d-528-9	me	PRON	PRON
d-528-10	like	ADP	ADP
d-528-11	--	.	PRON
d-528-12	like	ADP	ADP
d-528-13	he	PRON	PRON
d-528-14	was	VERB	VERB
d-528-15	trying	VERB	VERB
d-528-16	to	ADP	ADP
d-528-17	end	VERB	VERB
d-528-18	me	PRON	PRON
d-528-19	.	.	.

d-529-1	this	PRON	PRON
d-529-2	ain't	VERB	VERB
d-529-3	about	ADP	ADP
d-529-4	him	PRON	PRON
d-529-5	.	.	.

d-530-1	it's	PRON	PRT
