d-530-2	about	ADP	ADP
d-530-3	you	PRON	PRON
d-530-4	.	.	.

d-531-1	you	PRON	PRON
d-531-2	can't	VERB	VERB
d-531-3	play	VERB	VERB
d-531-4	him	PRON	PRON
d-531-5	out	PRT	ADP
d-531-6	of	ADP	ADP
d-531-7	that	DET	DET
d-531-8	lobby	NOUN	NOUN
d-531-9	.	.	.

d-532-1	you	PRON	PRON
d-532-2	can't	VERB	VERB
d-532-3	take	VERB	VERB
d-532-4	a	DET	DET
d-532-5	beating	NOUN	NOUN
d-532-6	neither	ADV	NOUN
d-532-7	.	.	.

d-533-1	so	CONJ	ADV
d-533-2	,	.	.
d-533-3	the	DET	DET
d-533-4	first	ADJ	ADJ
d-533-5	thing	NOUN	NOUN
d-533-6	you	PRON	PRON
d-533-7	do	VERB	VERB
d-533-8	,	.	.
d-533-9	you	PRON	PRON
d-533-10	get	VERB	VERB
d-533-11	all	ADV	DET
d-533-12	emotional	ADJ	ADJ
d-533-13	,	.	.
d-533-14	you	PRON	PRON
d-533-15	pull	VERB	VERB
d-533-16	your	DET	DET
d-533-17	gun	NOUN	NOUN
d-533-18	out	PRT	PRT
d-533-19	,	.	.
d-533-20	you	PRON	PRON
d-533-21	do	VERB	VERB
d-533-22	some	DET	DET
d-533-23	dumb	ADJ	ADJ
d-533-24	shit	NOUN	NOUN
d-533-25	that	CONJ	ADP
d-533-26	now	ADV	ADV
d-533-27	we	PRON	PRON
d-533-28	got	VERB	VERB
d-533-29	to	ADP	ADP
d-533-30	work	VERB	VERB
d-533-31	around	PRT	NOUN
d-533-32	.	.	.

d-534-1	i	PRON	PRON
d-534-2	know	VERB	VERB
d-534-3	.	.	.

d-535-1	yo	X	PRT
d-535-2	.	.	.

d-536-1	you	PRON	PRON
d-536-2	ain't	VERB	VERB
d-536-3	said	VERB	VERB
d-536-4	one	DET	NUM
d-536-5	motherfuckin'	ADJ	ADJ
d-536-6	thing	NOUN	NOUN
d-536-7	i	PRON	PRON
d-536-8	want	VERB	VERB
d-536-9	to	ADP	ADP
d-536-10	hear	VERB	VERB
d-536-11	.	.	.

d-537-1	you	PRON	PRON
d-537-2	right	ADJ	ADV
d-537-3	,	.	.
d-537-4	you	PRON	PRON
d-537-5	right	ADJ	ADV
d-537-6	.	.	.

d-538-1	i	PRON	PRON
d-538-2	mean	VERB	VERB
d-538-3	,	.	.
d-538-4	i	PRON	PRON
d-538-5	gotta	VERB	VERB
d-538-6	start	VERB	VERB
d-538-7	thinking	VERB	VERB
d-538-8	more	ADJ	ADJ
d-538-9	.	.	.

d-539-1	you	PRON	PRON
d-539-2	be	VERB	VERB
d-539-3	saying	VERB	VERB
d-539-4	that	PRON	ADP
d-539-5	all	DET	DET
d-539-6	the	DET	DET
d-539-7	time	NOUN	NOUN
d-539-8	and	CONJ	CONJ
d-539-9	you	PRON	PRON
d-539-10	right	ADJ	ADV
d-539-11	.	.	.

d-540-1	but	CONJ	CONJ
d-540-2	i'm	PRON	PRT
d-540-3	saying	VERB	VERB
d-540-4	though	ADV	ADV
d-540-5	,	.	.
d-540-6	i	PRON	PRON
d-540-7	mean	VERB	VERB
d-540-8	,	.	.
d-540-9	the	DET	DET
d-540-10	shit	NOUN	NOUN
d-540-11	y'all	PRON	PRON
d-540-12	pulled	VERB	VERB
d-540-13	with	ADP	ADP
d-540-14	that	DET	DET
d-540-15	security	NOUN	NOUN
d-540-16	lady	NOUN	NOUN
d-540-17	.	.	.

d-541-1	it	PRON	PRON
d-541-2	was	VERB	VERB
d-541-3	tight	ADJ	ADV
d-541-4	.	.	.

d-542-1	i	PRON	PRON
d-542-2	mean	VERB	VERB
d-542-3	,	.	.
d-542-4	that	DET	DET
d-542-5	state	NOUN	NOUN
d-542-6	lawyer	NOUN	NOUN
d-542-7	?	.	.

d-543-1	i	PRON	PRON
d-543-2	ain't	VERB	VERB
d-543-3	never	ADV	ADV
d-543-4	seen	VERB	VERB
d-543-5	a	DET	DET
d-543-6	white	ADJ	ADJ
d-543-7	woman	NOUN	NOUN
d-543-8	turn	VERB	VERB
d-543-9	so	ADV	ADV
d-543-10	red	ADJ	ADJ
d-543-11	.	.	.

d-544-1	you	PRON	PRON
d-544-2	should've	VERB	VERB
d-544-3	been	VERB	VERB
d-544-4	there	ADP	PRT
d-544-5	.	.	.

d-545-1	yo	X	PRT
d-545-2	,	.	.
d-545-3	man	NOUN	PRT
d-545-4	,	.	.
d-545-5	you	PRON	PRON
d-545-6	family	NOUN	NOUN
d-545-7	,	.	.
d-545-8	okay	ADV	PRT
d-545-9	?	.	.

d-546-1	but	CONJ	CONJ
d-546-2	that	DET	DET
d-546-3	shit	NOUN	NOUN
d-546-4	cost	VERB	ADJ
d-546-5	money	NOUN	NOUN
d-546-6	.	.	.

d-547-1	it	PRON	PRON
d-547-2	cost	VERB	VERB
d-547-3	time	NOUN	NOUN
d-547-4	and	CONJ	CONJ
d-547-5	money	NOUN	NOUN
d-547-6	.	.	.

d-548-1	you	PRON	PRON
d-548-2	gonna	VERB	VERB
d-548-3	make	VERB	VERB
d-548-4	that	PRON	ADP
d-548-5	right	ADJ	ADV
d-548-6	?	.	.

d-549-1	mos'	ADV	NOUN
d-549-2	def	ADV	NOUN
d-549-3	,	.	.
d-549-4	you	PRON	PRON
d-549-5	gonna	VERB	VERB
d-549-6	see	VERB	VERB
d-549-7	.	.	.

d-550-1	when	ADV	ADV
d-550-2	i	PRON	PRON
d-550-3	get	VERB	VERB
d-550-4	back	PRT	VERB
d-550-5	to	ADP	ADP
d-550-6	the	DET	DET
d-550-7	tower	NOUN	NOUN
d-550-8	,	.	.
d-550-9	i'm	PRON	PRT
d-550-10	gonna	VERB	VERB
d-550-11	push	VERB	VERB
d-550-12	them	DET	DET
d-550-13	niggers	NOUN	NOUN
d-550-14	.	.	.

d-551-1	all	ADJ	DET
d-551-2	right	ADJ	ADJ
d-551-3	.	.	.

d-552-1	hey	ADV	PRT
d-552-2	,	.	.
d-552-3	c'mere	VERB	NOUN
d-552-4	.	.	.

d-553-1	don't	VERB	VERB
d-553-2	walk	VERB	VERB
d-553-3	out	PRT	ADP
d-553-4	of	ADP	ADP
d-553-5	here	ADV	ADV
d-553-6	like	ADP	ADP
d-553-7	that	PRON	PRON
d-553-8	.	.	.

d-554-1	-	.	.
d-554-2	you	PRON	PRON
d-554-3	family	NOUN	ADV
d-554-4	,	.	.
d-554-5	all	ADJ	DET
d-554-6	right	ADJ	ADJ
d-554-7	?	.	.
d-554-8	-	.	.
d-554-9	all	ADJ	DET
d-554-10	right	ADJ	ADJ
d-554-11	.	.	.

d-555-1	-	.	.
d-555-2	you	PRON	PRON
d-555-3	know	VERB	VERB
d-555-4	it's	PRON	PRT
d-555-5	always	ADV	ADV
d-555-6	love	NOUN	NOUN
d-555-7	.	.	.

d-556-1	-	.	.
d-556-2	yeah	ADV	PRT
d-556-3	.	.	.

d-557-1	type	VERB	VERB
d-557-2	quieter	ADV	NOUN
d-557-3	.	.	.

d-558-1	you	PRON	PRON
d-558-2	didn't	VERB	VERB
d-558-3	have	VERB	VERB
d-558-4	to	ADP	ADP
d-558-5	wait	VERB	VERB
d-558-6	up	PRT	PRT
d-558-7	,	.	.
d-558-8	love	NOUN	NOUN
d-558-9	.	.	.

d-559-1	your	DET	DET
d-559-2	boy	NOUN	NOUN
d-559-3	have	VERB	VERB
d-559-4	a	DET	DET
d-559-5	heart	NOUN	NOUN
d-559-6	attack	NOUN	NOUN
d-559-7	?	.	.

d-560-1	naw	ADV	PRT
d-560-2	,	.	.
d-560-3	i	PRON	PRON
d-560-4	went	VERB	VERB
d-560-5	that	DET	DET
d-560-6	way	NOUN	NOUN
d-560-7	,	.	.
d-560-8	but	CONJ	CONJ
d-560-9	doc	NOUN	VERB
d-560-10	frazier	NOUN	ADV
d-560-11	didn't	VERB	VERB
d-560-12	bite	VERB	VERB
d-560-13	when	ADV	ADV
d-560-14	this	PRON	PRON
d-560-15	popped	VERB	VERB
d-560-16	up	PRT	PRT
d-560-17	.	.	.

d-561-1	you	PRON	PRON
d-561-2	seriously	ADV	ADV
d-561-3	fucked	ADJ	VERB
d-561-4	.	.	.

d-562-1	speaking	VERB	VERB
d-562-2	of	ADP	ADP
d-562-3	fucked	ADJ	VERB
d-562-4	,	.	.
d-562-5	why	ADV	ADV
d-562-6	are	VERB	VERB
d-562-7	you	PRON	PRON
d-562-8	here	ADV	ADV
d-562-9	?	.	.

d-563-1	i	PRON	PRON
d-563-2	did	VERB	VERB
d-563-3	bad	ADV	ADJ
d-563-4	,	.	.
d-563-5	bunk	NOUN	NOUN
d-563-6	.	.	.

d-564-1	it	PRON	PRON
d-564-2	wasn't	VERB	VERB
d-564-3	my	DET	DET
d-564-4	fault	NOUN	NOUN
d-564-5	.	.	.

d-565-1	really	ADV	ADV
d-565-2	.	.	.

d-566-1	judge	NOUN	NOUN
d-566-2	phelan	NOUN	NOUN
d-566-3	pulled	VERB	VERB
d-566-4	me	PRON	PRON
d-566-5	up	PRT	PRT
d-566-6	when	ADV	ADV
d-566-7	the	DET	DET
d-566-8	jury	NOUN	NOUN
d-566-9	let	VERB	VERB
d-566-10	the	DET	DET
d-566-11	barksdale	NOUN	ADJ
d-566-12	kid	NOUN	NOUN
d-566-13	go	VERB	VERB
d-566-14	.	.	.

d-567-1	him	PRON	PRON
d-567-2	being	VERB	VERB
d-567-3	a	DET	DET
d-567-4	judge	NOUN	NOUN
d-567-5	and	CONJ	CONJ
d-567-6	all	PRON	DET
d-567-7	,	.	.
d-567-8	i	PRON	PRON
d-567-9	let	VERB	VERB
d-567-10	go	VERB	VERB
d-567-11	of	ADP	ADP
d-567-12	some	DET	DET
d-567-13	shit	NOUN	NOUN
d-567-14	.	.	.

d-568-1	he	PRON	PRON
d-568-2	raise	VERB	VERB
d-568-3	a	DET	DET
d-568-4	stink	NOUN	NOUN
d-568-5	?	.	.

d-569-1	major	NOUN	NOUN
d-569-2	got	VERB	VERB
d-569-3	busted	VERB	VERB
d-569-4	by	ADP	ADP
d-569-5	the	DET	DET
d-569-6	deputy	NOUN	NOUN
d-569-7	ops	NOUN	VERB
d-569-8	and	CONJ	CONJ
d-569-9	i	PRON	PRON
d-569-10	gotta	VERB	VERB
d-569-11	have	VERB	VERB
d-569-12	a	DET	DET
d-569-13	report	NOUN	NOUN
d-569-14	by	ADP	ADP
d-569-15	morning	NOUN	NOUN
d-569-16	.	.	.

d-570-1	there	ADV	PRT
d-570-2	you	PRON	PRON
d-570-3	go	VERB	VERB
d-570-4	,	.	.
d-570-5	giving	VERB	VERB
d-570-6	a	DET	DET
d-570-7	fuck	NOUN	NOUN
d-570-8	when	ADV	ADV
d-570-9	it	PRON	PRON
d-570-10	ain't	VERB	VERB
d-570-11	your	DET	DET
d-570-12	turn	NOUN	NOUN
d-570-13	to	ADP	ADP
d-570-14	give	VERB	VERB
d-570-15	a	DET	DET
d-570-16	fuck	NOUN	NOUN
d-570-17	.	.	.

d-571-1	look	VERB	VERB
d-571-2	at	ADP	ADP
d-571-3	'em	PRON	NUM
d-571-4	,	.	.
d-571-5	cole	NOUN	NOUN
d-571-6	.	.	.

d-572-1	don't	VERB	VERB
d-572-2	it	PRON	PRON
d-572-3	make	VERB	VERB
d-572-4	your	DET	DET
d-572-5	dick	NOUN	NOUN
d-572-6	bust	VERB	NOUN
d-572-7	concrete	NOUN	VERB
d-572-8	to	ADP	ADP
d-572-9	be	VERB	VERB
d-572-10	in	ADP	ADP
d-572-11	the	DET	DET
d-572-12	same	ADJ	ADJ
d-572-13	room	NOUN	NOUN
d-572-14	with	ADP	ADP
d-572-15	two	NUM	NUM
d-572-16	noble	ADJ	NOUN
d-572-17	,	.	.
d-572-18	selfless	ADJ	NOUN
d-572-19	public	NOUN	ADJ
d-572-20	servants	NOUN	NOUN
d-572-21	?	.	.

d-573-1	i	PRON	PRON
d-573-2	know	VERB	VERB
d-573-3	i'm	PRON	PRT
d-573-4	proud	ADJ	ADJ
d-573-5	.	.	.

d-574-1	tell	VERB	VERB
d-574-2	me	PRON	PRON
d-574-3	you	PRON	PRON
d-574-4	put	VERB	VERB
d-574-5	this	DET	DET
d-574-6	one	NOUN	NUM
d-574-7	down	PRT	PRT
d-574-8	.	.	.

d-575-1	'course	ADV	.
d-575-2	not	ADV	ADV
d-575-3	.	.	.

d-576-1	and	CONJ	CONJ
d-576-2	of	ADV	ADP
d-576-3	course	ADV	NOUN
d-576-4	your	DET	DET
d-576-5	partner	NOUN	NOUN
d-576-6	over	ADP	ADP
d-576-7	here	ADV	ADV
d-576-8	has	VERB	VERB
d-576-9	to	ADP	ADP
d-576-10	go	VERB	VERB
d-576-11	over	ADP	ADP
d-576-12	to	ADP	ADP
d-576-13	the	DET	DET
d-576-14	courthouse	NOUN	NOUN
d-576-15	and	CONJ	CONJ
d-576-16	lay	VERB	VERB
d-576-17	our	DET	DET
d-576-18	business	NOUN	NOUN
d-576-19	out	PRT	NOUN
d-576-20	in	ADP	ADP
d-576-21	front	NOUN	NOUN
d-576-22	of	ADP	ADP
d-576-23	a	DET	DET
d-576-24	judge	NOUN	NOUN
d-576-25	.	.	.

d-577-1	so	CONJ	ADV
d-577-2	,	.	.
d-577-3	you	PRON	PRON
d-577-4	heard	VERB	VERB
d-577-5	?	.	.

d-578-1	major	NOUN	NOUN
d-578-2	calls	VERB	VERB
d-578-3	me	PRON	PRON
d-578-4	at	ADP	ADP
d-578-5	home	NOUN	NOUN
d-578-6	,	.	.
d-578-7	says	VERB	VERB
d-578-8	i	PRON	PRON
d-578-9	should	VERB	VERB
d-578-10	get	VERB	VERB
d-578-11	in	ADP	ADP
d-578-12	early	ADJ	NOUN
d-578-13	,	.	.
d-578-14	read	VERB	VERB
d-578-15	over	ADP	ADP
d-578-16	your	DET	DET
d-578-17	shoulder	NOUN	NOUN
d-578-18	.	.	.

d-579-1	it's	PRON	PRT
d-579-2	got	VERB	VERB
d-579-3	dots	NOUN	NOUN
d-579-4	.	.	.

d-580-1	deputy	NOUN	NOUN
d-580-2	loves	VERB	NOUN
d-580-3	dots	NOUN	NOUN
d-580-4	.	.	.

d-581-1	fuck	VERB	VERB
d-581-2	you	PRON	PRON
d-581-3	and	CONJ	CONJ
d-581-4	your	DET	DET
d-581-5	dots	NOUN	NOUN
d-581-6	.	.	.

d-582-1	look	VERB	VERB
d-582-2	,	.	.
d-582-3	all	PRON	DET
d-582-4	i	PRON	PRON
d-582-5	did	VERB	VERB
d-582-6	was	VERB	VERB
d-582-7	answer	VERB	NOUN
d-582-8	the	DET	DET
d-582-9	guy's	DET	NOUN
d-582-10	questions	NOUN	NOUN
d-582-11	.	.	.

d-583-1	he's	PRON	PRT
d-583-2	a	DET	DET
d-583-3	fucking	ADJ	ADJ
d-583-4	judge	NOUN	NOUN
d-583-5	.	.	.

d-584-1	and	CONJ	CONJ
d-584-2	the	DET	DET
d-584-3	deputy's	NOUN	NOUN
d-584-4	the	DET	DET
d-584-5	fucking	ADJ	ADJ
d-584-6	deputy	NOUN	NOUN
d-584-7	.	.	.

d-585-1	and	CONJ	CONJ
d-585-2	he	PRON	PRON
d-585-3	,	.	.
d-585-4	not	ADV	ADV
d-585-5	the	DET	DET
d-585-6	judge	NOUN	NOUN
d-585-7	,	.	.
d-585-8	has	VERB	VERB
d-585-9	what's	PRON	PRT
d-585-10	left	VERB	ADJ
d-585-11	of	ADP	ADP
d-585-12	your	DET	DET
d-585-13	beshitted	ADJ	NOUN
d-585-14	career	NOUN	NOUN
d-585-15	in	ADP	ADP
d-585-16	his	DET	DET
d-585-17	hot	ADJ	ADJ
d-585-18	little	ADJ	ADJ
d-585-19	hands	NOUN	NOUN
d-585-20	.	.	.

d-586-1	he	PRON	PRON
d-586-2	says	VERB	VERB
d-586-3	so	ADV	ADV
d-586-4	,	.	.
d-586-5	you're	PRON	PRT
d-586-6	walking	VERB	VERB
d-586-7	foot	PRT	NOUN
d-586-8	in	ADP	ADP
d-586-9	the	DET	DET
d-586-10	western	NOUN	NOUN
d-586-11	tomorrow	NOUN	NOUN
d-586-12	.	.	.

d-587-1	fuck	VERB	VERB
d-587-2	it	PRON	PRON
d-587-3	,	.	.
d-587-4	i	PRON	PRON
d-587-5	came	VERB	VERB
d-587-6	from	ADP	ADP
d-587-7	western	NOUN	NOUN
d-587-8	.	.	.

d-588-1	well	X	PRT
d-588-2	,	.	.
d-588-3	where	ADV	ADV
d-588-4	don't	VERB	VERB
d-588-5	you	PRON	PRON
d-588-6	want	VERB	VERB
d-588-7	to	ADP	ADP
d-588-8	go	VERB	VERB
d-588-9	,	.	.
d-588-10	asshole	NOUN	NOUN
d-588-11	?	.	.

d-589-1	evidence	NOUN	NOUN
d-589-2	control	NOUN	NOUN
d-589-3	?	.	.

d-590-1	personnel	NOUN	NOUN
d-590-2	?	.	.

d-591-1	headquarter	NOUN	NOUN
d-591-2	security	NOUN	NOUN
d-591-3	?	.	.

d-592-1	the	DET	DET
d-592-2	boat	NOUN	NOUN
d-592-3	.	.	.

d-593-1	the	DET	DET
d-593-2	marine	NOUN	NOUN
d-593-3	unit	NOUN	ADJ
d-593-4	?	.	.

d-594-1	yeah	ADV	PRT
d-594-2	,	.	.
d-594-3	those	DET	DET
d-594-4	diesel	NOUN	NOUN
d-594-5	fumes	NOUN	NOUN
d-594-6	,	.	.
d-594-7	they	PRON	PRON
d-594-8	make	VERB	VERB
d-594-9	me	PRON	PRON
d-594-10	feel	VERB	VERB
d-594-11	seasick	ADJ	ADJ
d-594-12	.	.	.

d-595-1	that's	PRON	PRT
d-595-2	good	ADJ	ADJ
d-595-3	,	.	.
d-595-4	keep	VERB	VERB
d-595-5	it	PRON	PRON
d-595-6	up	PRT	PRT
d-595-7	.	.	.

d-596-1	i'll	PRON	PRT
d-596-2	go	VERB	VERB
d-596-3	this	PRON	PRON
d-596-4	against	ADP	ADP
d-596-5	a	DET	DET
d-596-6	!digits	NOUN	NUM
d-596-7	,	.	.
d-596-8	you're	PRON	PRT
d-596-9	ridin'	VERB	VERB
d-596-10	the	DET	DET
d-596-11	boat	NOUN	NOUN
d-596-12	,	.	.
d-596-13	midnight	NOUN	NOUN
d-596-14	shift	NOUN	NOUN
d-596-15	.	.	.

d-597-1	listen	VERB	VERB
d-597-2	to	ADP	ADP
d-597-3	the	DET	DET
d-597-4	man	NOUN	NOUN
d-597-5	,	.	.
d-597-6	jimmy	NOUN	NOUN
d-597-7	.	.	.

d-598-1	yo	X	PRT
d-598-2	,	.	.
d-598-3	stringer	NOUN	NOUN
d-598-4	.	.	.

d-599-1	oh	X	PRT
d-599-2	,	.	.
d-599-3	you	PRON	PRON
d-599-4	here	ADV	ADV
d-599-5	early	ADJ	ADV
d-599-6	.	.	.

d-600-1	yeah	ADV	PRT
d-600-2	,	.	.
d-600-3	i'm	PRON	PRT
d-600-4	on	ADP	ADP
d-600-5	my	DET	DET
d-600-6	game	NOUN	NOUN
d-600-7	today	NOUN	NOUN
d-600-8	.	.	.

d-601-1	-	.	.
d-601-2	eggy	NOUN	NOUN
d-601-3	put	VERB	VERB
d-601-4	out	PRT	ADP
d-601-5	testers	NOUN	NOUN
d-601-6	?	.	.

d-602-1	-	.	.
d-602-2	uh-huh	X	PRT
d-602-3	.	.	.

d-603-1	dee	NOUN	NOUN
d-603-2	.	.	.

d-604-1	new	ADJ	ADJ
d-604-2	deal	NOUN	NOUN
d-604-3	today	NOUN	NOUN
d-604-4	.	.	.

d-605-1	you	PRON	PRON
d-605-2	going	VERB	VERB
d-605-3	out	ADP	PRT
d-605-4	on	ADP	ADP
d-605-5	point	NOUN	NOUN
d-605-6	,	.	.
d-605-7	picking	VERB	VERB
d-605-8	up	PRT	PRT
d-605-9	business	NOUN	NOUN
d-605-10	in	ADP	ADP
d-605-11	the	DET	DET
d-605-12	pit	NOUN	NOUN
d-605-13	.	.	.

d-606-1	what	PRON	PRON
d-606-2	?	.	.

d-607-1	you	PRON	PRON
d-607-2	the	DET	DET
d-607-3	man	NOUN	NOUN
d-607-4	in	ADP	ADP
d-607-5	the	DET	DET
d-607-6	low-rises	NOUN	NOUN
d-607-7	.	.	.

d-608-1	the	DET	DET
d-608-2	low-rises	NOUN	NOUN
d-608-3	?	.	.

d-609-1	you	PRON	PRON
d-609-2	got	VERB	VERB
d-609-3	ronnie	NOUN	NOUN
d-609-4	mo	NOUN	NOUN
d-609-5	in	ADP	ADP
d-609-6	the	DET	DET
d-609-7	pit	NOUN	NOUN
d-609-8	.	.	.

d-610-1	ronnie	NOUN	NOUN
d-610-2	mo	NOUN	NOUN
d-610-3	got	VERB	VERB
d-610-4	!digits	NUM	NUM
d-610-5	COL	.	.
d-610-6	!digits	NUM	ADP
d-610-7	this	DET	DET
d-610-8	morning	NOUN	NOUN
d-610-9	.	.	.

d-611-1	why	ADV	ADV
d-611-2	you	PRON	PRON
d-611-3	gonna	VERB	VERB
d-611-4	put	VERB	VERB
d-611-5	me	PRON	PRON
d-611-6	in	ADP	ADP
d-611-7	the	DET	DET
d-611-8	low-rises	NOUN	NOUN
d-611-9	when	ADV	ADV
d-611-10	i	PRON	PRON
d-611-11	had	VERB	VERB
d-611-12	a	DET	DET
d-611-13	tower	NOUN	NOUN
d-611-14	since	ADP	NOUN
d-611-15	summer	NOUN	NOUN
d-611-16	?	.	.

d-612-1	yeah	ADV	PRT
d-612-2	,	.	.
d-612-3	you	PRON	PRON
d-612-4	had	VERB	VERB
d-612-5	a	DET	DET
d-612-6	tower	NOUN	NOUN
d-612-7	.	.	.

d-613-1	and	CONJ	CONJ
d-613-2	you	PRON	PRON
d-613-3	might	VERB	VERB
d-613-4	have	VERB	VERB
d-613-5	a	DET	DET
d-613-6	tower	NOUN	NOUN
d-613-7	again	ADV	ADV
d-613-8	if	CONJ	ADP
d-613-9	you	PRON	PRON
d-613-10	can	VERB	VERB
d-613-11	keep	VERB	VERB
d-613-12	your	DET	DET
d-613-13	mind	NOUN	NOUN
d-613-14	to	ADP	ADP
d-613-15	shit	NOUN	NOUN
d-613-16	.	.	.

d-614-1	this	DET	PRON
d-614-2	is	VERB	VERB
d-614-3	fucked	ADJ	VERB
d-614-4	up	PRT	PRT
d-614-5	.	.	.

d-615-1	you	PRON	PRON
d-615-2	show	VERB	VERB
d-615-3	us	PRON	PRON
d-615-4	you	PRON	PRON
d-615-5	can	VERB	VERB
d-615-6	run	VERB	VERB
d-615-7	the	DET	DET
d-615-8	pit	NOUN	NOUN
d-615-9	,	.	.
d-615-10	and	CONJ	CONJ
d-615-11	you'll	PRON	PRT
d-615-12	be	VERB	VERB
d-615-13	back	ADV	ADJ
d-615-14	uptown	NOUN	NOUN
d-615-15	soon	ADV	ADV
d-615-16	enough	ADV	ADV
d-615-17	.	.	.

d-616-1	my	DET	DET
d-616-2	uncle	NOUN	NOUN
d-616-3	know	VERB	VERB
d-616-4	about	ADP	ADP
d-616-5	this	PRON	PRON
d-616-6	?	.	.

d-617-1	what	PRON	PRON
d-617-2	do	VERB	VERB
d-617-3	you	PRON	PRON
d-617-4	think	VERB	VERB
d-617-5	?	.	.

d-618-1	-	.	.
d-618-2	hey	ADV	PRT
d-618-3	,	.	.
d-618-4	yo	X	PRT
d-618-5	,	.	.
d-618-6	bey	NOUN	NOUN
d-618-7	.	.	.

d-619-1	-	.	.
d-619-2	yo	X	PRT
d-619-3	.	.	.

d-620-1	give	VERB	VERB
d-620-2	little	ADJ	ADJ
d-620-3	cousin	NOUN	NOUN
d-620-4	here	ADV	ADV
d-620-5	a	DET	DET
d-620-6	ride	NOUN	NOUN
d-620-7	down	ADP	ADP
d-620-8	the	DET	DET
d-620-9	way	NOUN	NOUN
d-620-10	.	.	.

d-621-1	have	VERB	VERB
d-621-2	your	DET	DET
d-621-3	people	NOUN	NOUN
d-621-4	deal	VERB	NOUN
d-621-5	with	ADP	ADP
d-621-6	daniels	NOUN	NOUN
d-621-7	.	.	.

d-622-1	right	ADJ	PRT
d-622-2	.	.	.

d-623-1	you	PRON	PRON
d-623-2	gonna	VERB	VERB
d-623-3	send	VERB	VERB
d-623-4	your	DET	DET
d-623-5	man	NOUN	NOUN
d-623-6	mcnulty	NOUN	NOUN
d-623-7	?	.	.

d-624-1	tell	VERB	VERB
d-624-2	him	PRON	PRON
d-624-3	about	ADP	ADP
d-624-4	chain-of-command	NOUN	NOUN
d-624-5	.	.	.

d-625-1	tell	VERB	VERB
d-625-2	him	PRON	PRON
d-625-3	yourself	PRON	PRON
d-625-4	,	.	.
d-625-5	he's	PRON	PRT
d-625-6	dead	VERB	ADJ
d-625-7	to	ADP	ADP
d-625-8	me	PRON	PRON
d-625-9	.	.	.

d-626-1	yo	X	PRT
d-626-2	,	.	.
d-626-3	you	PRON	PRON
d-626-4	lookin'	VERB	VERB
d-626-5	for	ADP	ADP
d-626-6	ronnie	NOUN	NOUN
d-626-7	mo	NOUN	NOUN
d-626-8	,	.	.
d-626-9	he	PRON	PRON
d-626-10	uptown	NOUN	VERB
d-626-11	.	.	.

d-627-1	i	PRON	PRON
d-627-2	know	VERB	VERB
d-627-3	.	.	.

d-628-1	you	PRON	PRON
d-628-2	dee	NOUN	VERB
d-628-3	,	.	.
d-628-4	right	ADJ	ADV
d-628-5	?	.	.

d-629-1	hey	X	PRT
d-629-2	,	.	.
d-629-3	wasn't	VERB	VERB
d-629-4	you	PRON	PRON
d-629-5	in	ADP	ADP
d-629-6	the	DET	DET
d-629-7	towers	NOUN	NOUN
d-629-8	?	.	.

d-630-1	yeah	ADV	PRT
d-630-2	.	.	.

d-631-1	why	ADV	ADV
d-631-2	they	PRON	PRON
d-631-3	put	VERB	VERB
d-631-4	you	PRON	PRON
d-631-5	down	ADP	ADV
d-631-6	here	ADV	ADV
d-631-7	,	.	.
d-631-8	yo	X	PRT
d-631-9	?	.	.

d-632-1	you	PRON	PRON
d-632-2	mess	VERB	VERB
d-632-3	with	ADP	ADP
d-632-4	the	DET	DET
d-632-5	count	NOUN	NOUN
d-632-6	or	CONJ	CONJ
d-632-7	something	PRON	NOUN
d-632-8	?	.	.

d-633-1	i	PRON	PRON
d-633-2	killed	VERB	VERB
d-633-3	a	DET	DET
d-633-4	nigger	NOUN	NOUN
d-633-5	.	.	.

d-634-1	last	ADJ	ADJ
d-634-2	call	NOUN	NOUN
d-634-3	on	ADP	ADP
d-634-4	green	ADJ	ADJ
d-634-5	top	NOUN	NOUN
d-634-6	,	.	.
d-634-7	last	ADJ	ADJ
d-634-8	call	NOUN	NOUN
d-634-9	.	.	.

d-635-1	-	.	.
d-635-2	yeah	ADV	PRT
d-635-3	.	.	.

d-636-1	major	NOUN	NOUN
d-636-2	?	.	.

d-637-1	counting	VERB	VERB
d-637-2	what	PRON	PRON
d-637-3	we	PRON	PRON
d-637-4	got	VERB	VERB
d-637-5	from	ADP	ADP
d-637-6	the	DET	DET
d-637-7	dea	NOUN	NOUN
d-637-8	,	.	.
d-637-9	how	ADV	ADV
d-637-10	much	ADJ	ADJ
d-637-11	do	VERB	VERB
d-637-12	we	PRON	PRON
d-637-13	have	VERB	VERB
d-637-14	on	ADP	ADP
d-637-15	this	DET	DET
d-637-16	guy	NOUN	NOUN
d-637-17	?	.	.

d-638-1	sir	NOUN	NOUN
d-638-2	?	.	.

d-639-1	lieutenant	NOUN	ADJ
d-639-2	,	.	.
d-639-3	in	ADP	ADP
d-639-4	my	DET	DET
d-639-5	hand	NOUN	NOUN
d-639-6	,	.	.
d-639-7	i'm	PRON	PRT
d-639-8	holding	VERB	VERB
d-639-9	how	ADV	ADV
d-639-10	many	ADJ	ADJ
d-639-11	pages	NOUN	NOUN
d-639-12	?	.	.

d-640-1	-	.	.
d-640-2	four	NUM	NOUN
d-640-3	,	.	.
d-640-4	sir	NOUN	NOUN
d-640-5	.	.	.

d-641-1	-	.	.
d-641-2	rawls	NOUN	NOUN
d-641-3	had	VERB	VERB
d-641-4	a	DET	DET
d-641-5	fucking	ADJ	ADJ
d-641-6	phone	NOUN	NOUN
d-641-7	book	NOUN	NOUN
d-641-8	.	.	.

d-642-1	what	PRON	PRON
d-642-2	can	VERB	VERB
d-642-3	i	PRON	PRON
d-642-4	tell	VERB	VERB
d-642-5	you	PRON	PRON
d-642-6	?	.	.
d-642-7	they	PRON	PRON
d-642-8	got	VERB	VERB
d-642-9	!digits	NUM	NUM
d-642-10	open	ADJ	ADJ
d-642-11	murder	NOUN	NOUN
d-642-12	files	NOUN	NOUN
d-642-13	.	.	.

d-643-1	if	CONJ	ADP
d-643-2	we	PRON	PRON
d-643-3	had	VERB	VERB
d-643-4	!digits	NUM	NUM
d-643-5	shots	NOUN	NOUN
d-643-6	at	ADP	ADP
d-643-7	this	DET	DET
d-643-8	guy	NOUN	NOUN
d-643-9	,	.	.
d-643-10	we'd	PRON	PRT
d-643-11	have	VERB	VERB
d-643-12	a	DET	DET
d-643-13	lot	NOUN	NOUN
d-643-14	more	ADJ	ADJ
d-643-15	than	ADP	ADP
d-643-16	a	DET	DET
d-643-17	fat	ADJ	ADJ
d-643-18	file	NOUN	NOUN
d-643-19	.	.	.

d-644-1	yeah	ADV	PRT
d-644-2	,	.	.
d-644-3	yeah	ADV	PRT
d-644-4	,	.	.
d-644-5	i	PRON	PRON
d-644-6	made	VERB	VERB
d-644-7	that	DET	DET
d-644-8	point	NOUN	NOUN
d-644-9	upstairs	NOUN	NOUN
d-644-10	.	.	.

d-645-1	they	PRON	PRON
d-645-2	can't	VERB	VERB
d-645-3	put	VERB	VERB
d-645-4	this	DET	DET
d-645-5	guy	NOUN	NOUN
d-645-6	down	PRT	ADP
d-645-7	for	ADP	ADP
d-645-8	a	DET	DET
d-645-9	murder	NOUN	NOUN
d-645-10	or	CONJ	CONJ
d-645-11	two	NUM	NOUN
d-645-12	,	.	.
d-645-13	so	CONJ	ADP
d-645-14	they're	PRON	PRT
d-645-15	getting	VERB	VERB
d-645-16	us	PRON	PRON
d-645-17	to	ADP	ADP
d-645-18	do	VERB	VERB
d-645-19	their	DET	DET
d-645-20	work	NOUN	NOUN
d-645-21	.	.	.

d-646-1	they're	PRON	PRT
d-646-2	not	ADV	ADV
d-646-3	getting	VERB	VERB
d-646-4	us	PRON	PRON
d-646-5	,	.	.
d-646-6	they	PRON	PRON
d-646-7	got	VERB	VERB
d-646-8	us	PRON	PRON
d-646-9	.	.	.

d-647-1	-	.	.
d-647-2	they	PRON	PRON
d-647-3	got	VERB	VERB
d-647-4	you	PRON	PRON
d-647-5	,	.	.
d-647-6	in	ADP	ADP
d-647-7	fact	NOUN	NOUN
d-647-8	.	.	.

d-648-1	-	.	.
d-648-2	excuse	VERB	VERB
d-648-3	me	PRON	PRON
d-648-4	,	.	.
d-648-5	sir	NOUN	NOUN
d-648-6	?	.	.

d-649-1	well	X	PRT
d-649-2	,	.	.
d-649-3	dawson	NOUN	NOUN
d-649-4	has	VERB	VERB
d-649-5	the	DET	DET
d-649-6	york	NOUN	NOUN
d-649-7	and	CONJ	CONJ
d-649-8	cator	NOUN	NOUN
d-649-9	case	NOUN	NOUN
d-649-10	,	.	.
d-649-11	that	PRON	ADP
d-649-12	leaves	VERB	VERB
d-649-13	you	PRON	PRON
d-649-14	.	.	.

d-650-1	well	X	PRT
d-650-2	,	.	.
d-650-3	shit	NOUN	NOUN
d-650-4	.	.	.

d-651-1	look	VERB	VERB
d-651-2	,	.	.
d-651-3	set	VERB	VERB
d-651-4	something	PRON	VERB
d-651-5	up	PRT	PRT
d-651-6	with	ADP	ADP
d-651-7	homicide	NOUN	NOUN
d-651-8	and	CONJ	CONJ
d-651-9	whoever	PRON	NOUN
d-651-10	else	ADJ	ADV
d-651-11	you	PRON	PRON
d-651-12	want	VERB	VERB
d-651-13	from	ADP	ADP
d-651-14	your	DET	DET
d-651-15	squads	NOUN	NOUN
d-651-16	.	.	.

d-652-1	state's	NOUN	NOUN
d-652-2	attorney	NOUN	NOUN
d-652-3	?	.	.

d-653-1	yeah	ADV	PRT
d-653-2	,	.	.
d-653-3	we	PRON	PRON
d-653-4	should	VERB	VERB
d-653-5	call	VERB	VERB
d-653-6	them	PRON	PRON
d-653-7	,	.	.
d-653-8	too	ADV	ADV
d-653-9	.	.	.

d-654-1	fucking	ADJ	ADJ
d-654-2	shitstorm	NOUN	NOUN
d-654-3	.	.	.

d-655-1	lieutenant	NOUN	NOUN
d-655-2	,	.	.
d-655-3	line	NOUN	NOUN
d-655-4	three	NUM	NUM
d-655-5	.	.	.

d-656-1	deputy	NOUN	NOUN
d-656-2	ops	NOUN	NOUN
d-656-3	.	.	.

d-657-1	here	ADV	ADV
d-657-2	we	PRON	PRON
d-657-3	go	VERB	VERB
d-657-4	.	.	.

d-658-1	close	VERB	VERB
d-658-2	that	PRON	ADP
d-658-3	for	ADP	ADP
d-658-4	me	PRON	PRON
d-658-5	.	.	.

d-659-1	what's	PRON	PRT
d-659-2	the	DET	DET
d-659-3	coffee	NOUN	NOUN
d-659-4	do	VERB	VERB
d-659-5	?	.	.

d-660-1	give	VERB	VERB
d-660-2	it	PRON	PRON
d-660-3	that	DET	DET
d-660-4	money	NOUN	NOUN
d-660-5	feel	NOUN	VERB
d-660-6	,	.	.
d-660-7	so	CONJ	ADP
d-660-8	it	PRON	PRON
d-660-9	don't	VERB	VERB
d-660-10	seem	VERB	VERB
d-660-11	so	ADV	ADV
d-660-12	white	ADJ	ADJ
d-660-13	.	.	.

d-661-1	yeah	ADV	PRT
d-661-2	.	.	.

d-662-1	leastways	ADV	NOUN
d-662-2	,	.	.
d-662-3	you	PRON	PRON
d-662-4	got	VERB	VERB
d-662-5	it	PRON	PRON
d-662-6	on	ADP	ADP
d-662-7	both	DET	DET
d-662-8	sides	NOUN	NOUN
d-662-9	this	DET	DET
d-662-10	time	NOUN	NOUN
d-662-11	,	.	.
d-662-12	huh	X	PRT
d-662-13	?	.	.

d-663-1	all	ADJ	DET
d-663-2	right	ADJ	ADJ
d-663-3	,	.	.
d-663-4	give	VERB	VERB
d-663-5	me	PRON	PRON
d-663-6	the	DET	DET
d-663-7	real	NOUN	ADJ
d-663-8	.	.	.

d-664-1	yeah	ADV	PRT
d-664-2	.	.	.

d-665-1	wait	VERB	VERB
d-665-2	,	.	.
d-665-3	why	ADV	ADV
d-665-4	are	VERB	VERB
d-665-5	we	PRON	PRON
d-665-6	gonna	VERB	VERB
d-665-7	use	VERB	VERB
d-665-8	real	ADJ	ADJ
d-665-9	money	NOUN	NOUN
d-665-10	?	.	.

d-666-1	we're	PRON	PRT
d-666-2	not	ADV	ADV
d-666-3	burning	VERB	VERB
d-666-4	no	DET	DET
d-666-5	lemmon	NOUN	NOUN
d-666-6	street	NOUN	NOUN
d-666-7	chumps	NOUN	NOUN
d-666-8	here	ADV	ADV
d-666-9	.	.	.

d-667-1	feel	VERB	VERB
d-667-2	me	PRON	PRON
d-667-3	?	.	.

d-668-1	i'm	PRON	PRT
d-668-2	down	PRT	ADV
d-668-3	.	.	.

d-669-1	you	PRON	PRON
d-669-2	down	PRT	ADV
d-669-3	,	.	.
d-669-4	huh	X	PRT
d-669-5	?	.	.

d-670-1	johnny's	NOUN	NOUN
d-670-2	down	PRT	NOUN
d-670-3	,	.	.
d-670-4	huh	X	PRT
d-670-5	?	.	.

d-671-1	you	PRON	PRON
d-671-2	got	VERB	VERB
d-671-3	that	DET	DET
d-671-4	gig	NOUN	NOUN
d-671-5	.	.	.

d-672-1	can	VERB	VERB
d-672-2	i	PRON	PRON
d-672-3	get	VERB	VERB
d-672-4	a	DET	DET
d-672-5	one-on-one	NOUN	NOUN
d-672-6	?	.	.

d-673-1	yo	X	PRT
d-673-2	,	.	.
d-673-3	poot	NOUN	NOUN
d-673-4	.	.	.

d-674-1	yo	X	PRT
d-674-2	,	.	.
d-674-3	wallace	NOUN	NOUN
d-674-4	.	.	.

d-675-1	this	PRON	PRON
d-675-2	the	DET	DET
d-675-3	way	NOUN	NOUN
d-675-4	ronnie	NOUN	NOUN
d-675-5	mo	NOUN	NOUN
d-675-6	set	VERB	VERB
d-675-7	it	PRON	PRON
d-675-8	up	PRT	PRT
d-675-9	?	.	.

d-676-1	yeah	ADV	PRT
d-676-2	.	.	.

d-677-1	-	.	.
d-677-2	man	NOUN	NOUN
d-677-3	,	.	.
d-677-4	this	PRON	PRON
d-677-5	is	VERB	VERB
d-677-6	fucked	ADJ	VERB
d-677-7	up	PRT	PRT
d-677-8	.	.	.

d-678-1	-	.	.
d-678-2	yeah	ADV	PRT
d-678-3	.	.	.

d-679-1	look	VERB	VERB
d-679-2	,	.	.
d-679-3	you	PRON	PRON
d-679-4	can't	VERB	VERB
d-679-5	serve	VERB	VERB
d-679-6	your	DET	DET
d-679-7	customers	NOUN	NOUN
d-679-8	straight	ADV	VERB
d-679-9	up	PRT	PRT
d-679-10	after	ADP	ADP
d-679-11	taking	VERB	VERB
d-679-12	they	DET	PRON
d-679-13	money	NOUN	NOUN
d-679-14	.	.	.

d-680-1	somebody	PRON	NOUN
d-680-2	snapping	VERB	VERB
d-680-3	pictures	NOUN	NOUN
d-680-4	,	.	.
d-680-5	they	PRON	PRON
d-680-6	got	VERB	VERB
d-680-7	the	DET	DET
d-680-8	whole	ADJ	NOUN
d-680-9	damn	ADJ	ADJ
d-680-10	thing	NOUN	NOUN
d-680-11	.	.	.

d-681-1	see	VERB	VERB
d-681-2	what	PRON	PRON
d-681-3	i'm	PRON	PRT
d-681-4	saying	VERB	VERB
d-681-5	?	.	.

d-682-1	you	PRON	PRON
d-682-2	get	VERB	VERB
d-682-3	paid	VERB	VERB
d-682-4	,	.	.
d-682-5	you	PRON	PRON
d-682-6	send	VERB	VERB
d-682-7	they	DET	DET
d-682-8	ass	NOUN	NOUN
d-682-9	off	PRT	ADP
d-682-10	around	ADP	ADP
d-682-11	the	DET	DET
d-682-12	building	NOUN	NOUN
d-682-13	,	.	.
d-682-14	yo	X	PRT
d-682-15	.	.	.

d-683-1	then	ADV	ADV
d-683-2	you	PRON	PRON
d-683-3	serve	VERB	VERB
d-683-4	.	.	.

d-684-1	a'right	ADV	NOUN
d-684-2	?	.	.

d-685-1	we	PRON	PRON
d-685-2	gotta	VERB	VERB
d-685-3	start	VERB	VERB
d-685-4	tightenin'	VERB	VERB
d-685-5	up	PRT	PRT
d-685-6	,	.	.
d-685-7	man	NOUN	PRT
d-685-8	.	.	.

d-686-1	no	DET	PRT
d-686-2	more	ADJ	ADV
d-686-3	shortcuts	NOUN	ADJ
d-686-4	.	.	.

d-687-1	what's	PRON	PRT
d-687-2	your	DET	DET
d-687-3	count	NOUN	NOUN
d-687-4	?	.	.

d-688-1	i'm	PRON	PRT
d-688-2	up	PRT	ADP
d-688-3	!digits	NUM	NUM
d-688-4	.	.	.

d-689-1	you	PRON	PRON
d-689-2	want	VERB	VERB
d-689-3	to	ADP	ADP
d-689-4	count	VERB	VERB
d-689-5	it	PRON	PRON
d-689-6	.	.	.

d-690-1	i	PRON	PRON
d-690-2	mean	VERB	VERB
d-690-3	,	.	.
d-690-4	i	PRON	PRON
d-690-5	don't	VERB	VERB
d-690-6	know	VERB	VERB
d-690-7	how	ADV	ADV
d-690-8	you	PRON	PRON
d-690-9	do	VERB	VERB
d-690-10	shit	NOUN	NOUN
d-690-11	up	ADP	ADP
d-690-12	in	ADP	ADP
d-690-13	the	DET	DET
d-690-14	towers	NOUN	NOUN
d-690-15	.	.	.

d-691-1	but	CONJ	CONJ
d-691-2	down	ADP	PRT
d-691-3	here	ADV	ADV
d-691-4	,	.	.
d-691-5	you	PRON	PRON
d-691-6	want	VERB	VERB
d-691-7	to	ADP	ADP
d-691-8	count	VERB	VERB
d-691-9	it	PRON	PRON
d-691-10	.	.	.

d-692-1	aw	X	PRT
d-692-2	,	.	.
d-692-3	shit	NOUN	NOUN
d-692-4	.	.	.

d-693-1	hey	X	PRT
d-693-2	,	.	.
d-693-3	yo	X	PRT
d-693-4	,	.	.
d-693-5	yo	X	PRT
d-693-6	,	.	.
d-693-7	ho	X	X
d-693-8	,	.	.
d-693-9	ho	X	X
d-693-10	,	.	.
d-693-11	ho	X	PRT
d-693-12	!	.	.

d-694-1	y'all	DET	PRT
d-694-2	niggers	NOUN	NOUN
d-694-3	been	VERB	VERB
d-694-4	burnt	VERB	NOUN
d-694-5	.	.	.

d-695-1	-	.	.
d-695-2	huh	X	PRT
d-695-3	?	.	.

d-696-1	-	.	.
d-696-2	"	.	.
d-696-3	huh	X	PRT
d-696-4	"	.	.
d-696-5	?	.	.

d-697-1	that's	PRON	PRT
d-697-2	what	PRON	PRON
d-697-3	you	PRON	PRON
d-697-4	got	VERB	VERB
d-697-5	to	ADP	ADP
d-697-6	say	VERB	VERB
d-697-7	?	.	.

d-698-1	"	.	.
d-698-2	huh	X	PRT
d-698-3	?	.	.
d-698-4	"	.	.

d-699-1	this	PRON	PRON
d-699-2	look	VERB	VERB
d-699-3	like	ADP	ADP
d-699-4	money	NOUN	NOUN
d-699-5	,	.	.
d-699-6	motherfucker	NOUN	NOUN
d-699-7	?	.	.

d-700-1	money	NOUN	NOUN
d-700-2	be	VERB	VERB
d-700-3	green	ADJ	ADJ
d-700-4	!	.	.

d-701-1	money	NOUN	NOUN
d-701-2	...	.	.
d-701-3	feel	VERB	VERB
d-701-4	like	ADP	ADP
d-701-5	money	NOUN	NOUN
d-701-6	.	.	.

d-702-1	that	PRON	DET
d-702-2	shit	NOUN	NOUN
d-702-3	look	VERB	VERB
d-702-4	green	ADJ	ADJ
d-702-5	to	ADP	ADP
d-702-6	you	PRON	PRON
d-702-7	?	.	.

d-703-1	it	PRON	PRON
d-703-2	got	VERB	VERB
d-703-3	a	DET	DET
d-703-4	dead	ADJ	ADJ
d-703-5	fucking	ADJ	ADV
d-703-6	president	NOUN	ADJ
d-703-7	on	ADP	ADP
d-703-8	it	PRON	PRON
d-703-9	.	.	.

d-704-1	i	PRON	PRON
d-704-2	don't	VERB	VERB
d-704-3	give	VERB	VERB
d-704-4	a	DET	DET
d-704-5	fuck	NOUN	NOUN
d-704-6	about	ADP	ADP
d-704-7	the	DET	DET
d-704-8	president	NOUN	NOUN
d-704-9	.	.	.

d-705-1	-	.	.
d-705-2	that	DET	DET
d-705-3	shit	NOUN	NOUN
d-705-4	ain't	VERB	VERB
d-705-5	money	NOUN	NOUN
d-705-6	.	.	.

d-706-1	-	.	.
d-706-2	he	PRON	PRON
d-706-3	ain't	VERB	VERB
d-706-4	no	DET	DET
d-706-5	president	NOUN	NOUN
d-706-6	.	.	.

d-707-1	what	PRON	PRON
d-707-2	you	PRON	PRON
d-707-3	mean	VERB	VERB
d-707-4	?	.	.

d-708-1	hamilton	NOUN	NOUN
d-708-2	.	.	.

d-709-1	he	PRON	PRON
d-709-2	ain't	VERB	VERB
d-709-3	no	DET	DET
d-709-4	president	NOUN	NOUN
d-709-5	.	.	.

d-710-1	nigger	NOUN	NOUN
d-710-2	,	.	.
d-710-3	is	VERB	VERB
d-710-4	you	PRON	PRON
d-710-5	crazy	ADJ	ADJ
d-710-6	?	.	.

d-711-1	ain't	VERB	VERB
d-711-2	no	DET	DET
d-711-3	ugly-ass	ADJ	NOUN
d-711-4	white	ADJ	ADJ
d-711-5	man	NOUN	NOUN
d-711-6	get	VERB	VERB
d-711-7	his	DET	DET
d-711-8	face	NOUN	NOUN
d-711-9	on	ADP	ADP
d-711-10	no	DET	DET
d-711-11	legal	ADJ	NOUN
d-711-12	motherfucking	ADJ	VERB
d-711-13	tender	NOUN	NOUN
d-711-14	'cept	ADP	.
d-711-15	he	PRON	PRON
d-711-16	president	NOUN	VERB
d-711-17	.	.	.

d-712-1	this	DET	DET
d-712-2	shit	NOUN	NOUN
d-712-3	happen	VERB	VERB
d-712-4	again	ADV	ADV
d-712-5	,	.	.
d-712-6	you	PRON	PRON
d-712-7	off	PRT	ADP
d-712-8	the	DET	DET
d-712-9	money	NOUN	NOUN
d-712-10	.	.	.

d-713-1	you	PRON	PRON
d-713-2	hear	VERB	VERB
d-713-3	me	PRON	PRON
d-713-4	?	.	.

d-714-1	you	PRON	PRON
d-714-2	ain't	VERB	VERB
d-714-3	even	ADV	ADV
d-714-4	gonna	VERB	VERB
d-714-5	be	VERB	VERB
d-714-6	serving	VERB	VERB
d-714-7	no	ADV	DET
d-714-8	more	ADV	NOUN
d-714-9	.	.	.

d-715-1	your	DET	DET
d-715-2	ass	NOUN	NOUN
d-715-3	be	VERB	VERB
d-715-4	out	ADP	PRT
d-715-5	on	ADP	ADP
d-715-6	the	DET	DET
d-715-7	bottom	ADJ	ADJ
d-715-8	end	NOUN	NOUN
d-715-9	of	ADP	ADP
d-715-10	vine	NOUN	NOUN
d-715-11	street	NOUN	NOUN
d-715-12	,	.	.
d-715-13	sucking	VERB	VERB
d-715-14	on	ADP	ADP
d-715-15	a	DET	DET
d-715-16	!digits	NOUN	NUM
d-715-17	,	.	.
d-715-18	yelling	VERB	VERB
d-715-19	"	.	.
d-715-20	five-o	NOUN	NOUN
d-715-21	"	.	.
d-715-22	.	.	.

d-716-1	you	PRON	PRON
d-716-2	hear	VERB	VERB
d-716-3	me	PRON	PRON
d-716-4	?	.	.

d-717-1	get	VERB	VERB
d-717-2	the	DET	DET
d-717-3	fuck	NOUN	NOUN
d-717-4	out	ADP	NOUN
d-717-5	of	ADP	ADP
d-717-6	here	ADV	ADV
d-717-7	.	.	.

d-718-1	-	.	.
d-718-2	that	PRON	ADP
d-718-3	it	PRON	PRON
d-718-4	?	.	.

d-719-1	-	.	.
d-719-2	huh	X	PRT
d-719-3	?	.	.

d-720-1	you	PRON	PRON
d-720-2	need	VERB	VERB
d-720-3	to	ADP	ADP
d-720-4	pace	VERB	VERB
d-720-5	that	DET	DET
d-720-6	shit	NOUN	NOUN
d-720-7	,	.	.
d-720-8	man	NOUN	NOUN
d-720-9	.	.	.

d-721-1	johnny	NOUN	NOUN
d-721-2	,	.	.
d-721-3	man	NOUN	NOUN
d-721-4	,	.	.
d-721-5	you	PRON	PRON
d-721-6	hear	VERB	VERB
d-721-7	me	PRON	PRON
d-721-8	?	.	.

d-722-1	i'm	PRON	PRT
d-722-2	cool	ADJ	ADJ
d-722-3	.	.	.

d-723-1	naw	ADV	PRT
d-723-2	,	.	.
d-723-3	naw	ADV	PRT
d-723-4	,	.	.
d-723-5	man	ADV	NOUN
d-723-6	,	.	.
d-723-7	you	PRON	PRON
d-723-8	gonna	VERB	VERB
d-723-9	fall	VERB	VERB
d-723-10	out	PRT	PRT
d-723-11	slamming	VERB	VERB
d-723-12	that	DET	DET
d-723-13	shit	NOUN	NOUN
d-723-14	like	ADP	ADP
d-723-15	that	PRON	DET
d-723-16	one	NUM	NUM
d-723-17	of	ADP	ADP
d-723-18	these	DET	DET
d-723-19	days	NOUN	NOUN
d-723-20	,	.	.
d-723-21	boy	NOUN	NOUN
d-723-22	.	.	.

d-724-1	yo	X	PRT
d-724-2	,	.	.
d-724-3	man	NOUN	NOUN
d-724-4	,	.	.
d-724-5	i'm	PRON	PRT
d-724-6	tryin'	VERB	ADJ
d-724-7	--	.	.
d-724-8	i'm	PRON	PRT
d-724-9	tryin'	VERB	NOUN
d-724-10	to	ADP	ADP
d-724-11	give	VERB	VERB
d-724-12	you	PRON	PRON
d-724-13	a	DET	DET
d-724-14	little	ADJ	ADJ
d-724-15	game	NOUN	NOUN
d-724-16	,	.	.
d-724-17	man	NOUN	NOUN
d-724-18	,	.	.
d-724-19	but	CONJ	CONJ
d-724-20	you	PRON	PRON
d-724-21	want	VERB	VERB
d-724-22	to	ADP	ADP
d-724-23	pretend	VERB	VERB
d-724-24	like	ADP	ADP
d-724-25	you	PRON	PRON
d-724-26	know	VERB	VERB
d-724-27	something	PRON	NOUN
d-724-28	.	.	.

d-725-1	hmm	X	PRT
d-725-2	?	.	.

d-726-1	i	PRON	PRON
d-726-2	know	VERB	VERB
d-726-3	a	DET	DET
d-726-4	lot	NOUN	NOUN
d-726-5	,	.	.
d-726-6	bubs	NOUN	NOUN
d-726-7	.	.	.

d-727-1	naw	ADV	PRT
d-727-2	,	.	.
d-727-3	naw	ADV	PRT
d-727-4	,	.	.
d-727-5	you	PRON	PRON
d-727-6	green	ADJ	VERB
d-727-7	.	.	.

d-728-1	i'm	PRON	PRT
d-728-2	tryin'	VERB	ADJ
d-728-3	--	.	.
d-728-4	i'm	PRON	PRT
d-728-5	tryin'	VERB	NOUN
d-728-6	,	.	.
d-728-7	to	ADP	ADP
d-728-8	get	VERB	VERB
d-728-9	you	PRON	PRON
d-728-10	brown	ADJ	NOUN
d-728-11	,	.	.
d-728-12	man	NOUN	NOUN
d-728-13	,	.	.
d-728-14	but	CONJ	CONJ
d-728-15	you	PRON	PRON
d-728-16	still	ADV	ADV
d-728-17	green	ADJ	ADJ
d-728-18	.	.	.

d-729-1	you	PRON	PRON
d-729-2	gonna	VERB	VERB
d-729-3	make	VERB	VERB
d-729-4	me	PRON	NOUN
d-729-5	brown	ADJ	NOUN
d-729-6	?	.	.

d-730-1	yo	X	PRT
d-730-2	,	.	.
d-730-3	bubs	NOUN	NOUN
d-730-4	?	.	.

d-731-1	let	VERB	VERB
d-731-2	me	PRON	PRON
d-731-3	do	VERB	VERB
d-731-4	the	DET	DET
d-731-5	scam	NOUN	NOUN
d-731-6	tomorrow	NOUN	NOUN
d-731-7	.	.	.

d-732-1	c'mon	VERB	NOUN
d-732-2	,	.	.
d-732-3	man	NOUN	NOUN
d-732-4	,	.	.
d-732-5	i'm	PRON	PRT
d-732-6	ready	ADJ	ADJ
d-732-7	.	.	.

d-733-1	yo	X	PRT
d-733-2	,	.	.
d-733-3	i'm	PRON	PRT
d-733-4	brown	ADJ	ADJ
d-733-5	.	.	.

d-734-1	shit	NOUN	NOUN
d-734-2	,	.	.
d-734-3	man	NOUN	NOUN
d-734-4	,	.	.
d-734-5	you	PRON	PRON
d-734-6	ain't	VERB	VERB
d-734-7	even	ADV	ADV
d-734-8	fucking	ADJ	ADJ
d-734-9	beige	ADJ	NOUN
d-734-10	.	.	.

d-735-1	-	.	.
d-735-2	buy-busts	NOUN	NOUN
d-735-3	.	.	.

d-736-1	-	.	.
d-736-2	yes	ADV	PRT
d-736-3	,	.	.
d-736-4	sir	NOUN	NOUN
d-736-5	.	.	.

d-737-1	no	DET	PRT
d-737-2	long	ADJ	ADJ
d-737-3	surveillances	NOUN	NOUN
d-737-4	,	.	.
d-737-5	no	DET	DET
d-737-6	kel	ADJ	NOUN
d-737-7	recorders	NOUN	NOUN
d-737-8	,	.	.
d-737-9	no	DET	DET
d-737-10	dnrs	NOUN	NOUN
d-737-11	.	.	.

d-738-1	i	PRON	PRON
d-738-2	want	VERB	VERB
d-738-3	to	ADP	ADP
d-738-4	get	VERB	VERB
d-738-5	in	ADP	ADP
d-738-6	and	CONJ	CONJ
d-738-7	out	ADP	ADV
d-738-8	as	ADP	ADV
d-738-9	quickly	ADV	ADJ
d-738-10	as	ADP	ADP
d-738-11	possible	ADJ	ADJ
d-738-12	.	.	.

d-739-1	that	PRON	ADP
d-739-2	makes	VERB	VERB
d-739-3	sense	NOUN	NOUN
d-739-4	.	.	.

d-740-1	phelan	NOUN	NOUN
d-740-2	isn't	VERB	VERB
d-740-3	just	ADV	ADV
d-740-4	a	DET	DET
d-740-5	judge	NOUN	NOUN
d-740-6	,	.	.
d-740-7	he's	PRON	PRT
d-740-8	a	DET	DET
d-740-9	political	ADJ	ADJ
d-740-10	entity	NOUN	NOUN
d-740-11	.	.	.

d-741-1	if	CONJ	ADP
d-741-2	he	PRON	PRON
d-741-3	asks	VERB	VERB
d-741-4	for	ADP	ADP
d-741-5	something	PRON	NOUN
d-741-6	,	.	.
d-741-7	i	NOUN	PRON
d-741-8	want	VERB	VERB
d-741-9	to	ADP	ADP
d-741-10	give	VERB	VERB
d-741-11	it	PRON	PRON
d-741-12	to	ADP	ADP
d-741-13	him	PRON	PRON
d-741-14	.	.	.

d-742-1	why	ADV	ADV
d-742-2	is	VERB	VERB
d-742-3	he	PRON	PRON
d-742-4	asking	VERB	VERB
d-742-5	about	ADP	ADP
d-742-6	this	DET	DET
d-742-7	barksdale	NOUN	NOUN
d-742-8	?	.	.

d-743-1	he	PRON	PRON
d-743-2	watched	VERB	VERB
d-743-3	his	DET	DET
d-743-4	state's	NOUN	NOUN
d-743-5	attorney	NOUN	NOUN
d-743-6	get	VERB	VERB
d-743-7	beat	VERB	VERB
d-743-8	up	PRT	PRT
d-743-9	in	ADP	ADP
d-743-10	his	DET	DET
d-743-11	court	NOUN	NOUN
d-743-12	this	DET	DET
d-743-13	week	NOUN	NOUN
d-743-14	.	.	.

d-744-1	lost	VERB	VERB
d-744-2	a	DET	DET
d-744-3	murder	NOUN	NOUN
d-744-4	case	NOUN	NOUN
d-744-5	.	.	.

d-745-1	we	PRON	PRON
d-745-2	lose	VERB	VERB
d-745-3	cases	NOUN	NOUN
d-745-4	all	DET	PRT
d-745-5	the	DET	DET
d-745-6	time	NOUN	NOUN
d-745-7	.	.	.

d-746-1	but	CONJ	CONJ
d-746-2	a	DET	DET
d-746-3	judge	NOUN	NOUN
d-746-4	happens	VERB	VERB
d-746-5	to	ADP	ADP
d-746-6	be	VERB	VERB
d-746-7	asking	VERB	VERB
d-746-8	about	ADP	ADP
d-746-9	this	DET	DET
d-746-10	one	NOUN	NUM
d-746-11	.	.	.

d-747-1	who	PRON	PRON
d-747-2	you	PRON	PRON
d-747-3	using	VERB	VERB
d-747-4	?	.	.

d-748-1	lead	NOUN	ADV
d-748-2	detective	NOUN	ADJ
d-748-3	?	.	.

d-749-1	greggs	NOUN	NOUN
d-749-2	,	.	.
d-749-3	she's	PRON	PRT
d-749-4	my	DET	DET
d-749-5	best	NOUN	ADJ
d-749-6	right	ADJ	ADV
d-749-7	now	ADV	ADV
d-749-8	.	.	.

d-750-1	i	NOUN	PRON
d-750-2	know	VERB	VERB
d-750-3	her	PRON	PRON
d-750-4	?	.	.

d-751-1	cid	NOUN	NOUN
d-751-2	for	ADP	ADP
d-751-3	four	NUM	NOUN
d-751-4	months	NOUN	NOUN
d-751-5	.	.	.

d-752-1	came	VERB	VERB
d-752-2	over	ADP	PRT
d-752-3	from	ADP	ADP
d-752-4	eastern	NOUN	NOUN
d-752-5	deu	NOUN	NOUN
d-752-6	.	.	.

d-753-1	who's	PRON	PRT
d-753-2	homicide	NOUN	ADV
d-753-3	sending	VERB	VERB
d-753-4	?	.	.

d-754-1	that's	PRON	PRT
d-754-2	up	PRT	PRT
d-754-3	to	PRT	ADP
d-754-4	major	NOUN	VERB
d-754-5	rawls	NOUN	NOUN
d-754-6	.	.	.

d-755-1	i	PRON	PRON
d-755-2	wouldn't	VERB	VERB
d-755-3	be	VERB	VERB
d-755-4	surprised	ADJ	ADJ
d-755-5	if	CONJ	ADP
d-755-6	you	PRON	PRON
d-755-7	get	VERB	VERB
d-755-8	mcnulty	NOUN	NOUN
d-755-9	.	.	.

d-756-1	you	PRON	PRON
d-756-2	know	VERB	VERB
d-756-3	mcnulty	NOUN	NOUN
d-756-4	?	.	.

d-757-1	not	ADV	ADV
d-757-2	really	ADV	ADV
d-757-3	.	.	.

d-758-1	he's	PRON	PRT
d-758-2	the	DET	DET
d-758-3	one	NOUN	NUM
d-758-4	who	PRON	PRON
d-758-5	mouthed	VERB	VERB
d-758-6	off	PRT	ADV
d-758-7	to	ADP	ADP
d-758-8	the	DET	DET
d-758-9	judge	NOUN	NOUN
d-758-10	in	ADP	ADP
d-758-11	the	DET	DET
d-758-12	first	ADJ	ADJ
d-758-13	place	NOUN	NOUN
d-758-14	.	.	.

d-759-1	he	PRON	PRON
d-759-2	talked	VERB	VERB
d-759-3	to	ADP	ADP
d-759-4	the	DET	DET
d-759-5	judge	NOUN	NOUN
d-759-6	?	.	.

d-760-1	yeah	ADV	PRT
d-760-2	,	.	.
d-760-3	that's	PRON	PRT
d-760-4	my	DET	DET
d-760-5	understanding	NOUN	NOUN
d-760-6	.	.	.

d-761-1	so	CONJ	ADV
d-761-2	,	.	.
d-761-3	if	CONJ	ADP
d-761-4	he	PRON	PRON
d-761-5	comes	VERB	VERB
d-761-6	over	PRT	PRT
d-761-7	on	ADP	ADP
d-761-8	this	PRON	PRON
d-761-9	,	.	.
d-761-10	watch	VERB	VERB
d-761-11	your	DET	DET
d-761-12	back	NOUN	NOUN
d-761-13	.	.	.

d-762-1	you	PRON	PRON
d-762-2	need	VERB	VERB
d-762-3	anything	PRON	NOUN
d-762-4	,	.	.
d-762-5	you	PRON	PRON
d-762-6	ask	VERB	VERB
d-762-7	me	PRON	PRON
d-762-8	.	.	.

d-763-1	i'll	PRON	PRT
d-763-2	give	VERB	VERB
d-763-3	you	PRON	PRON
d-763-4	all	DET	DET
d-763-5	the	DET	DET
d-763-6	help	NOUN	NOUN
d-763-7	i	PRON	PRON
d-763-8	can	VERB	VERB
d-763-9	.	.	.

d-764-1	but	CONJ	CONJ
d-764-2	no	DET	DET
d-764-3	surprises	NOUN	NOUN
d-764-4	.	.	.

d-765-1	yes	ADV	PRT
d-765-2	,	.	.
d-765-3	sir	NOUN	NOUN
d-765-4	.	.	.

d-766-1	keep	VERB	VERB
d-766-2	me	PRON	PRON
d-766-3	briefed	ADJ	NOUN
d-766-4	.	.	.

d-767-1	hi	X	PRT
d-767-2	,	.	.
d-767-3	mcnulty	NOUN	NOUN
d-767-4	,	.	.
d-767-5	city	NOUN	NOUN
d-767-6	homicide	NOUN	NOUN
d-767-7	.	.	.

d-768-1	is	VERB	VERB
d-768-2	anyone	PRON	NOUN
d-768-3	expecting	VERB	VERB
d-768-4	you	PRON	PRON
d-768-5	?	.	.

d-769-1	yeah	ADV	PRT
d-769-2	,	.	.
d-769-3	special	NOUN	ADJ
d-769-4	agent	NOUN	NOUN
d-769-5	fitzhugh	NOUN	ADV
d-769-6	,	.	.
d-769-7	squad	NOUN	NOUN
d-769-8	five	NUM	NOUN
d-769-9	.	.	.

d-770-1	he's	PRON	PRT
d-770-2	expecting	VERB	VERB
d-770-3	me	PRON	PRON
d-770-4	,	.	.
d-770-5	can	VERB	VERB
d-770-6	i	PRON	PRON
d-770-7	--	.	VERB

d-771-1	not	ADV	ADV
d-771-2	without	ADP	ADP
d-771-3	an	DET	DET
d-771-4	escort	NOUN	NOUN
d-771-5	.	.	.

d-772-1	all	ADJ	DET
d-772-2	right	ADJ	ADJ
d-772-3	.	.	.

d-773-1	agent	NOUN	ADJ
d-773-2	fitzhugh	NOUN	ADP
d-773-3	to	ADP	ADP
d-773-4	the	DET	DET
d-773-5	front	NOUN	NOUN
d-773-6	.	.	.

d-774-1	-	.	.
d-774-2	hey	X	PRT
d-774-3	,	.	.
d-774-4	fitz	NOUN	NOUN
d-774-5	.	.	.

d-775-1	-	.	.
d-775-2	hey	X	PRT
d-775-3	,	.	.
d-775-4	brother	NOUN	NOUN
d-775-5	.	.	.

d-776-1	she	PRON	PRON
d-776-2	can	VERB	VERB
d-776-3	spot	VERB	VERB
d-776-4	a	DET	DET
d-776-5	bad	ADJ	ADJ
d-776-6	one	NOUN	NUM
d-776-7	,	.	.
d-776-8	huh	X	PRT
d-776-9	?	.	.

d-777-1	nothing	PRON	NOUN
d-777-2	personal	ADJ	ADJ
d-777-3	,	.	.
d-777-4	jimmy	NOUN	NOUN
d-777-5	.	.	.

d-778-1	you	PRON	PRON
d-778-2	know	VERB	VERB
d-778-3	how	ADV	ADV
d-778-4	they	PRON	PRON
d-778-5	are	VERB	VERB
d-778-6	with	ADP	ADP
d-778-7	security	NOUN	NOUN
d-778-8	nowadays	ADV	NOUN
d-778-9	.	.	.

d-779-1	i	PRON	PRON
d-779-2	know	VERB	VERB
d-779-3	how	ADV	ADV
d-779-4	they	PRON	PRON
d-779-5	are	VERB	VERB
d-779-6	with	ADP	ADP
d-779-7	locals	NOUN	NOUN
d-779-8	,	.	.
d-779-9	yeah	ADV	PRT
d-779-10	.	.	.

d-780-1	so	CONJ	ADV
d-780-2	,	.	.
d-780-3	what's	PRON	PRT
d-780-4	up	PRT	PRT
d-780-5	,	.	.
d-780-6	g-man	NOUN	PRT
d-780-7	?	.	.

d-781-1	-	.	.
d-781-2	good	ADJ	ADJ
d-781-3	stuff	NOUN	NOUN
d-781-4	,	.	.
d-781-5	brother	NOUN	NOUN
d-781-6	.	.	.

d-782-1	good	ADJ	ADJ
d-782-2	stuff	NOUN	NOUN
d-782-3	.	.	.

d-783-1	-	.	.
d-783-2	yeah	ADV	PRT
d-783-3	?	.	.

d-784-1	your	DET	DET
d-784-2	man	NOUN	NOUN
d-784-3	gave	VERB	VERB
d-784-4	us	PRON	PRON
d-784-5	a	DET	DET
d-784-6	helluva	ADJ	NOUN
d-784-7	case	NOUN	NOUN
d-784-8	.	.	.

d-785-1	comes	VERB	NOUN
d-785-2	to	ADP	ADP
d-785-3	informants	NOUN	VERB
d-785-4	,	.	.
d-785-5	jimmy	NOUN	NOUN
d-785-6	,	.	.
d-785-7	you	PRON	PRON
d-785-8	can	VERB	VERB
d-785-9	pick	VERB	VERB
d-785-10	'em	PRON	.
d-785-11	.	.	.

d-786-1	he's	PRON	PRT
d-786-2	one	NUM	NUM
d-786-3	of	ADP	ADP
d-786-4	the	DET	DET
d-786-5	better	ADJ	ADJ
d-786-6	cis	NOUN	NOUN
d-786-7	i've	PRON	PRT
d-786-8	ever	ADV	ADV
d-786-9	worked	VERB	VERB
d-786-10	.	.	.

d-787-1	you	PRON	PRON
d-787-2	up	ADP	PRT
d-787-3	on	ADP	ADP
d-787-4	a	DET	DET
d-787-5	wire	NOUN	NOUN
d-787-6	?	.	.

d-788-1	that	PRON	PRON
d-788-2	and	CONJ	CONJ
d-788-3	more	ADJ	ADV
d-788-4	.	.	.

d-789-1	yeah	ADV	PRT
d-789-2	,	.	.
d-789-3	he	PRON	PRON
d-789-4	be	VERB	VERB
d-789-5	talkin'	VERB	VERB
d-789-6	like	ADP	ADP
d-789-7	he	PRON	PRON
d-789-8	got	VERB	VERB
d-789-9	some	DET	DET
d-789-10	type	NOUN	NOUN
d-789-11	of	ADP	ADP
d-789-12	record	NOUN	NOUN
d-789-13	deal	NOUN	NOUN
d-789-14	,	.	.
d-789-15	you	PRON	PRON
d-789-16	know	VERB	VERB
d-789-17	?	.	.

d-790-1	nigga	NOUN	NOUN
d-790-2	,	.	.
d-790-3	please	ADV	VERB
d-790-4	.	.	.

d-791-1	that	DET	DET
d-791-2	shit	NOUN	NOUN
d-791-3	you	PRON	PRON
d-791-4	saying	VERB	VERB
d-791-5	.	.	.

d-792-1	oh	X	PRT
d-792-2	,	.	.
d-792-3	nigger	NOUN	NOUN
d-792-4	,	.	.
d-792-5	you	PRON	PRON
d-792-6	having	VERB	VERB
d-792-7	some	DET	DET
d-792-8	pussy-ass	NOUN	NOUN
d-792-9	shit	NOUN	NOUN
d-792-10	.	.	.

d-793-1	-	.	.
d-793-2	jesus	NOUN	NOUN
d-793-3	christ	NOUN	NOUN
d-793-4	.	.	.

d-794-1	-	.	.
d-794-2	pretty	ADV	ADV
d-794-3	fucking	ADJ	VERB
d-794-4	great	ADJ	ADJ
d-794-5	,	.	.
d-794-6	huh	X	PRT
d-794-7	?	.	.

d-795-1	how'd	ADV	VERB
d-795-2	you	PRON	PRON
d-795-3	get	VERB	VERB
d-795-4	this	PRON	PRON
d-795-5	on	ADP	ADP
d-795-6	tape	NOUN	NOUN
d-795-7	?	.	.

d-796-1	that's	PRON	PRT
d-796-2	not	ADV	ADV
d-796-3	tape	NOUN	NOUN
d-796-4	.	.	.

d-797-1	that's	PRON	PRT
d-797-2	live	ADJ	ADJ
d-797-3	,	.	.
d-797-4	brother	NOUN	NOUN
d-797-5	.	.	.

d-798-1	that's	PRON	PRT
d-798-2	live	ADJ	ADJ
d-798-3	?	.	.

d-799-1	live	ADJ	ADJ
d-799-2	from	ADP	ADP
d-799-3	a	DET	DET
d-799-4	three-story	NOUN	NOUN
d-799-5	walkup	NOUN	NOUN
d-799-6	on	ADP	ADP
d-799-7	homer	NOUN	NOUN
d-799-8	avenue	NOUN	NOUN
d-799-9	in	ADP	ADP
d-799-10	the	DET	DET
d-799-11	bottoms	NOUN	NOUN
d-799-12	of	ADP	ADP
d-799-13	pimlico	NOUN	NOUN
d-799-14	.	.	.

d-800-1	this	PRON	PRON
d-800-2	is	VERB	VERB
d-800-3	going	VERB	VERB
d-800-4	on	PRT	ADP
d-800-5	right	ADV	ADV
d-800-6	now	ADV	ADV
d-800-7	?	.	.

d-801-1	-	.	.
d-801-2	as	CONJ	ADP
d-801-3	we	PRON	PRON
d-801-4	speak	VERB	VERB
d-801-5	.	.	.

d-802-1	-	.	.
d-802-2	how	ADV	ADV
d-802-3	?	.	.

d-803-1	fiber-optic	NOUN	ADJ
d-803-2	lensing	NOUN	VERB
d-803-3	.	.	.

d-804-1	camera's	NOUN	NOUN
d-804-2	behind	ADP	ADP
d-804-3	a	DET	DET
d-804-4	hole	NOUN	NOUN
d-804-5	in	ADP	ADP
d-804-6	the	DET	DET
d-804-7	drywall	NOUN	NOUN
d-804-8	.	.	.

d-805-1	so	ADV	ADV
d-805-2	small	ADJ	ADJ
d-805-3	it	PRON	PRON
d-805-4	looks	VERB	VERB
d-805-5	like	ADP	ADP
d-805-6	a	DET	DET
d-805-7	nail	NOUN	NOUN
d-805-8	might've	VERB	NOUN
d-805-9	made	VERB	VERB
d-805-10	it	PRON	PRON
d-805-11	.	.	.

d-806-1	where's	ADV	PRT
d-806-2	the	DET	DET
d-806-3	mic	NOUN	NOUN
d-806-4	?	.	.

d-807-1	these	DET	DET
d-807-2	motherfuckers	NOUN	NOUN
d-807-3	sound	VERB	VERB
d-807-4	great	ADJ	ADJ
d-807-5	.	.	.

d-808-1	two	NUM	NUM
d-808-2	remotes	NOUN	NOUN
d-808-3	behind	ADP	ADP
d-808-4	the	DET	DET
d-808-5	baseboard	NOUN	NOUN
d-808-6	heating	NOUN	VERB
d-808-7	ducts	NOUN	NOUN
d-808-8	.	.	.

d-809-1	that's	PRON	PRT
d-809-2	about	ADP	ADP
d-809-3	three	NUM	NUM
d-809-4	k	NUM	NOUN
d-809-5	of	ADP	ADP
d-809-6	raw	ADJ	NOUN
d-809-7	on	ADP	ADP
d-809-8	the	DET	DET
d-809-9	table	NOUN	NOUN
d-809-10	today	NOUN	NOUN
d-809-11	.	.	.

d-810-1	we	PRON	PRON
d-810-2	followed	VERB	VERB
d-810-3	it	PRON	PRON
d-810-4	all	DET	PRT
d-810-5	the	DET	DET
d-810-6	way	NOUN	NOUN
d-810-7	from	ADP	ADP
d-810-8	new	NOUN	NOUN
d-810-9	york	NOUN	NOUN
d-810-10	.	.	.

d-811-1	-	.	.
d-811-2	you're	PRON	PRT
d-811-3	up	PRT	PRT
d-811-4	in	ADP	ADP
d-811-5	new	NOUN	ADJ
d-811-6	york	NOUN	NOUN
d-811-7	on	ADP	ADP
d-811-8	this	PRON	PRON
d-811-9	?	.	.
d-811-10	-	.	.
d-811-11	we	PRON	PRON
d-811-12	could	VERB	VERB
d-811-13	be	VERB	VERB
d-811-14	.	.	.

d-812-1	we're	PRON	PRT
d-812-2	backing	VERB	VERB
d-812-3	into	PRT	ADP
d-812-4	some	DET	DET
d-812-5	dominicans	NOUN	NOUN
d-812-6	up	ADP	PRT
d-812-7	there	ADV	ADV
d-812-8	.	.	.

d-813-1	we	PRON	PRON
d-813-2	could	VERB	VERB
d-813-3	have	VERB	VERB
d-813-4	a	DET	DET
d-813-5	title	NOUN	NOUN
d-813-6	iii	NUM	NOUN
d-813-7	on	ADP	ADP
d-813-8	them	PRON	PRON
d-813-9	right	ADJ	ADV
d-813-10	now	ADV	ADV
d-813-11	if	CONJ	ADP
d-813-12	we	PRON	PRON
d-813-13	wanted	VERB	VERB
d-813-14	.	.	.

d-814-1	wrong	ADJ	ADJ
d-814-2	war	NOUN	NOUN
d-814-3	,	.	.
d-814-4	brother	NOUN	NOUN
d-814-5	.	.	.

d-815-1	most	ADJ	ADV
d-815-2	of	ADP	ADP
d-815-3	the	DET	DET
d-815-4	squad's	NOUN	NOUN
d-815-5	been	VERB	VERB
d-815-6	transferred	VERB	VERB
d-815-7	to	ADP	ADP
d-815-8	counterterrorism	NOUN	NOUN
d-815-9	.	.	.

d-816-1	this	DET	PRON
d-816-2	thing's	NOUN	ADP
d-816-3	the	DET	DET
d-816-4	last	ADJ	ADJ
d-816-5	drug	NOUN	NOUN
d-816-6	case	NOUN	NOUN
d-816-7	we	PRON	PRON
d-816-8	got	VERB	VERB
d-816-9	pending	ADP	VERB
d-816-10	,	.	.
d-816-11	and	CONJ	CONJ
d-816-12	i	PRON	PRON
d-816-13	gotta	VERB	VERB
d-816-14	shut	VERB	VERB
d-816-15	it	PRON	PRON
d-816-16	down	PRT	ADV
d-816-17	by	ADP	ADP
d-816-18	the	DET	DET
d-816-19	end	NOUN	NOUN
d-816-20	of	ADP	ADP
d-816-21	the	DET	DET
d-816-22	month	NOUN	NOUN
d-816-23	.	.	.

d-817-1	you	DET	PRON
d-817-2	guys	NOUN	NOUN
d-817-3	are	VERB	VERB
d-817-4	getting	VERB	VERB
d-817-5	out	PRT	ADP
d-817-6	of	ADP	ADP
d-817-7	drugs	NOUN	NOUN
d-817-8	?	.	.

d-818-1	yeah	ADV	PRT
d-818-2	,	.	.
d-818-3	for	ADP	ADP
d-818-4	a	DET	DET
d-818-5	while	NOUN	NOUN
d-818-6	,	.	.
d-818-7	yeah	ADV	PRT
d-818-8	.	.	.

d-819-1	we	PRON	PRON
d-819-2	just	ADV	ADV
d-819-3	don't	VERB	VERB
d-819-4	have	VERB	VERB
d-819-5	the	DET	DET
d-819-6	manpower	NOUN	NOUN
d-819-7	to	ADP	ADP
d-819-8	stay	VERB	VERB
d-819-9	on	PRT	ADP
d-819-10	anything	PRON	NOUN
d-819-11	big	ADJ	ADJ
d-819-12	.	.	.

d-820-1	not	ADV	ADV
d-820-2	since	ADP	ADP
d-820-3	those	DET	DET
d-820-4	towers	NOUN	NOUN
d-820-5	fell	VERB	NOUN
d-820-6	.	.	.

d-821-1	what	PRON	PRON
d-821-2	,	.	.
d-821-3	we	PRON	PRON
d-821-4	don't	VERB	VERB
d-821-5	have	VERB	VERB
d-821-6	enough	ADJ	ADV
d-821-7	love	NOUN	VERB
d-821-8	in	ADP	ADP
d-821-9	our	DET	DET
d-821-10	hearts	NOUN	NOUN
d-821-11	for	ADP	ADP
d-821-12	two	NUM	NUM
d-821-13	wars	NOUN	NOUN
d-821-14	?	.	.

d-822-1	joke's	NOUN	NOUN
d-822-2	on	ADP	ADP
d-822-3	us	PRON	PRON
d-822-4	,	.	.
d-822-5	huh	X	PRT
d-822-6	?	.	.

d-823-1	i	PRON	PRON
d-823-2	guess	VERB	VERB
d-823-3	so	ADV	ADV
d-823-4	,	.	.
d-823-5	still	ADJ	ADV
d-823-6	and	CONJ	CONJ
d-823-7	all	ADJ	DET
d-823-8	,	.	.
d-823-9	you	PRON	PRON
d-823-10	give	VERB	VERB
d-823-11	great	ADJ	NOUN
d-823-12	case	NOUN	NOUN
d-823-13	,	.	.
d-823-14	brother	NOUN	NOUN
d-823-15	.	.	.

d-824-1	i	PRON	PRON
d-824-2	wish	VERB	VERB
d-824-3	you	PRON	PRON
d-824-4	could've	VERB	VERB
d-824-5	worked	VERB	VERB
d-824-6	it	PRON	PRON
d-824-7	with	ADP	ADP
d-824-8	us	PRON	PRON
d-824-9	.	.	.

d-825-1	-	.	.
d-825-2	got	VERB	VERB
d-825-3	some	DET	DET
d-825-4	tech-9	NOUN	NOUN
d-825-5	over	ADP	ADP
d-825-6	here	ADV	ADV
d-825-7	.	.	.

d-826-1	-	.	.
d-826-2	over	ADP	ADP
d-826-3	here	ADV	ADV
d-826-4	,	.	.
d-826-5	tech-9	NOUN	NOUN
d-826-6	.	.	.

d-827-1	that's	PRON	PRT
d-827-2	it	PRON	PRON
d-827-3	,	.	.
d-827-4	here's	ADV	PRT
d-827-5	a	DET	DET
d-827-6	!digits	NOUN	NUM
d-827-7	,	.	.
d-827-8	hook	VERB	VERB
d-827-9	it	PRON	PRON
d-827-10	up	PRT	PRT
d-827-11	.	.	.

d-828-1	two	NUM	NUM
d-828-2	and	CONJ	CONJ
d-828-3	two	NUM	NUM
d-828-4	.	.	.

d-829-1	-	.	.
d-829-2	hold	VERB	VERB
d-829-3	up	PRT	PRT
d-829-4	,	.	.
d-829-5	hold	VERB	VERB
d-829-6	up	PRT	PRT
d-829-7	.	.	.

d-830-1	-	.	.
d-830-2	what	PRON	PRON
d-830-3	?	.	.

d-831-1	-	.	.
d-831-2	just	ADV	ADV
d-831-3	two	NUM	NUM
d-831-4	and	CONJ	CONJ
d-831-5	two	NUM	NUM
d-831-6	.	.	.

d-832-1	-	.	.
d-832-2	c'mon	VERB	NOUN
d-832-3	,	.	.
d-832-4	man	NOUN	NOUN
d-832-5	,	.	.
d-832-6	i	PRON	PRON
d-832-7	ain't	VERB	VERB
d-832-8	got	VERB	VERB
d-832-9	time	NOUN	NOUN
d-832-10	for	ADP	ADP
d-832-11	this	PRON	PRON
d-832-12	.	.	.

d-833-1	-	.	.
d-833-2	i	PRON	PRON
d-833-3	gave	VERB	VERB
d-833-4	you	PRON	PRON
d-833-5	!digits	NOUN	NUM
d-833-6	,	.	.
d-833-7	man	NOUN	NOUN
d-833-8	.	.	.

d-834-1	-	.	.
d-834-2	you	PRON	PRON
d-834-3	gave	VERB	VERB
d-834-4	me	PRON	PRON
d-834-5	!digits	NOUN	NUM
d-834-6	?	.	.

d-835-1	-	.	.
d-835-2	!digits	NOUN	NUM
d-835-3	,	.	.
d-835-4	for	ADP	ADP
d-835-5	one	NUM	NUM
d-835-6	and	CONJ	CONJ
d-835-7	a	DET	DET
d-835-8	short	ADJ	ADJ
d-835-9	three	NOUN	NOUN
d-835-10	.	.	.

d-836-1	-	.	.
d-836-2	so	ADV	ADP
d-836-3	you	PRON	PRON
d-836-4	get	VERB	VERB
d-836-5	,	.	.
d-836-6	two	NUM	NUM
d-836-7	...	.	.

d-837-1	-	.	.
d-837-2	seven	NUM	NOUN
d-837-3	!	.	.

d-838-1	-	.	.
d-838-2	hold	VERB	VERB
d-838-3	up	PRT	PRT
d-838-4	,	.	.
d-838-5	hold	VERB	VERB
d-838-6	up	PRT	PRT
d-838-7	.	.	.

d-839-1	-	.	.
d-839-2	i	PRON	PRON
d-839-3	get	VERB	VERB
d-839-4	seven	NUM	VERB
d-839-5	back	ADV	ADV
d-839-6	!	.	.

d-840-1	-	.	.
d-840-2	calm	VERB	NOUN
d-840-3	down	ADP	ADV
d-840-4	,	.	.
d-840-5	calm	VERB	NOUN
d-840-6	down	ADP	PRT
d-840-7	.	.	.

d-841-1	-	.	.
d-841-2	how	ADV	ADV
d-841-3	much	ADJ	ADJ
d-841-4	?	.	.

d-842-1	-	.	.
d-842-2	two	NUM	NUM
d-842-3	and	CONJ	CONJ
d-842-4	two	NUM	NUM
d-842-5	.	.	.

d-843-1	hold	VERB	VERB
d-843-2	up	PRT	PRT
d-843-3	,	.	.
d-843-4	hold	VERB	VERB
d-843-5	up	PRT	PRT
d-843-6	.	.	.

d-844-1	you	PRON	PRON
d-844-2	fuckin'	VERB	VERB
d-844-3	me	PRON	PRON
d-844-4	up	PRT	PRT
d-844-5	.	.	.

d-845-1	chill	VERB	VERB
d-845-2	out	PRT	PRT
d-845-3	.	.	.

d-846-1	-	.	.
d-846-2	come	VERB	VERB
d-846-3	on	PRT	PRT
d-846-4	,	.	.
d-846-5	now	ADV	ADV
d-846-6	.	.	.

d-847-1	-	.	.
d-847-2	hold	VERB	VERB
d-847-3	up	PRT	PRT
d-847-4	,	.	.
d-847-5	hold	VERB	VERB
d-847-6	up	PRT	PRT
d-847-7	.	.	.

d-848-1	you	PRON	PRON
d-848-2	dropping	VERB	VERB
d-848-3	shit	NOUN	NOUN
d-848-4	on	ADP	ADP
d-848-5	the	DET	DET
d-848-6	ground	NOUN	NOUN
d-848-7	?	.	.

d-849-1	-	.	.
d-849-2	hold	VERB	VERB
d-849-3	up	PRT	PRT
d-849-4	,	.	.
d-849-5	hold	VERB	VERB
d-849-6	up	PRT	PRT
d-849-7	.	.	.

d-850-1	-	.	.
d-850-2	i	PRON	PRON
d-850-3	ain't	VERB	VERB
d-850-4	got	VERB	VERB
d-850-5	all	DET	DET
d-850-6	day	NOUN	NOUN
d-850-7	.	.	.

d-851-1	c'mon	VERB	NOUN
d-851-2	,	.	.
d-851-3	man	NOUN	NOUN
d-851-4	,	.	.
d-851-5	it's	PRON	PRT
d-851-6	easy	ADJ	ADJ
d-851-7	.	.	.

d-852-1	just	ADV	ADV
d-852-2	give	VERB	VERB
d-852-3	me	PRON	PRON
d-852-4	mine	PRON	NOUN
d-852-5	,	.	.
d-852-6	man	NOUN	NOUN
d-852-7	.	.	.

d-853-1	what	PRON	PRON
d-853-2	the	DET	DET
d-853-3	fuck	NOUN	NOUN
d-853-4	are	VERB	VERB
d-853-5	you	PRON	PRON
d-853-6	doing	VERB	VERB
d-853-7	?	.	.

d-854-1	look	VERB	VERB
d-854-2	at	ADP	ADP
d-854-3	this	DET	DET
d-854-4	shit	NOUN	NOUN
d-854-5	!	.	.

d-855-1	-	.	.
d-855-2	look	VERB	NOUN
d-855-3	,	.	.
d-855-4	nigger	NOUN	ADJ
d-855-5	,	.	.
d-855-6	look	VERB	VERB
d-855-7	!	.	.

d-856-1	-	.	.
d-856-2	what	PRON	PRON
d-856-3	?	.	.

d-857-1	that's	PRON	PRT
d-857-2	the	DET	DET
d-857-3	motherfucker	NOUN	NOUN
d-857-4	right	ADJ	ADV
d-857-5	there	ADV	ADV
d-857-6	.	.	.

d-858-1	-	.	.
d-858-2	who	PRON	PRON
d-858-3	?	.	.

d-859-1	-	.	.
d-859-2	the	DET	DET
d-859-3	white	ADJ	ADJ
d-859-4	boy	NOUN	NOUN
d-859-5	right	ADJ	ADV
d-859-6	there	ADV	ADV
d-859-7	.	.	.

d-860-1	hey	X	PRT
d-860-2	,	.	.
d-860-3	yo	X	PRT
d-860-4	,	.	.
d-860-5	poot	NOUN	NOUN
d-860-6	,	.	.
d-860-7	grab	VERB	VERB
d-860-8	that	DET	DET
d-860-9	motherfucker	NOUN	NOUN
d-860-10	.	.	.

d-861-1	the	DET	DET
d-861-2	white	ADJ	ADJ
d-861-3	boy	NOUN	NOUN
d-861-4	!	.	.

d-862-1	-	.	.
d-862-2	go	VERB	VERB
d-862-3	get	VERB	VERB
d-862-4	dee	NOUN	NOUN
d-862-5	,	.	.
d-862-6	man	NOUN	NOUN
d-862-7	.	.	.

d-863-1	-	.	.
d-863-2	hold	VERB	VERB
d-863-3	up	PRT	PRT
d-863-4	,	.	.
d-863-5	man	NOUN	PRT
d-863-6	!	.	.

d-864-1	hey	X	PRT
d-864-2	!	.	.

d-865-1	hey	X	PRT
d-865-2	,	.	.
d-865-3	stop	VERB	VERB
d-865-4	that	DET	PRON
d-865-5	white	ADJ	VERB
d-865-6	motherfucker	NOUN	NOUN
d-865-7	!	.	.

d-866-1	yeah	ADV	PRT
d-866-2	,	.	.
d-866-3	motherfucker	NOUN	NOUN
d-866-4	.	.	.

d-867-1	yeah	ADV	PRT
d-867-2	,	.	.
d-867-3	nigger	NOUN	NOUN
d-867-4	,	.	.
d-867-5	yeah	ADV	PRT
d-867-6	!	.	.

d-868-1	-	.	.
d-868-2	fuck	VERB	VERB
d-868-3	that	PRON	PRON
d-868-4	.	.	.

d-869-1	-	.	.
d-869-2	what	PRON	PRON
d-869-3	are	VERB	VERB
d-869-4	you	PRON	PRON
d-869-5	doin'	VERB	NOUN
d-869-6	,	.	.
d-869-7	man	NOUN	NOUN
d-869-8	?	.	.

d-870-1	yeah	ADV	PRT
d-870-2	,	.	.
d-870-3	making	VERB	VERB
d-870-4	me	PRON	PRON
d-870-5	run	VERB	VERB
d-870-6	.	.	.

d-871-1	what	PRON	PRON
d-871-2	the	DET	DET
d-871-3	fuck	NOUN	NOUN
d-871-4	is	VERB	VERB
d-871-5	wrong	ADJ	ADJ
d-871-6	with	ADP	ADP
d-871-7	you	PRON	PRON
d-871-8	?	.	.

d-872-1	what	PRON	PRON
d-872-2	,	.	.
d-872-3	man	NOUN	NOUN
d-872-4	?	.	.

d-873-1	why	ADV	ADV
d-873-2	you	PRON	PRON
d-873-3	fucking	VERB	VERB
d-873-4	with	ADP	ADP
d-873-5	me	PRON	PRON
d-873-6	?	.	.

d-874-1	shit	NOUN	NOUN
d-874-2	.	.	.

d-875-1	this	PRON	PRON
d-875-2	the	DET	DET
d-875-3	motherfucker	NOUN	NOUN
d-875-4	right	ADJ	ADV
d-875-5	here	ADV	ADV
d-875-6	with	ADP	ADP
d-875-7	the	DET	DET
d-875-8	make-believe	ADJ	NOUN
d-875-9	money	NOUN	NOUN
d-875-10	.	.	.

d-876-1	seen	VERB	VERB
d-876-2	his	DET	DET
d-876-3	ass	NOUN	NOUN
d-876-4	drop	VERB	VERB
d-876-5	it	PRON	PRON
d-876-6	and	CONJ	CONJ
d-876-7	shit	NOUN	NOUN
d-876-8	.	.	.

d-877-1	wasn't	VERB	VERB
d-877-2	me	PRON	PRON
d-877-3	.	.	.

d-878-1	motherfucker	NOUN	NOUN
d-878-2	.	.	.

d-879-1	it	PRON	PRON
d-879-2	was	VERB	VERB
d-879-3	this	DET	DET
d-879-4	nigger	NOUN	NOUN
d-879-5	,	.	.
d-879-6	i	PRON	PRON
d-879-7	saw	VERB	VERB
d-879-8	him	PRON	PRON
d-879-9	.	.	.

d-880-1	get	VERB	VERB
d-880-2	the	DET	DET
d-880-3	fuck	NOUN	NOUN
d-880-4	up	PRT	PRT
d-880-5	.	.	.

d-881-1	all	DET	DET
d-881-2	right	ADJ	ADJ
d-881-3	,	.	.
d-881-4	listen	VERB	PRT
d-881-5	,	.	.
d-881-6	i'm	PRON	PRT
d-881-7	sorry	ADJ	ADJ
d-881-8	.	.	.

d-882-1	fuck	VERB	VERB
d-882-2	that	PRON	PRON
d-882-3	.	.	.

d-883-1	yo	X	PRT
d-883-2	,	.	.
d-883-3	what	PRON	PRON
d-883-4	we	PRON	PRON
d-883-5	need	VERB	VERB
d-883-6	to	ADP	ADP
d-883-7	do	VERB	VERB
d-883-8	--	.	.
d-883-9	this	DET	DET
d-883-10	motherfucker	NOUN	NOUN
d-883-11	burned	VERB	VERB
d-883-12	us	PRON	PRON
d-883-13	for	ADP	ADP
d-883-14	$	NOUN	NUM
d-883-15	!digits	NUM	NUM
d-883-16	.	.	.

d-884-1	we	PRON	PRON
d-884-2	need	VERB	VERB
d-884-3	to	ADP	ADP
d-884-4	take	VERB	VERB
d-884-5	him	PRON	PRON
d-884-6	to	ADP	ADP
d-884-7	franklin	NOUN	VERB
d-884-8	ave.	NOUN	NOUN
d-884-9	and	CONJ	CONJ
d-884-10	throw	VERB	VERB
d-884-11	his	DET	DET
d-884-12	ass	NOUN	NOUN
d-884-13	right	ADV	ADV
d-884-14	onto	ADP	ADP
d-884-15	the	DET	DET
d-884-16	motherfuckin’	ADJ	NOUN
d-884-17	expressway	NOUN	NOUN
d-884-18	.	.	.

d-885-1	all	ADJ	DET
d-885-2	right	ADJ	ADJ
d-885-3	,	.	.
d-885-4	listen	VERB	PRT
d-885-5	,	.	.
d-885-6	i'm	PRON	PRT
d-885-7	fuckin'	ADV	ADJ
d-885-8	sorry	ADJ	ADJ
d-885-9	.	.	.

d-886-1	-	.	.
d-886-2	i	PRON	PRON
d-886-3	fucked	VERB	VERB
d-886-4	up	PRT	PRT
d-886-5	,	.	.
d-886-6	man	NOUN	PRT
d-886-7	.	.	.

d-887-1	-	.	.
d-887-2	what	PRON	PRON
d-887-3	you	PRON	PRON
d-887-4	got	VERB	VERB
d-887-5	on	PRT	ADP
d-887-6	you	PRON	PRON
d-887-7	?	.	.

d-888-1	just	ADV	ADV
d-888-2	the	DET	DET
d-888-3	!digits	NOUN	NUM
d-888-4	i	PRON	PRON
d-888-5	dropped	VERB	VERB
d-888-6	,	.	.
d-888-7	man	NOUN	NOUN
d-888-8	,	.	.
d-888-9	the	DET	DET
d-888-10	real	ADJ	ADJ
d-888-11	one	NOUN	NUM
d-888-12	.	.	.

d-889-1	well	X	PRT
d-889-2	,	.	.
d-889-3	what's	PRON	PRT
d-889-4	up	PRT	PRT
d-889-5	?	.	.
d-889-6	!	.	.

d-890-1	fuck	VERB	VERB
d-890-2	it	PRON	PRON
d-890-3	.	.	.

d-891-1	hell	X	NOUN
d-891-2	,	.	.
d-891-3	yeah	ADV	PRT
d-891-4	!	.	.

d-892-1	for	ADP	ADP
d-892-2	now	ADV	ADV
d-892-3	,	.	.
d-892-4	we'll	PRON	PRT
d-892-5	work	VERB	VERB
d-892-6	out	PRT	ADP
d-892-7	of	ADP	ADP
d-892-8	narcotics	NOUN	NOUN
d-892-9	,	.	.
d-892-10	with	ADP	ADP
d-892-11	kima	NOUN	NOUN
d-892-12	keeping	VERB	VERB
d-892-13	the	DET	DET
d-892-14	file	NOUN	NOUN
d-892-15	.	.	.

d-893-1	we'll	PRON	PRT
d-893-2	copy	VERB	VERB
d-893-3	everything	PRON	NOUN
d-893-4	to	ADP	ADP
d-893-5	ronnie	NOUN	VERB
d-893-6	at	ADP	ADP
d-893-7	the	DET	DET
d-893-8	courthouse	NOUN	NOUN
d-893-9	,	.	.
d-893-10	and	CONJ	CONJ
d-893-11	your	DET	DET
d-893-12	people	NOUN	NOUN
d-893-13	down	ADP	ADP
d-893-14	the	DET	DET
d-893-15	hall	NOUN	NOUN
d-893-16	.	.	.

d-894-1	-	.	.
d-894-2	fine	ADJ	NOUN
d-894-3	with	ADP	ADP
d-894-4	us	PRON	PRON
d-894-5	.	.	.

d-895-1	mcnulty	NOUN	NOUN
d-895-2	and	CONJ	CONJ
d-895-3	santangelo	NOUN	NOUN
d-895-4	will	VERB	VERB
d-895-5	work	VERB	VERB
d-895-6	back	PRT	ADV
d-895-7	on	ADP	ADP
d-895-8	some	PRON	DET
d-895-9	of	ADP	ADP
d-895-10	the	DET	DET
d-895-11	open	ADJ	ADJ
d-895-12	murders	NOUN	NOUN
d-895-13	,	.	.
d-895-14	see	VERB	VERB
d-895-15	if	CONJ	ADP
d-895-16	anything	PRON	NOUN
d-895-17	can	VERB	VERB
d-895-18	be	VERB	VERB
d-895-19	manufactured	VERB	VERB
d-895-20	there	ADV	PRT
d-895-21	.	.	.

d-896-1	kima	NOUN	NOUN
d-896-2	and	CONJ	CONJ
d-896-3	my	DET	DET
d-896-4	people	NOUN	NOUN
d-896-5	will	VERB	VERB
d-896-6	start	VERB	VERB
d-896-7	doing	VERB	VERB
d-896-8	some	PRON	DET
d-896-9	hand-to-hand	NOUN	NOUN
d-896-10	stuff	NOUN	NOUN
d-896-11	in	ADP	ADP
d-896-12	the	DET	DET
d-896-13	terrace	NOUN	NOUN
d-896-14	.	.	.

d-897-1	buy-bust	NOUN	NOUN
d-897-2	,	.	.
d-897-3	quick	ADJ	ADJ
d-897-4	and	CONJ	CONJ
d-897-5	dirty	ADJ	NOUN
d-897-6	.	.	.

d-898-1	we	PRON	PRON
d-898-2	put	VERB	VERB
d-898-3	some	DET	DET
d-898-4	years	NOUN	NOUN
d-898-5	over	ADP	ADP
d-898-6	top	NOUN	NOUN
d-898-7	of	ADP	ADP
d-898-8	some	PRON	DET
d-898-9	of	ADP	ADP
d-898-10	these	DET	DET
d-898-11	low-level	ADJ	NOUN
d-898-12	people	NOUN	NOUN
d-898-13	,	.	.
d-898-14	we'll	PRON	PRT
d-898-15	roll	VERB	VERB
d-898-16	a	DET	DET
d-898-17	few	NOUN	ADJ
d-898-18	no	DET	DET
d-898-19	problem	NOUN	NOUN
d-898-20	.	.	.

d-899-1	you're	PRON	PRT
d-899-2	not	ADV	ADV
d-899-3	gonna	VERB	VERB
d-899-4	get	VERB	VERB
d-899-5	avon	NOUN	NOUN
d-899-6	barksdale	NOUN	NOUN
d-899-7	or	CONJ	CONJ
d-899-8	stringer	NOUN	NOUN
d-899-9	bell	NOUN	NOUN
d-899-10	,	.	.
d-899-11	or	CONJ	CONJ
d-899-12	anyone	PRON	NOUN
d-899-13	else	ADJ	ADV
d-899-14	above	ADP	VERB
d-899-15	the	DET	DET
d-899-16	street	NOUN	NOUN
d-899-17	,	.	.
d-899-18	not	ADV	ADV
d-899-19	on	ADP	ADP
d-899-20	street	NOUN	NOUN
d-899-21	rips	NOUN	NOUN
d-899-22	.	.	.

d-900-1	-	.	.
d-900-2	you	PRON	PRON
d-900-3	don't	VERB	VERB
d-900-4	know	VERB	VERB
d-900-5	that	PRON	PRON
d-900-6	.	.	.

d-901-1	-	.	.
d-901-2	these	DET	DET
d-901-3	guys	NOUN	NOUN
d-901-4	are	VERB	VERB
d-901-5	good	ADJ	ADJ
d-901-6	.	.	.

d-902-1	they're	PRON	PRT
d-902-2	deep	ADJ	ADJ
d-902-3	,	.	.
d-902-4	they're	PRON	PRT
d-902-5	organized	ADJ	ADJ
d-902-6	.	.	.

d-903-1	they've	PRON	PRT
d-903-2	got	VERB	VERB
d-903-3	everyone	PRON	NOUN
d-903-4	in	ADP	ADP
d-903-5	the	DET	DET
d-903-6	terraces	NOUN	NOUN
d-903-7	running	VERB	VERB
d-903-8	scared	ADJ	ADJ
d-903-9	.	.	.

d-904-1	what	PRON	PRON
d-904-2	do	VERB	VERB
d-904-3	you	PRON	PRON
d-904-4	suggest	VERB	VERB
d-904-5	?	.	.

d-905-1	surveillance	NOUN	NOUN
d-905-2	teams	NOUN	NOUN
d-905-3	,	.	.
d-905-4	dnrs	NOUN	NOUN
d-905-5	,	.	.
d-905-6	asset	NOUN	ADJ
d-905-7	investigation	NOUN	NOUN
d-905-8	.	.	.

d-906-1	keep	VERB	VERB
d-906-2	gathering	VERB	VERB
d-906-3	string	NOUN	VERB
d-906-4	till	ADP	ADP
d-906-5	we	PRON	PRON
d-906-6	can	VERB	VERB
d-906-7	find	VERB	VERB
d-906-8	a	DET	DET
d-906-9	way	NOUN	NOUN
d-906-10	in	ADP	ADP
d-906-11	.	.	.

d-907-1	either	CONJ	CONJ
d-907-2	a	DET	DET
d-907-3	wired	ADJ	ADJ
d-907-4	ci	NOUN	NOUN
d-907-5	or	CONJ	CONJ
d-907-6	a	DET	DET
d-907-7	title	NOUN	NOUN
d-907-8	iii	NOUN	NOUN
d-907-9	.	.	.

d-908-1	that's	PRON	PRT
d-908-2	what	PRON	PRON
d-908-3	makes	VERB	VERB
d-908-4	this	DET	DET
d-908-5	case	NOUN	NOUN
d-908-6	.	.	.

d-909-1	is	VERB	VERB
d-909-2	that	PRON	PRON
d-909-3	what	PRON	PRON
d-909-4	you	PRON	PRON
d-909-5	told	VERB	VERB
d-909-6	the	DET	DET
d-909-7	judge	NOUN	NOUN
d-909-8	?	.	.

d-910-1	okay	X	PRT
d-910-2	,	.	.
d-910-3	so	X	ADV
d-910-4	,	.	.
d-910-5	i'm	PRON	PRT
d-910-6	an	DET	DET
d-910-7	asshole	NOUN	NOUN
d-910-8	for	ADP	ADP
d-910-9	that	PRON	PRON
d-910-10	.	.	.

d-911-1	but	CONJ	CONJ
d-911-2	i'm	PRON	PRT
d-911-3	right	ADJ	ADV
d-911-4	about	ADP	ADP
d-911-5	this	ADV	DET
d-911-6	much	ADJ	ADJ
d-911-7	.	.	.

d-912-1	no	DET	DET
d-912-2	mics	NOUN	NOUN
d-912-3	,	.	.
d-912-4	no	DET	DET
d-912-5	wires	NOUN	NOUN
d-912-6	.	.	.

d-913-1	we	PRON	PRON
d-913-2	do	VERB	VERB
d-913-3	this	PRON	DET
d-913-4	fast	ADJ	ADJ
d-913-5	and	CONJ	CONJ
d-913-6	clean	ADJ	NOUN
d-913-7	and	CONJ	CONJ
d-913-8	simple	ADJ	NOUN
d-913-9	.	.	.

d-914-1	-	.	.
d-914-2	then	ADV	ADV
d-914-3	you	PRON	PRON
d-914-4	don't	VERB	VERB
d-914-5	do	VERB	VERB
d-914-6	it	PRON	PRON
d-914-7	at	ADV	ADP
d-914-8	all	ADV	DET
d-914-9	.	.	.

d-915-1	-	.	.
d-915-2	what	PRON	PRON
d-915-3	the	DET	DET
d-915-4	--	.	X

d-916-1	seems	VERB	VERB
d-916-2	to	ADP	ADP
d-916-3	me	PRON	PRON
d-916-4	you	DET	PRON
d-916-5	all	NOUN	DET
d-916-6	could've	VERB	NOUN
d-916-7	had	VERB	VERB
d-916-8	this	DET	DET
d-916-9	fight	NOUN	NOUN
d-916-10	between	ADP	ADP
d-916-11	yourselves	PRON	PRON
d-916-12	before	ADP	ADP
d-916-13	calling	VERB	VERB
d-916-14	in	ADP	ADP
d-916-15	the	DET	DET
d-916-16	state's	NOUN	NOUN
d-916-17	attorney's	NOUN	NOUN
d-916-18	office	NOUN	NOUN
d-916-19	.	.	.

d-917-1	let	VERB	VERB
d-917-2	me	PRON	PRON
d-917-3	ask	VERB	VERB
d-917-4	you	PRON	PRON
d-917-5	something	PRON	NOUN
d-917-6	,	.	.
d-917-7	what	PRON	PRON
d-917-8	do	VERB	VERB
d-917-9	we	PRON	PRON
d-917-10	know	VERB	VERB
d-917-11	about	ADP	ADP
d-917-12	avon	NOUN	NOUN
d-917-13	barksdale	NOUN	NOUN
d-917-14	?	.	.

d-918-1	what	PRON	PRON
d-918-2	do	VERB	VERB
d-918-3	we	PRON	PRON
d-918-4	know	VERB	VERB
d-918-5	?	.	.

d-919-1	the	DET	DET
d-919-2	guy's	PRON	NOUN
d-919-3	owned	VERB	VERB
d-919-4	all	DET	DET
d-919-5	of	ADP	ADP
d-919-6	franklin	NOUN	VERB
d-919-7	terrace	NOUN	NOUN
d-919-8	for	ADP	ADP
d-919-9	a	DET	DET
d-919-10	year	NOUN	NOUN
d-919-11	.	.	.

d-920-1	what	PRON	PRON
d-920-2	do	VERB	VERB
d-920-3	we	PRON	PRON
d-920-4	have	VERB	VERB
d-920-5	on	ADP	ADP
d-920-6	him	PRON	PRON
d-920-7	right	ADV	ADV
d-920-8	now	ADV	ADV
d-920-9	?	.	.

d-921-1	a	DET	DET
d-921-2	dob	NOUN	NOUN
d-921-3	?	.	.
d-921-4	a	DET	DET
d-921-5	sheet	NOUN	NOUN
d-921-6	?	.	.

d-922-1	a	DET	DET
d-922-2	b-of-i	NOUN	NOUN
d-922-3	photo	NOUN	NOUN
d-922-4	?	.	.

d-923-1	we	PRON	PRON
d-923-2	don't	VERB	VERB
d-923-3	even	ADV	ADV
d-923-4	have	VERB	VERB
d-923-5	a	DET	DET
d-923-6	fucking	ADJ	ADJ
d-923-7	photo	NOUN	NOUN
d-923-8	of	ADP	ADP
d-923-9	the	DET	DET
d-923-10	guy	NOUN	NOUN
d-923-11	.	.	.

d-924-1	gimme	VERB	PRT
d-924-2	a	DET	DET
d-924-3	break	NOUN	NOUN
d-924-4	,	.	.
d-924-5	jimmy	NOUN	NOUN
d-924-6	.	.	.

d-925-1	two	NUM	NUM
d-925-2	days	NOUN	NOUN
d-925-3	ago	ADJ	ADV
d-925-4	no	DET	DET
d-925-5	one	NOUN	NUM
d-925-6	on	ADP	ADP
d-925-7	this	DET	DET
d-925-8	fucking	ADJ	ADJ
d-925-9	floor	NOUN	NOUN
d-925-10	knew	VERB	VERB
d-925-11	this	DET	DET
d-925-12	mope's	NOUN	NOUN
d-925-13	name	NOUN	NOUN
d-925-14	.	.	.

d-926-1	now	ADV	ADV
d-926-2	he's	PRON	PRT
d-926-3	some	DET	DET
d-926-4	kinda	NOUN	ADV
d-926-5	criminal	ADJ	ADJ
d-926-6	mastermind	NOUN	NOUN
d-926-7	.	.	.

d-927-1	shit	X	NOUN
d-927-2	,	.	.
d-927-3	i	PRON	PRON
d-927-4	say	VERB	VERB
d-927-5	we	PRON	PRON
d-927-6	go	VERB	VERB
d-927-7	down	ADP	ADV
d-927-8	to	ADP	ADP
d-927-9	the	DET	DET
d-927-10	terrace	NOUN	NOUN
d-927-11	and	CONJ	CONJ
d-927-12	fuck	VERB	VERB
d-927-13	some	DET	DET
d-927-14	people	NOUN	NOUN
d-927-15	up	PRT	PRT
d-927-16	.	.	.

d-928-1	you	PRON	PRON
d-928-2	all	ADJ	DET
d-928-3	don't	VERB	VERB
d-928-4	need	VERB	VERB
d-928-5	a	DET	DET
d-928-6	prosecutor	NOUN	NOUN
d-928-7	,	.	.
d-928-8	you	PRON	PRON
d-928-9	need	VERB	VERB
d-928-10	a	DET	DET
d-928-11	fucking	ADJ	ADJ
d-928-12	referee	NOUN	NOUN
d-928-13	.	.	.

d-929-1	when	ADV	ADV
d-929-2	you	PRON	PRON
d-929-3	know	VERB	VERB
d-929-4	how	ADV	ADV
d-929-5	you're	PRON	PRT
d-929-6	playing	VERB	VERB
d-929-7	this	PRON	PRON
d-929-8	,	.	.
d-929-9	give	VERB	VERB
d-929-10	a	DET	DET
d-929-11	yell	NOUN	NOUN
d-929-12	.	.	.

d-930-1	we	PRON	PRON
d-930-2	know	VERB	VERB
d-930-3	how	ADV	ADV
d-930-4	we're	PRON	PRT
d-930-5	playing	VERB	VERB
d-930-6	it	PRON	PRON
d-930-7	.	.	.

d-931-1	my	DET	DET
d-931-2	people	NOUN	NOUN
d-931-3	are	VERB	VERB
d-931-4	going	VERB	VERB
d-931-5	down	ADP	ADV
d-931-6	to	ADP	ADP
d-931-7	do	VERB	VERB
d-931-8	some	DET	DET
d-931-9	hand-to-hands	NOUN	NOUN
d-931-10	.	.	.

d-932-1	detectives	NOUN	NOUN
d-932-2	mcnulty	NOUN	NOUN
d-932-3	and	CONJ	CONJ
d-932-4	santangelo	NOUN	NOUN
d-932-5	are	VERB	VERB
d-932-6	going	VERB	VERB
d-932-7	back	ADV	ADV
d-932-8	down	ADP	ADP
d-932-9	the	DET	DET
d-932-10	hall	NOUN	NOUN
d-932-11	to	ADP	ADP
d-932-12	review	VERB	VERB
d-932-13	any	DET	DET
d-932-14	old	ADJ	ADJ
d-932-15	murder	NOUN	NOUN
d-932-16	files	NOUN	NOUN
d-932-17	and	CONJ	CONJ
d-932-18	try	VERB	VERB
d-932-19	to	ADP	ADP
d-932-20	manufacture	VERB	VERB
d-932-21	a	DET	DET
d-932-22	fresh	ADJ	ADJ
d-932-23	prosecution	NOUN	NOUN
d-932-24	.	.	.

d-933-1	now	ADV	ADV
d-933-2	as	ADP	ADP
d-933-3	things	NOUN	NOUN
d-933-4	heat	NOUN	VERB
d-933-5	up	PRT	PRT
d-933-6	,	.	.
d-933-7	i'll	PRON	PRT
d-933-8	go	VERB	VERB
d-933-9	to	ADP	ADP
d-933-10	the	DET	DET
d-933-11	deputy	NOUN	NOUN
d-933-12	and	CONJ	CONJ
d-933-13	get	VERB	VERB
d-933-14	us	PRON	PRON
d-933-15	more	ADJ	ADJ
d-933-16	manpower	NOUN	NOUN
d-933-17	,	.	.
d-933-18	but	CONJ	CONJ
d-933-19	this	DET	DET
d-933-20	case	NOUN	NOUN
d-933-21	is	VERB	VERB
d-933-22	not	ADV	ADV
d-933-23	going	VERB	VERB
d-933-24	to	ADP	ADP
d-933-25	sprawl	VERB	NOUN
d-933-26	.	.	.

d-934-1	a	DET	DET
d-934-2	month	NOUN	NOUN
d-934-3	from	ADP	ADP
d-934-4	now	ADV	ADV
d-934-5	,	.	.
d-934-6	we're	PRON	PRT
d-934-7	all	ADJ	DET
d-934-8	gonna	VERB	VERB
d-934-9	be	VERB	VERB
d-934-10	back	ADV	ADV
d-934-11	at	ADP	ADP
d-934-12	our	DET	DET
d-934-13	day	NOUN	NOUN
d-934-14	jobs	NOUN	NOUN
d-934-15	.	.	.

d-935-1	fine	X	ADJ
d-935-2	.	.	.

d-936-1	bring	VERB	VERB
d-936-2	me	PRON	PRON
d-936-3	your	DET	DET
d-936-4	hand-to-hands	NOUN	NOUN
d-936-5	.	.	.

d-937-1	anything	PRON	NOUN
d-937-2	on	ADP	ADP
d-937-3	the	DET	DET
d-937-4	murders	NOUN	NOUN
d-937-5	,	.	.
d-937-6	you	PRON	PRON
d-937-7	can	VERB	VERB
d-937-8	take	VERB	VERB
d-937-9	to	ADP	ADP
d-937-10	ilene	NOUN	NOUN
d-937-11	nathan	NOUN	NOUN
d-937-12	in	ADP	ADP
d-937-13	violent	NOUN	NOUN
d-937-14	crimes	NOUN	NOUN
d-937-15	.	.	.

d-938-1	i'll	PRON	PRT
d-938-2	clue	VERB	VERB
d-938-3	her	PRON	PRON
d-938-4	in	PRT	ADP
d-938-5	.	.	.

d-939-1	anything	PRON	NOUN
d-939-2	else	ADJ	ADV
d-939-3	?	.	.

d-940-1	one	NUM	NUM
d-940-2	last	ADJ	ADJ
d-940-3	thing	NOUN	NOUN
d-940-4	...	.	.
d-940-5	no	DET	PRT
d-940-6	one	NOUN	PRT
d-940-7	does	VERB	VERB
d-940-8	anything	PRON	NOUN
d-940-9	at	ADP	ADP
d-940-10	all	ADV	DET
d-940-11	on	ADP	ADP
d-940-12	the	DET	DET
d-940-13	street	NOUN	NOUN
d-940-14	without	ADP	ADP
d-940-15	me	PRON	PRON
d-940-16	knowing	VERB	VERB
d-940-17	about	ADP	ADP
d-940-18	it	PRON	PRON
d-940-19	first	ADV	ADJ
d-940-20	.	.	.

d-941-1	chain-of-command	NOUN	NOUN
d-941-2	,	.	.
d-941-3	detective	NOUN	ADJ
d-941-4	.	.	.

d-942-1	that's	PRON	PRT
d-942-2	how	ADV	ADV
d-942-3	we	PRON	PRON
d-942-4	do	VERB	VERB
d-942-5	things	NOUN	NOUN
d-942-6	down	ADP	ADP
d-942-7	this	DET	PRON
d-942-8	end	NOUN	NOUN
d-942-9	of	ADP	ADP
d-942-10	the	DET	DET
d-942-11	hall	NOUN	NOUN
d-942-12	.	.	.

d-943-1	if	CONJ	ADP
d-943-2	she's	PRON	PRT
d-943-3	fucking	VERB	VERB
d-943-4	you	PRON	PRON
d-943-5	on	ADP	ADP
d-943-6	visitation	NOUN	NOUN
d-943-7	,	.	.
d-943-8	take	VERB	VERB
d-943-9	her	PRON	DET
d-943-10	ass	NOUN	NOUN
d-943-11	to	ADP	ADP
d-943-12	court	NOUN	NOUN
d-943-13	.	.	.

d-944-1	not	ADV	ADV
d-944-2	that	ADV	ADP
d-944-3	simple	ADJ	ADJ
d-944-4	,	.	.
d-944-5	bunk	NOUN	NOUN
d-944-6	.	.	.

d-945-1	judge	NOUN	NOUN
d-945-2	gives	VERB	VERB
d-945-3	me	PRON	PRON
d-945-4	three	NUM	NUM
d-945-5	weekends	NOUN	NOUN
d-945-6	out	ADP	ADP
d-945-7	of	ADP	ADP
d-945-8	four	NUM	NOUN
d-945-9	,	.	.
d-945-10	i	PRON	PRON
d-945-11	still	ADV	ADV
d-945-12	need	VERB	VERB
d-945-13	her	PRON	PRON
d-945-14	to	ADP	ADP
d-945-15	cooperate	VERB	VERB
d-945-16	.	.	.

d-946-1	you	PRON	PRON
d-946-2	know	VERB	VERB
d-946-3	,	.	.
d-946-4	move	VERB	VERB
d-946-5	it	PRON	PRON
d-946-6	around	PRT	ADP
d-946-7	...	.	.
d-946-8	so	CONJ	ADV
d-946-9	,	,	.
d-946-10	when	ADV	ADV
d-946-11	i	PRON	PRON
d-946-12	have	VERB	VERB
d-946-13	to	ADP	ADP
d-946-14	work	VERB	VERB
d-946-15	through	ADP	ADP
d-946-16	a	DET	DET
d-946-17	weekend	NOUN	NOUN
d-946-18	,	,	.
d-946-19	she	PRON	PRON
d-946-20	switches	VERB	VERB
d-946-21	with	ADP	ADP
d-946-22	me	PRON	PRON
d-946-23	.	.	.

d-947-1	the	DET	DET
d-947-2	judge	NOUN	NOUN
d-947-3	gives	VERB	VERB
d-947-4	me	PRON	PRON
d-947-5	three	NUM	NUM
d-947-6	weekends	NOUN	NOUN
d-947-7	but	CONJ	CONJ
d-947-8	no	DET	DET
d-947-9	flex	NOUN	NOUN
d-947-10	,	.	.
d-947-11	i	PRON	PRON
d-947-12	still	ADV	ADV
d-947-13	lose	VERB	VERB
d-947-14	.	.	.

d-948-1	you	DET	PRON
d-948-2	two	NOUN	ADV
d-948-3	can't	VERB	VERB
d-948-4	talk	VERB	VERB
d-948-5	this	PRON	PRON
d-948-6	through	ADP	ADP
d-948-7	?	.	.

d-949-1	no	ADV	PRT
d-949-2	.	.	.

d-950-1	how	ADV	ADV
d-950-2	is	VERB	VERB
d-950-3	it	PRON	PRON
d-950-4	you	PRON	PRON
d-950-5	always	ADV	ADV
d-950-6	got	VERB	VERB
d-950-7	the	DET	DET
d-950-8	whole	ADJ	ADJ
d-950-9	world	NOUN	NOUN
d-950-10	pissed	VERB	VERB
d-950-11	off	PRT	PRT
d-950-12	at	ADP	ADP
d-950-13	you	PRON	PRON
d-950-14	?	.	.

d-951-1	you	PRON	PRON
d-951-2	know	VERB	VERB
d-951-3	daniels	NOUN	NOUN
d-951-4	?	.	.

d-952-1	-	.	.
d-952-2	narcotics	NOUN	NOUN
d-952-3	?	.	.
d-952-4	-	.	.
d-952-5	mm-hmm	X	PRT
d-952-6	,	.	.
d-952-7	what	PRON	PRON
d-952-8	about	ADP	ADP
d-952-9	him	PRON	PRON
d-952-10	?	.	.

d-953-1	he's	PRON	PRT
d-953-2	running	VERB	VERB
d-953-3	this	DET	DET
d-953-4	detail	NOUN	NOUN
d-953-5	.	.	.

d-954-1	watch	VERB	VERB
d-954-2	your	DET	DET
d-954-3	ass	NOUN	NOUN
d-954-4	then	ADV	ADV
d-954-5	.	.	.

d-955-1	he	PRON	PRON
d-955-2	a	DET	DET
d-955-3	snake	NOUN	ADJ
d-955-4	?	.	.

d-956-1	no	ADV	PRT
d-956-2	,	.	.
d-956-3	he	PRON	PRON
d-956-4	ain't	VERB	VERB
d-956-5	that	PRON	PRON
d-956-6	.	.	.

d-957-1	but	CONJ	CONJ
d-957-2	he's	PRON	PRT
d-957-3	a	DET	DET
d-957-4	company	NOUN	NOUN
d-957-5	man	NOUN	NOUN
d-957-6	.	.	.

d-958-1	you	PRON	PRON
d-958-2	know	VERB	VERB
d-958-3	,	.	.
d-958-4	a	DET	DET
d-958-5	prospect	NOUN	NOUN
d-958-6	.	.	.

d-959-1	grapevine	NOUN	NOUN
d-959-2	says	VERB	VERB
d-959-3	the	DET	DET
d-959-4	next	ADJ	ADJ
d-959-5	district	NOUN	NOUN
d-959-6	to	ADP	ADP
d-959-7	open	VERB	VERB
d-959-8	up	PRT	PRT
d-959-9	is	VERB	VERB
d-959-10	his	PRON	DET
d-959-11	.	.	.

d-960-1	short	NOUN	ADJ
d-960-2	list	NOUN	NOUN
d-960-3	for	ADP	ADP
d-960-4	major	NOUN	NOUN
d-960-5	?	.	.

d-961-1	he's	PRON	PRT
d-961-2	black	ADJ	ADJ
d-961-3	,	.	.
d-961-4	still	ADV	ADV
d-961-5	young	ADJ	ADJ
d-961-6	,	.	.
d-961-7	he	PRON	PRON
d-961-8	hasn't	VERB	VERB
d-961-9	pissed	VERB	VERB
d-961-10	anybody	PRON	NOUN
d-961-11	off	PRT	PRT
d-961-12	.	.	.

d-962-1	shit	NOUN	NOUN
d-962-2	,	.	.
d-962-3	he	PRON	PRON
d-962-4	even	ADV	ADV
d-962-5	has	VERB	VERB
d-962-6	a	DET	DET
d-962-7	law	NOUN	NOUN
d-962-8	degree	NOUN	NOUN
d-962-9	.	.	.

d-963-1	no	DET	DET
d-963-2	shit	NOUN	NOUN
d-963-3	.	.	.

d-964-1	university	NOUN	NOUN
d-964-2	of	ADP	ADP
d-964-3	baltimore	NOUN	NOUN
d-964-4	,	.	.
d-964-5	but	CONJ	CONJ
d-964-6	still	ADV	ADV
d-964-7	,	.	.
d-964-8	you	PRON	PRON
d-964-9	know	VERB	VERB
d-964-10	.	.	.

d-965-1	he's	PRON	PRT
d-965-2	gonna	VERB	VERB
d-965-3	fuck	VERB	VERB
d-965-4	this	DET	DET
d-965-5	barksdale	NOUN	NOUN
d-965-6	thing	NOUN	NOUN
d-965-7	up	PRT	PRT
d-965-8	.	.	.

d-966-1	how's	ADV	PRT
d-966-2	that	PRON	PRON
d-966-3	?	.	.

d-967-1	buy-bust	NOUN	NOUN
d-967-2	?	.	.

d-968-1	he's	PRON	PRT
d-968-2	pissin'	VERB	NOUN
d-968-3	in	ADP	ADP
d-968-4	the	DET	DET
d-968-5	wind	NOUN	NOUN
d-968-6	.	.	.

d-969-1	you	PRON	PRON
d-969-2	already	ADV	ADV
d-969-3	fucked	VERB	VERB
d-969-4	it	PRON	PRON
d-969-5	up	PRT	PRT
d-969-6	,	.	.
d-969-7	jimmy	NOUN	NOUN
d-969-8	.	.	.

d-970-1	you	PRON	PRON
d-970-2	made	VERB	VERB
d-970-3	it	PRON	PRON
d-970-4	happen	VERB	VERB
d-970-5	.	.	.

d-971-1	i	PRON	PRON
d-971-2	feel	VERB	VERB
d-971-3	like	ADP	ADP
d-971-4	that	DET	DET
d-971-5	motherfucker	NOUN	NOUN
d-971-6	at	ADP	ADP
d-971-7	the	DET	DET
d-971-8	end	NOUN	NOUN
d-971-9	of	ADP	ADP
d-971-10	"	.	.
d-971-11	bridge	NOUN	NOUN
d-971-12	on	ADP	ADP
d-971-13	the	DET	DET
d-971-14	river	NOUN	NOUN
d-971-15	kwai	NOUN	NOUN
d-971-16	"	.	.
d-971-17	,	.	.
d-971-18	you	PRON	PRON
d-971-19	know	VERB	VERB
d-971-20	?	.	.

d-972-1	what	PRON	PRON
d-972-2	the	DET	DET
d-972-3	fuck	NOUN	NOUN
d-972-4	did	VERB	VERB
d-972-5	i	PRON	PRON
d-972-6	do	VERB	VERB
d-972-7	?	.	.

d-973-1	the	DET	DET
d-973-2	bridge	NOUN	NOUN
d-973-3	of	ADP	ADP
d-973-4	what	PRON	PRON
d-973-5	?	.	.

d-974-1	-	.	.
d-974-2	you	PRON	PRON
d-974-3	ain't	VERB	VERB
d-974-4	seen	VERB	VERB
d-974-5	that	DET	DET
d-974-6	movie	NOUN	NOUN
d-974-7	?	.	.
d-974-8	-	.	X
d-974-9	mm-mmm	X	PRT
d-974-10	.	.	.

d-975-1	i	PRON	PRON
d-975-2	am	VERB	VERB
d-975-3	fucked	ADJ	ADJ
d-975-4	.	.	.

d-976-1	fucked	ADJ	VERB
d-976-2	is	VERB	VERB
d-976-3	me	PRON	PRON
d-976-4	.	.	.

d-977-1	goddamnit	X	PRT
d-977-2	,	.	.
d-977-3	you	PRON	PRON
d-977-4	gonna	VERB	VERB
d-977-5	make	VERB	VERB
d-977-6	me	PRON	PRON
d-977-7	go	VERB	VERB
d-977-8	another	DET	DET
d-977-9	round	NOUN	NOUN
d-977-10	.	.	.

d-978-1	two	NOUN	NUM
d-978-2	more	ADJ	ADJ
d-978-3	.	.	.

d-979-1	it's	PRON	PRT
d-979-2	all	ADJ	DET
d-979-3	in	ADP	ADP
d-979-4	the	DET	DET
d-979-5	game	NOUN	NOUN
d-979-6	.	.	.

d-980-1	i'm	PRON	PRT
d-980-2	sayin'	VERB	ADJ
d-980-3	it	PRON	PRON
d-980-4	was	VERB	VERB
d-980-5	only	ADJ	ADV
d-980-6	a	DET	DET
d-980-7	couple	NOUN	NOUN
d-980-8	dollars	NOUN	NOUN
d-980-9	.	.	.

d-981-1	-	.	.
d-981-2	it	PRON	PRON
d-981-3	ain't	VERB	VERB
d-981-4	the	DET	DET
d-981-5	money	NOUN	NOUN
d-981-6	.	.	.

d-982-1	-	.	.
d-982-2	we	PRON	PRON
d-982-3	fucked	VERB	VERB
d-982-4	him	PRON	PRON
d-982-5	up	PRT	PRT
d-982-6	so	ADV	ADV
d-982-7	bad	ADJ	ADJ
d-982-8	.	.	.

d-983-1	it's	PRON	PRT
d-983-2	the	DET	DET
d-983-3	message	NOUN	NOUN
d-983-4	,	.	.
d-983-5	dee	NOUN	NOUN
d-983-6	.	.	.

d-984-1	you	PRON	PRON
d-984-2	can't	VERB	VERB
d-984-3	show	VERB	VERB
d-984-4	no	DET	DET
d-984-5	weakness	NOUN	NOUN
d-984-6	.	.	.

d-985-1	still	ADV	ADV
d-985-2	,	.	.
d-985-3	i'm	PRON	PRT
d-985-4	sayin'	VERB	ADJ
d-985-5	--	.	.

d-986-1	hmm	X	PRT
d-986-2	?	.	.

d-987-1	string	NOUN	VERB
d-987-2	.	.	.

d-988-1	yo	X	PRT
d-988-2	,	.	.
d-988-3	stringer	NOUN	NOUN
d-988-4	!	.	.

d-989-1	you	PRON	PRON
d-989-2	ain't	VERB	VERB
d-989-3	touched	VERB	VERB
d-989-4	that	DET	PRON
d-989-5	drink	NOUN	VERB
d-989-6	.	.	.

d-990-1	you	PRON	PRON
d-990-2	want	VERB	VERB
d-990-3	some	DET	DET
d-990-4	company	NOUN	NOUN
d-990-5	?	.	.

d-991-1	i	PRON	PRON
d-991-2	ain't	VERB	VERB
d-991-3	no	DET	DET
d-991-4	john	NOUN	NOUN
d-991-5	.	.	.

d-992-1	good	ADJ	ADJ
d-992-2	,	.	.
d-992-3	'cause	CONJ	.
d-992-4	i	PRON	PRON
d-992-5	ain't	VERB	VERB
d-992-6	no	DET	DET
d-992-7	whore	NOUN	NOUN
d-992-8	.	.	.

d-993-1	i'm	PRON	PRT
d-993-2	not	ADV	ADV
d-993-3	a	DET	DET
d-993-4	regular	NOUN	ADJ
d-993-5	,	.	.
d-993-6	okay	X	PRT
d-993-7	?	.	.

d-994-1	i	PRON	PRON
d-994-2	work	NOUN	VERB
d-994-3	for	ADP	ADP
d-994-4	stringer	NOUN	NOUN
d-994-5	,	.	.
d-994-6	i	PRON	PRON
d-994-7	work	NOUN	VERB
d-994-8	with	ADP	ADP
d-994-9	stringer	NOUN	NOUN
d-994-10	,	.	.
d-994-11	okay	X	PRT
d-994-12	?	.	.

d-995-1	he	PRON	PRON
d-995-2	pay	VERB	VERB
d-995-3	you	PRON	PRON
d-995-4	,	.	.
d-995-5	don't	VERB	VERB
d-995-6	he	PRON	PRON
d-995-7	?	.	.

d-996-1	c'mon	VERB	NOUN
d-996-2	,	.	.
d-996-3	honey	NOUN	NOUN
d-996-4	,	.	.
d-996-5	buy	VERB	VERB
d-996-6	me	PRON	PRON
d-996-7	a	DET	DET
d-996-8	drink	NOUN	NOUN
d-996-9	.	.	.

d-997-1	-	.	.
d-997-2	how	ADV	ADV
d-997-3	much	ADJ	ADV
d-997-4	?	.	.
d-997-5	-	.	X
d-997-6	!digits	NUM	NUM
d-997-7	.	.	.

d-998-1	i	PRON	PRON
d-998-2	drink	VERB	VERB
d-998-3	slow	ADV	NOUN
d-998-4	.	.	.

d-999-1	maybe	ADV	ADV
d-999-2	another	DET	DET
d-999-3	time	NOUN	NOUN
d-999-4	.	.	.

d-1000-1	buy	VERB	VERB
d-1000-2	me	PRON	PRON
d-1000-3	a	DET	DET
d-1000-4	drink	NOUN	NOUN
d-1000-5	,	.	.
d-1000-6	honey	NOUN	NOUN
d-1000-7	?	.	.

d-1001-1	how	ADV	ADV
d-1001-2	'bout	ADP	.
d-1001-3	you	PRON	PRON
d-1001-4	buy	VERB	VERB
d-1001-5	me	PRON	PRON
d-1001-6	a	DET	DET
d-1001-7	drink	NOUN	NOUN
d-1001-8	?	.	.

d-1002-1	carla	NOUN	NOUN
d-1002-2	.	.	.

d-1003-1	one	NUM	NUM
d-1003-2	here	ADV	ADV
d-1003-3	.	.	.

d-1004-1	hey	X	PRT
d-1004-2	.	.	.

d-1005-1	where	ADV	ADV
d-1005-2	you	PRON	PRON
d-1005-3	at	ADP	ADP
d-1005-4	?	.	.

d-1006-1	where	ADV	ADV
d-1006-2	you	PRON	PRON
d-1006-3	think	VERB	VERB
d-1006-4	?	.	.

d-1007-1	late	ADV	ADJ
d-1007-2	for	ADP	ADP
d-1007-3	work	NOUN	NOUN
d-1007-4	?	.	.

d-1008-1	a	DET	DET
d-1008-2	little	ADJ	ADJ
d-1008-3	.	.	.

d-1009-1	how	ADV	ADV
d-1009-2	much	ADJ	ADV
d-1009-3	you	PRON	PRON
d-1009-4	got	VERB	VERB
d-1009-5	left	ADJ	VERB
d-1009-6	?	.	.

d-1010-1	girl	NOUN	NOUN
d-1010-2	,	.	.
d-1010-3	please	ADV	VERB
d-1010-4	.	.	.

d-1011-1	so	X	ADV
d-1011-2	,	.	.
d-1011-3	i	PRON	PRON
d-1011-4	drive	VERB	VERB
d-1011-5	all	DET	PRT
d-1011-6	the	DET	DET
d-1011-7	way	NOUN	NOUN
d-1011-8	down	ADP	ADV
d-1011-9	to	ADP	ADP
d-1011-10	liberty	NOUN	NOUN
d-1011-11	road	NOUN	NOUN
d-1011-12	at	ADP	ADP
d-1011-13	!digits	NUM	NUM
d-1011-14	COL	.	.
d-1011-15	!digits	NUM	NUM
d-1011-16	in	ADP	ADP
d-1011-17	the	DET	DET
d-1011-18	damn	ADJ	ADJ
d-1011-19	morning	NOUN	NOUN
d-1011-20	,	.	.
d-1011-21	on	ADP	ADP
d-1011-22	a	DET	DET
d-1011-23	midnight	NOUN	NOUN
d-1011-24	shift	NOUN	NOUN
d-1011-25	.	.	.

d-1012-1	i	PRON	PRON
d-1012-2	got	VERB	VERB
d-1012-3	two	NUM	NUM
d-1012-4	murders	NOUN	NOUN
d-1012-5	and	CONJ	CONJ
d-1012-6	a	DET	DET
d-1012-7	police	NOUN	ADJ
d-1012-8	shooting	NOUN	NOUN
d-1012-9	going	VERB	VERB
d-1012-10	down	PRT	PRT
d-1012-11	,	.	.
d-1012-12	to	ADP	ADP
d-1012-13	do	VERB	VERB
d-1012-14	what	PRON	PRON
d-1012-15	?	.	.

d-1013-1	to	ADP	ADP
d-1013-2	get	VERB	VERB
d-1013-3	a	DET	DET
d-1013-4	goddamn	ADJ	NOUN
d-1013-5	mouse	NOUN	NOUN
d-1013-6	out	ADP	ADP
d-1013-7	of	ADP	ADP
d-1013-8	my	DET	DET
d-1013-9	wife's	DET	NOUN
d-1013-10	bedroom	NOUN	NOUN
d-1013-11	closet	NOUN	NOUN
d-1013-12	.	.	.

d-1014-1	can	VERB	VERB
d-1014-2	you	PRON	PRON
d-1014-3	imagine	VERB	VERB
d-1014-4	that	DET	DET
d-1014-5	shit	NOUN	NOUN
d-1014-6	?	.	.

d-1015-1	so	X	ADV
d-1015-2	,	.	.
d-1015-3	what	PRON	PRON
d-1015-4	did	VERB	VERB
d-1015-5	you	PRON	PRON
d-1015-6	do	VERB	VERB
d-1015-7	?	.	.

d-1016-1	what	PRON	PRON
d-1016-2	the	DET	DET
d-1016-3	fuck	NOUN	NOUN
d-1016-4	you	PRON	PRON
d-1016-5	think	VERB	VERB
d-1016-6	?	.	.

d-1017-1	i	PRON	PRON
d-1017-2	got	VERB	VERB
d-1017-3	the	DET	DET
d-1017-4	mouse	NOUN	NOUN
d-1017-5	out	ADP	PRT
d-1017-6	as	ADP	ADV
d-1017-7	fast	ADJ	ADJ
d-1017-8	as	ADP	ADP
d-1017-9	i	PRON	PRON
d-1017-10	could	VERB	VERB
d-1017-11	and	CONJ	CONJ
d-1017-12	drove	VERB	VERB
d-1017-13	back	ADV	ADV
d-1017-14	to	ADP	ADP
d-1017-15	work	NOUN	NOUN
d-1017-16	.	.	.

d-1018-1	couldn't	VERB	VERB
d-1018-2	do	VERB	VERB
d-1018-3	nothing	PRON	NOUN
d-1018-4	else	ADJ	ADV
d-1018-5	.	.	.

d-1019-1	nadine	NOUN	NOUN
d-1019-2	out	ADP	ADP
d-1019-3	of	ADP	ADP
d-1019-4	her	PRON	DET
d-1019-5	fucking	ADJ	NOUN
d-1019-6	mind	NOUN	NOUN
d-1019-7	over	ADP	ADP
d-1019-8	this	DET	DET
d-1019-9	little-ass	ADJ	NOUN
d-1019-10	field	NOUN	NOUN
d-1019-11	mouse	NOUN	NOUN
d-1019-12	.	.	.

d-1020-1	i	PRON	PRON
d-1020-2	mean	VERB	VERB
d-1020-3	,	.	.
d-1020-4	she's	PRON	PRT
d-1020-5	up	ADP	PRT
d-1020-6	on	ADP	ADP
d-1020-7	the	DET	DET
d-1020-8	chair	NOUN	NOUN
d-1020-9	and	CONJ	CONJ
d-1020-10	shit	NOUN	NOUN
d-1020-11	when	ADV	ADV
d-1020-12	i	PRON	PRON
d-1020-13	come	VERB	VERB
d-1020-14	,	.	.
d-1020-15	like	ADP	ADP
d-1020-16	some	DET	DET
d-1020-17	goddamn	ADJ	ADJ
d-1020-18	cartoon	NOUN	NOUN
d-1020-19	.	.	.

d-1021-1	i	PRON	PRON
d-1021-2	mean	VERB	VERB
d-1021-3	,	.	.
d-1021-4	how'd	ADV	X
d-1021-5	you	PRON	PRON
d-1021-6	catch	VERB	VERB
d-1021-7	the	DET	DET
d-1021-8	mouse	NOUN	NOUN
d-1021-9	?	.	.

d-1022-1	catch	VERB	VERB
d-1022-2	him	PRON	PRON
d-1022-3	?	.	.
d-1022-4	i	PRON	PRON
d-1022-5	lit	VERB	VERB
d-1022-6	his	DET	DET
d-1022-7	ass	NOUN	NOUN
d-1022-8	up	PRT	PRT
d-1022-9	.	.	.

d-1023-1	you	PRON	PRON
d-1023-2	shot	VERB	VERB
d-1023-3	the	DET	DET
d-1023-4	mouse	NOUN	NOUN
d-1023-5	?	.	.

d-1024-1	-	.	.
d-1024-2	mm-hmm	X	NOUN
d-1024-3	.	.	.

d-1025-1	-	.	.
d-1025-2	with	ADP	ADP
d-1025-3	your	DET	DET
d-1025-4	nine	NOUN	NOUN
d-1025-5	?	.	.

d-1026-1	first	ADJ	ADJ
d-1026-2	shot	NOUN	NOUN
d-1026-3	killed	VERB	VERB
d-1026-4	my	DET	DET
d-1026-5	wife's	DET	NOUN
d-1026-6	dress	NOUN	NOUN
d-1026-7	shoe	NOUN	NOUN
d-1026-8	.	.	.

d-1027-1	got	VERB	VERB
d-1027-2	him	PRON	PRON
d-1027-3	with	ADP	ADP
d-1027-4	the	DET	DET
d-1027-5	second	NOUN	NOUN
d-1027-6	.	.	.

d-1028-1	what	PRON	PRON
d-1028-2	?	.	.

d-1029-1	you	PRON	PRON
d-1029-2	shot	VERB	VERB
d-1029-3	a	DET	DET
d-1029-4	mouse	NOUN	NOUN
d-1029-5	with	ADP	ADP
d-1029-6	your	DET	DET
d-1029-7	service	NOUN	NOUN
d-1029-8	weapon	NOUN	NOUN
d-1029-9	?	.	.

d-1030-1	yeah	ADV	PRT
d-1030-2	.	.	.

d-1031-1	what'd	PRON	NOUN
d-1031-2	you	PRON	PRON
d-1031-3	do	VERB	VERB
d-1031-4	with	ADP	ADP
d-1031-5	the	DET	DET
d-1031-6	carcass	NOUN	NOUN
d-1031-7	?	.	.

d-1032-1	i	PRON	PRON
d-1032-2	cleaned	VERB	VERB
d-1032-3	it	PRON	PRON
d-1032-4	up	PRT	PRT
d-1032-5	,	.	.
d-1032-6	you	PRON	PRON
d-1032-7	know	VERB	VERB
d-1032-8	.	.	.

d-1033-1	i	PRON	PRON
d-1033-2	thought	VERB	VERB
d-1033-3	about	ADP	ADP
d-1033-4	leavin'	VERB	NOUN
d-1033-5	that	DET	DET
d-1033-6	little	ADJ	ADJ
d-1033-7	motherfucker	NOUN	NOUN
d-1033-8	there	ADV	ADV
d-1033-9	as	ADP	ADP
d-1033-10	a	DET	DET
d-1033-11	warning	NOUN	NOUN
d-1033-12	to	ADP	ADP
d-1033-13	the	DET	DET
d-1033-14	others	NOUN	NOUN
d-1033-15	.	.	.

d-1034-1	oh	X	PRT
d-1034-2	,	.	.
d-1034-3	fuck	VERB	VERB
d-1034-4	me	PRON	PRON
d-1034-5	.	.	.

d-1035-1	it's	PRON	PRT
d-1035-2	!digits	NUM	NUM
d-1035-3	COL	.	X
d-1035-4	!digits	NUM	NUM
d-1035-5	in	ADP	ADP
d-1035-6	the	DET	DET
d-1035-7	morning	NOUN	NOUN
d-1035-8	.	.	.

d-1036-1	i'm	PRON	PRT
d-1036-2	supposed	VERB	ADJ
d-1036-3	to	ADP	ADP
d-1036-4	be	VERB	VERB
d-1036-5	early	ADJ	ADJ
d-1036-6	relief	NOUN	NOUN
d-1036-7	.	.	.

d-1037-1	jimmy	NOUN	NOUN
d-1037-2	,	.	.
d-1037-3	man	NOUN	NOUN
d-1037-4	,	.	.
d-1037-5	i	PRON	PRON
d-1037-6	gotta	VERB	VERB
d-1037-7	change	VERB	VERB
d-1037-8	my	DET	DET
d-1037-9	clothes	NOUN	NOUN
d-1037-10	at	ADP	ADP
d-1037-11	least	ADJ	ADJ
d-1037-12	,	.	.
d-1037-13	c'mon	VERB	NOUN
d-1037-14	.	.	.

d-1038-1	i'm	PRON	PRT
d-1038-2	gonna	VERB	VERB
d-1038-3	do	VERB	VERB
d-1038-4	this	DET	DET
d-1038-5	case	NOUN	NOUN
d-1038-6	.	.	.

d-1039-1	what	PRON	PRON
d-1039-2	?	.	.

d-1040-1	i'm	PRON	PRT
d-1040-2	gonna	VERB	VERB
d-1040-3	do	VERB	VERB
d-1040-4	this	DET	PRON
d-1040-5	case	NOUN	VERB
d-1040-6	the	DET	DET
d-1040-7	way	NOUN	NOUN
d-1040-8	it	PRON	PRON
d-1040-9	should	VERB	VERB
d-1040-10	be	VERB	VERB
d-1040-11	done	VERB	VERB
d-1040-12	.	.	.

d-1041-1	it's	PRON	PRT
d-1041-2	a	DET	DET
d-1041-3	buy-bust	NOUN	NOUN
d-1041-4	,	.	.
d-1041-5	jimmy	NOUN	NOUN
d-1041-6	,	.	.
d-1041-7	get	VERB	VERB
d-1041-8	in	ADP	ADP
d-1041-9	and	CONJ	CONJ
d-1041-10	get	VERB	VERB
d-1041-11	out	ADP	PRT
d-1041-12	.	.	.

d-1042-1	-	.	.
d-1042-2	fuck	VERB	VERB
d-1042-3	that	PRON	PRON
d-1042-4	.	.	.

d-1043-1	-	.	.
d-1043-2	jimmy	NOUN	NOUN
d-1043-3	.	.	.

d-1044-1	let's	VERB	PRT
d-1044-2	call	VERB	VERB
d-1044-3	it	PRON	PRON
d-1044-4	a	DET	DET
d-1044-5	night	NOUN	NOUN
d-1044-6	.	.	.

d-1045-1	hey	X	PRT
d-1045-2	,	.	.
d-1045-3	bubs	NOUN	NOUN
d-1045-4	.	.	.

d-1046-1	thought	VERB	VERB
d-1046-2	you	PRON	PRON
d-1046-3	was	VERB	VERB
d-1046-4	still	ADV	ADV
d-1046-5	locked	ADJ	VERB
d-1046-6	up	PRT	PRT
d-1046-7	.	.	.

d-1047-1	nope	ADV	NOUN
d-1047-2	.	.	.

d-1048-1	how	ADV	ADV
d-1048-2	long	ADJ	ADJ
d-1048-3	you	PRON	PRON
d-1048-4	been	VERB	VERB
d-1048-5	home	NOUN	NOUN
d-1048-6	?	.	.

d-1049-1	it's	PRON	PRT
d-1049-2	been	VERB	VERB
d-1049-3	three	NUM	ADJ
d-1049-4	months	NOUN	NOUN
d-1049-5	.	.	.

d-1050-1	you	PRON	PRON
d-1050-2	don't	VERB	VERB
d-1050-3	write	VERB	VERB
d-1050-4	,	.	.
d-1050-5	you	PRON	PRON
d-1050-6	don't	VERB	VERB
d-1050-7	call	VERB	VERB
d-1050-8	.	.	.

d-1051-1	who's	PRON	PRT
d-1051-2	he	PRON	PRON
d-1051-3	?	.	.

d-1052-1	a	DET	DET
d-1052-2	friend	NOUN	NOUN
d-1052-3	.	.	.

d-1053-1	is	VERB	VERB
d-1053-2	he	PRON	PRON
d-1053-3	gonna	VERB	VERB
d-1053-4	make	VERB	VERB
d-1053-5	it	PRON	PRON
d-1053-6	?	.	.

d-1054-1	you	PRON	PRON
d-1054-2	still	ADV	ADV
d-1054-3	working	VERB	VERB
d-1054-4	drugs	NOUN	NOUN
d-1054-5	?	.	.

d-1055-1	downtown	ADV	NOUN
d-1055-2	,	.	.
d-1055-3	yeah	ADV	PRT
d-1055-4	.	.	.

d-1056-1	i	PRON	PRON
d-1056-2	got	VERB	VERB
d-1056-3	something	PRON	NOUN
d-1056-4	for	ADP	ADP
d-1056-5	you	PRON	PRON
d-1056-6	.	.	.

d-1057-1	-	.	.
d-1057-2	last	ADJ	ADJ
d-1057-3	call	NOUN	NOUN
d-1057-4	!	.	.
d-1057-5	-	.	.
d-1057-6	oh	X	PRT
d-1057-7	,	.	.
d-1057-8	fuck	VERB	NOUN
d-1057-9	.	.	.

d-1058-1	found	VERB	VERB
d-1058-2	body	NOUN	NOUN
d-1058-3	.	.	.

d-1059-1	!digits	NUM	NUM
d-1059-2	block	NOUN	NOUN
d-1059-3	amity	NOUN	NOUN
d-1059-4	.	.	.

d-1060-1	i'm	PRON	PRT
d-1060-2	a	DET	DET
d-1060-3	little	ADV	ADJ
d-1060-4	thin	ADJ	NOUN
d-1060-5	today	ADV	NOUN
d-1060-6	,	.	.
d-1060-7	boss	NOUN	NOUN
d-1060-8	.	.	.

d-1061-1	the	DET	DET
d-1061-2	whole	ADJ	ADJ
d-1061-3	squad's	NOUN	NOUN
d-1061-4	a	DET	DET
d-1061-5	little	ADV	ADJ
d-1061-6	thin	ADJ	NOUN
d-1061-7	,	.	.
d-1061-8	remember	VERB	VERB
d-1061-9	?	.	.

d-1062-1	we're	PRON	PRT
d-1062-2	down	ADP	PRT
d-1062-3	a	DET	DET
d-1062-4	man	NOUN	NOUN
d-1062-5	since	ADP	ADP
d-1062-6	your	DET	DET
d-1062-7	partner	NOUN	NOUN
d-1062-8	got	VERB	VERB
d-1062-9	himself	PRON	PRON
d-1062-10	detailed	VERB	NOUN
d-1062-11	.	.	.

d-1063-1	yeah	ADV	PRT
d-1063-2	,	.	.
d-1063-3	yeah	ADV	PRT
d-1063-4	,	.	.
d-1063-5	yeah	ADV	PRT
d-1063-6	.	.	.

d-1064-1	i	PRON	PRON
d-1064-2	got	VERB	VERB
d-1064-3	it	PRON	PRON
d-1064-4	.	.	.

d-1065-1	jesus	X	NOUN
d-1065-2	.	.	.

d-1066-1	how	ADV	ADV
d-1066-2	you	PRON	PRON
d-1066-3	doin'	VERB	VERB
d-1066-4	,	.	.
d-1066-5	bobby	NOUN	NOUN
d-1066-6	?	.	.

d-1067-1	hey	X	PRT
d-1067-2	,	.	.
d-1067-3	bunk	NOUN	NOUN
d-1067-4	,	.	.
d-1067-5	what's	PRON	PRT
d-1067-6	going	VERB	VERB
d-1067-7	on	PRT	PRT
d-1067-8	,	.	.
d-1067-9	man	NOUN	NOUN
d-1067-10	?	.	.

d-1068-1	we	PRON	PRON
d-1068-2	got	VERB	VERB
d-1068-3	one	NUM	PRON
d-1068-4	or	CONJ	CONJ
d-1068-5	two	NUM	NUM
d-1068-6	shots	NOUN	NOUN
d-1068-7	to	ADP	ADP
d-1068-8	the	DET	DET
d-1068-9	head	NOUN	NOUN
d-1068-10	.	.	.

d-1069-1	no	DET	DET
d-1069-2	witnesses	NOUN	NOUN
d-1069-3	,	.	.
d-1069-4	no	DET	DET
d-1069-5	suspects	NOUN	NOUN
d-1069-6	.	.	.

d-1070-1	you	PRON	PRON
d-1070-2	got	VERB	VERB
d-1070-3	a	DET	DET
d-1070-4	.380	NUM	.
d-1070-5	casing	NOUN	VERB
d-1070-6	on	ADP	ADP
d-1070-7	the	DET	DET
d-1070-8	ground	NOUN	NOUN
d-1070-9	there	ADV	ADV
d-1070-10	.	.	.

d-1071-1	hey	X	PRT
d-1071-2	,	.	.
d-1071-3	buddy	NOUN	NOUN
d-1071-4	,	.	.
d-1071-5	do	VERB	VERB
d-1071-6	me	PRON	PRON
d-1071-7	a	DET	DET
d-1071-8	favor	NOUN	NOUN
d-1071-9	,	.	.
d-1071-10	bag	VERB	VERB
d-1071-11	that	PRON	ADP
d-1071-12	for	ADP	ADP
d-1071-13	me	PRON	PRON
d-1071-14	,	.	.
d-1071-15	huh	X	PRT
d-1071-16	?	.	.

d-1072-1	so	ADV	ADV
d-1072-2	,	.	.
d-1072-3	who	PRON	PRON
d-1072-4	called	VERB	VERB
d-1072-5	it	PRON	PRON
d-1072-6	in	PRT	ADP
d-1072-7	?	.	.

d-1073-1	no	DET	DET
d-1073-2	one	PRON	NUM
d-1073-3	,	.	.
d-1073-4	!digits	NUM	NUM
d-1073-5	post	NOUN	NOUN
d-1073-6	found	VERB	VERB
d-1073-7	him	PRON	PRON
d-1073-8	.	.	.

d-1074-1	it's	PRON	PRT
d-1074-2	a	DET	DET
d-1074-3	william	NOUN	NOUN
d-1074-4	gant	NOUN	NOUN
d-1074-5	,	.	.
d-1074-6	!digits	NUM	NUM
d-1074-7	,	.	.
d-1074-8	no	DET	PRT
d-1074-9	,	.	.
d-1074-10	!digits	NUM	NUM
d-1074-11	years	NOUN	NOUN
d-1074-12	old	ADJ	ADJ
d-1074-13	,	.	.
d-1074-14	address	NOUN	NOUN
d-1074-15	on	ADP	ADP
d-1074-16	schroeder	NOUN	NOUN
d-1074-17	.	.	.

d-1075-1	-	.	.
d-1075-2	you	PRON	PRON
d-1075-3	got	VERB	VERB
d-1075-4	pictures	NOUN	NOUN
d-1075-5	?	.	.
d-1075-6	-	.	.
d-1075-7	yeah	ADV	PRT
d-1075-8	,	.	.
d-1075-9	we	PRON	PRON
d-1075-10	got	VERB	VERB
d-1075-11	'em	PRON	VERB
d-1075-12	.	.	.

d-1076-1	okay	X	PRT
d-1076-2	,	.	.
d-1076-3	let's	VERB	PRT
d-1076-4	roll	VERB	VERB
d-1076-5	him	PRON	PRON
d-1076-6	.	.	.
